'switch capacitor filter.  Use tr 0 50u .1u.  Gen freq 100k 
#Time       v(1)       v(2)       v(3)       stepcause(0)
 0.         0.         0.         0.         ??        
 1.n        628.32u    616.24u    12.083u    ??        
 2.n        0.0012566  0.0012265  30.089u    ??        
 5.267n     0.0033093  0.0031429  166.42u    ??        
 13.88n     0.008721   0.0077195  0.0010014  ??        
 22.493n    0.014132   0.011746   0.0023862  ??        
 41.87n     0.026305   0.019604   0.0067003  ??        
 70.935n    0.044555   0.029757   0.014798   ??        
 100.n      0.062791   0.039142   0.023649   ??        
 125.n      0.078459   0.047035   0.031425   ??        
 162.5n     0.10192    0.058782   0.043143   ??        
 200.n      0.12533    0.070472   0.054861   ??        
 250.n      0.15643    0.085993   0.070442   ??        
 300.n      0.18738    0.10143    0.085954   ??        
 400.n      0.24869    0.13198    0.11671    ??        
 500.n      0.30902    0.16202    0.147      ??        
 600.n      0.36812    0.20611    0.081008   ??        
 606.24n    0.37176    0.20975    0.071499   ??        
 612.47n    0.3754     0.21338    0.063107   ??        
 616.45n    0.37771    0.2157     0.058277   ??        
 620.43n    0.38003    0.21801    0.053817   ??        
 660.21n    0.40303    0.24101    0.023182   ??        
 700.n      0.42578    0.26376    0.0099858  ??        
 739.79n    0.44826    0.28625    0.0043015  ??        
 800.n      0.48175    0.31974    0.0010682  ??        
 825.n      0.49546    0.33344    640.91u    ??        
 850.n      0.50904    0.34702    384.55u    ??        
 875.n      0.5225     0.36048    230.73u    ??        
 900.n      0.53583    0.37381    138.44u    ??        
 925.n      0.54902    0.38701    83.062u    ??        
 962.5n     0.56856    0.40655    37.756u    ??        
 1.u        0.58779    0.42577    17.162u    ??        
 1.0375u    0.60668    0.34938    0.095294   ??        
 1.0515u    0.61363    0.30012    0.1515     ??        
 1.0654u    0.62053    0.27384    0.18469    ??        
 1.0741u    0.62478    0.26463    0.19815    ??        
 1.0827u    0.62901    0.25875    0.20826    ??        
 1.1u       0.63742    0.2531     0.22231    ??        
 1.1173u    0.64576    0.25245    0.2313     ??        
 1.1346u    0.65402    0.25421    0.23779    ??        
 1.1509u    0.66175    0.25695    0.2428     ??        
 1.1755u    0.67323    0.26188    0.24934    ??        
 1.2u       0.68455    0.26721    0.25533    ??        
 1.225u     0.69591    0.27272    0.26119    ??        
 1.2625u    0.71264    0.28092    0.26971    ??        
 1.3u       0.72897    0.28895    0.27802    ??        
 1.35u      0.75011    0.29934    0.28877    ??        
 1.4u       0.77051    0.30935    0.29915    ??        
 1.5u       0.80902    0.33766    0.15468    ??        
 1.5052u    0.81093    0.33957    0.13943    ??        
 1.5104u    0.81283    0.34147    0.12569    ??        
 1.5143u    0.81425    0.34289    0.11626    ??        
 1.5182u    0.81567    0.34431    0.10754    ??        
 1.6u       0.84433    0.37297    0.010741   ??        
 1.65u      0.86074    0.38938    0.0035803  ??        
 1.675u     0.86863    0.39727    0.0021482  ??        
 1.7u       0.87631    0.40495    0.0012889  ??        
 1.725u     0.88377    0.41241    773.34u    ??        
 1.7625u    0.89454    0.42318    351.52u    ??        
 1.8u       0.90483    0.43347    159.78u    ??        
 1.8375u    0.91461    0.44325    72.627u    ??        
 1.875u     0.92388    0.45252    33.012u    ??        
 1.9u       0.92978    0.45842    19.807u    ??        
 1.925u     0.93544    0.46408    11.884u    ??        
 1.9625u    0.94351    0.47215    5.402u     ??        
 2.u        0.95106    0.4797     2.4555u    ??        
 2.0375u    0.95807    0.38242    0.1043     ??        
 2.075u     0.96456    0.26832    0.22488    ??        
 2.0875u    0.9666     0.26147    0.23377    ??        
 2.1u       0.96858    0.25771    0.23951    ??        
 2.1125u    0.97051    0.2558     0.24334    ??        
 2.125u     0.97237    0.25499    0.24602    ??        
 2.15u      0.97592    0.25496    0.2496     ??        
 2.175u     0.97922    0.25593    0.25194    ??        
 2.2u       0.98229    0.25715    0.25378    ??        
 2.225u     0.98511    0.25838    0.25537    ??        
 2.25u      0.98769    0.25953    0.2568     ??        
 2.275u     0.99002    0.26056    0.2581     ??        
 2.3u       0.99211    0.26149    0.25927    ??        
 2.35u      0.99556    0.26296    0.26124    ??        
 2.4u       0.99803    0.26395    0.26272    ??        
 2.5u       1.         0.26444    0.2642     ??        
 2.6u       0.99803    0.26222    0.13222    ??        
 2.6138u    0.99744    0.26164    0.10011    ??        
 2.6276u    0.99679    0.26098    0.075802   ??        
 2.6415u    0.99605    0.26025    0.057394   ??        
 2.6553u    0.99524    0.25944    0.043457   ??        
 2.7u       0.99211    0.25631    0.016599   ??        
 2.7447u    0.9882     0.2524     0.0063407  ??        
 2.7894u    0.98351    0.24771    0.002422   ??        
 2.8u       0.98229    0.24648    0.0019593  ??        
 2.825u     0.97922    0.24342    0.0011756  ??        
 2.8625u    0.97417    0.23837    534.36u    ??        
 2.9u       0.96858    0.23278    242.89u    ??        
 2.9375u    0.96246    0.22665    110.41u    ??        
 2.975u     0.95579    0.21999    50.184u    ??        
 3.u        0.95106    0.21525    30.111u    ??        
 3.025u     0.94609    0.17524    0.035066   ??        
 3.0333u    0.94439    0.15372    0.05488    ??        
 3.0416u    0.94266    0.13806    0.068815   ??        
 3.0469u    0.94154    0.13035    0.075411   ??        
 3.0522u    0.94041    0.124      0.080632   ??        
 3.0761u    0.9352     0.1056     0.093814   ??        
 3.1u       0.92978    0.097246   0.09675    ??        
 3.1167u    0.92587    0.093704   0.096386   ??        
 3.1333u    0.92186    0.090868   0.095214   ??        
 3.15u      0.91775    0.08836    0.093614   ??        
 3.175u     0.9114     0.084818   0.090804   ??        
 3.2u       0.90483    0.081333   0.087713   ??        
 3.225u     0.89803    0.077794   0.084453   ??        
 3.2625u    0.88741    0.072308   0.079325   ??        
 3.3u       0.87631    0.066588   0.073938   ??        
 3.35u      0.86074    0.058589   0.066372   ??        
 3.4u       0.84433    0.05017    0.058377   ??        
 3.5u       0.80902    0.023066   0.025085   ??        
 3.5053u    0.80705    0.021098   0.022553   ??        
 3.5106u    0.80507    0.019122   0.020276   ??        
 3.5147u    0.80356    0.017605   0.018693   ??        
 3.5188u    0.80203    0.016083   0.017233   ??        
 3.6u       0.77051   -0.015438   0.0017836  ??        
 3.65u      0.75011   -0.03584    594.52u    ??        
 3.675u     0.73963   -0.04632    356.71u    ??        
 3.7u       0.72897   -0.056982   214.03u    ??        
 3.725u     0.71813   -0.067825   128.42u    ??        
 3.7625u    0.70153   -0.084419   58.371u    ??        
 3.8u       0.68455   -0.1014     26.532u    ??        
 3.8375u    0.66718   -0.11877    12.06u     ??        
 3.875u     0.64945   -0.1365     5.4819u    ??        
 3.9u       0.63742   -0.14853    3.2891u    ??        
 3.925u     0.62524   -0.16071    1.9735u    ??        
 3.9625u    0.60668   -0.17927    897.03n    ??        
 4.u        0.58779   -0.19817    407.74n    ??        
 4.0375u    0.56856   -0.17081   -0.046583   ??        
 4.075u     0.54902   -0.13292   -0.10401    ??        
 4.1u       0.53583   -0.13428   -0.11584    ??        
 4.1167u    0.52696   -0.13743   -0.12156    ??        
 4.1333u    0.51803   -0.14128   -0.12665    ??        
 4.15u      0.50904   -0.14548   -0.13143    ??        
 4.175u     0.49546   -0.15212   -0.13838    ??        
 4.2u       0.48175   -0.15896   -0.14524    ??        
 4.25u      0.45399   -0.17292   -0.15904    ??        
 4.3u       0.42578   -0.18714   -0.17303    ??        
 4.35u      0.39715   -0.20156   -0.18724    ??        
 4.4u       0.36812   -0.21617   -0.20166    ??        
 4.5u       0.30902   -0.26076   -0.10808    ??        
 4.5052u    0.30593   -0.26385   -0.097473   ??        
 4.5091u    0.30357   -0.26622   -0.090062   ??        
 4.5131u    0.3012    -0.26858   -0.083214   ??        
 4.517u     0.29883   -0.27095   -0.076887   ??        
 4.5585u    0.27385   -0.29593   -0.031794   ??        
 4.6u       0.24869   -0.32109   -0.013147   ??        
 4.6415u    0.22336   -0.34642   -0.0054367  ??        
 4.7u       0.18738   -0.3824    -0.0014231  ??        
 4.725u     0.17193   -0.39785   -853.86u    ??        
 4.75u      0.15643   -0.41335   -512.31u    ??        
 4.775u     0.1409    -0.42888   -307.39u    ??        
 4.8u       0.12533   -0.44445   -184.43u    ??        
 4.825u     0.10973   -0.46005   -110.66u    ??        
 4.8625u    0.086286  -0.4835    -50.3u      ??        
 4.9u       0.062791  -0.50699   -22.864u    ??        
 4.9375u    0.03926   -0.53052   -10.393u    ??        
 4.975u     0.015707  -0.55407   -4.7239u    ??        
 5.u        1.f       -0.56978   -2.8343u    ??        
 5.025u    -0.015707  -0.48791   -0.097583   ??        
 5.05u     -0.031411  -0.37089   -0.23031    ??        
 5.0625u   -0.03926   -0.34983   -0.25921    ??        
 5.075u    -0.047106  -0.33877   -0.27812    ??        
 5.0875u   -0.05495   -0.3337    -0.29103    ??        
 5.1u      -0.062791  -0.33222   -0.30035    ??        
 5.125u    -0.078459  -0.33466   -0.31359    ??        
 5.15u     -0.094108  -0.34067   -0.32322    ??        
 5.175u    -0.10973   -0.34788   -0.33164    ??        
 5.2u      -0.12533   -0.35546   -0.33965    ??        
 5.225u    -0.1409    -0.36317   -0.34752    ??        
 5.2625u   -0.16419   -0.37476   -0.35921    ??        
 5.3u      -0.18738   -0.38632   -0.37085    ??        
 5.35u     -0.21814   -0.40165   -0.38627    ??        
 5.4u      -0.24869   -0.41687   -0.4016     ??        
 5.5u      -0.30902   -0.44691   -0.43189    ??        
 5.6u      -0.36812   -0.491     -0.22345    ??        
 5.6059u   -0.37159   -0.49446   -0.19842    ??        
 5.6119u   -0.37505   -0.49792   -0.17619    ??        
 5.6157u   -0.37728   -0.50015   -0.16319    ??        
 5.6195u   -0.37951   -0.50238   -0.15114    ??        
 5.6598u   -0.40277   -0.52565   -0.064414   ??        
 5.7u      -0.42578   -0.54865   -0.027453   ??        
 5.7402u   -0.44851   -0.57139   -0.0117     ??        
 5.8u      -0.48175   -0.60463   -0.0029464  ??        
 5.825u    -0.49546   -0.61833   -0.0017678  ??        
 5.85u     -0.50904   -0.63192   -0.0010607  ??        
 5.875u    -0.5225    -0.64537   -636.43u    ??        
 5.9u      -0.53583   -0.6587    -381.86u    ??        
 5.925u    -0.54902   -0.6719    -229.11u    ??        
 5.9625u   -0.56856   -0.69144   -104.14u    ??        
 6.u       -0.58779   -0.71066   -47.337u    ??        
 6.0375u   -0.60668   -0.57323   -0.15636    ??        
 6.0483u   -0.61208   -0.50392   -0.23106    ??        
 6.0592u   -0.61745   -0.46023   -0.28012    ??        
 6.065u    -0.62032   -0.44414   -0.29909    ??        
 6.0708u   -0.6232    -0.4317    -0.3144     ??        
 6.1u      -0.63742   -0.40009   -0.36024    ??        
 6.1292u   -0.65144   -0.39684   -0.3775     ??        
 6.1433u   -0.65817   -0.39855   -0.38251    ??        
 6.1717u   -0.67146   -0.40365   -0.39072    ??        
 6.2u      -0.68455   -0.40969   -0.39776    ??        
 6.2283u   -0.69741   -0.41592   -0.4044     ??        
 6.2642u   -0.71337   -0.42374   -0.41254    ??        
 6.3u      -0.72897   -0.4314    -0.42047    ??        
 6.35u     -0.75011   -0.44179   -0.43122    ??        
 6.4u      -0.77051   -0.45181   -0.44161    ??        
 6.5u      -0.80902   -0.47068   -0.46124    ??        
 6.6u      -0.84433   -0.49655   -0.23534    ??        
 6.6067u   -0.84659   -0.49882   -0.20561    ??        
 6.6135u   -0.84884   -0.50106   -0.17964    ??        
 6.6178u   -0.85027   -0.5025    -0.16474    ??        
 6.6221u   -0.8517    -0.50392   -0.15108    ??        
 6.6611u   -0.86426   -0.51649   -0.066406   ??        
 6.7u      -0.87631   -0.52853   -0.029189   ??        
 6.7389u   -0.88783   -0.54005   -0.01283    ??        
 6.8u      -0.90483   -0.55705   -0.0031012  ??        
 6.825u    -0.9114    -0.56363   -0.0018607  ??        
 6.85u     -0.91775   -0.56998   -0.0011164  ??        
 6.875u    -0.92388   -0.57611   -669.86u    ??        
 6.9u      -0.92978   -0.582     -401.91u    ??        
 6.925u    -0.93544   -0.58767   -241.15u    ??        
 6.9625u   -0.94351   -0.59574   -109.61u    ??        
 7.u       -0.95106   -0.60328   -49.824u    ??        
 7.0375u   -0.95807   -0.47953   -0.1308     ??        
 7.0482u   -0.95998   -0.41982   -0.19241    ??        
 7.0589u   -0.96184   -0.38145   -0.23264    ??        
 7.0657u   -0.96301   -0.36461   -0.25065    ??        
 7.0726u   -0.96416   -0.35196   -0.26445    ??        
 7.0863u   -0.96641   -0.33514   -0.28352    ??        
 7.1u      -0.96858   -0.32598   -0.29486    ??        
 7.12u     -0.97163   -0.3197    -0.30419    ??        
 7.14u     -0.97453   -0.31775   -0.30903    ??        
 7.16u     -0.97727   -0.31761   -0.31192    ??        
 7.18u     -0.97986   -0.3182    -0.31391    ??        
 7.2u      -0.98229   -0.31906   -0.31548    ??        
 7.22u     -0.98456   -0.31999   -0.31683    ??        
 7.24u     -0.98669   -0.32091   -0.31804    ??        
 7.27u     -0.98958   -0.32218   -0.31965    ??        
 7.3u      -0.99211   -0.32329   -0.32108    ??        
 7.35u     -0.99556   -0.32477   -0.32305    ??        
 7.4u      -0.99803   -0.32576   -0.32453    ??        
 7.5u      -1.        -0.3265    -0.16288    ??        
 7.5105u   -0.99998   -0.32648   -0.13198    ??        
 7.521u    -0.99991   -0.32641   -0.10694    ??        
 7.5281u   -0.99984   -0.32634   -0.092597   ??        
 7.5353u   -0.99975   -0.32625   -0.080181   ??        
 7.6u      -0.99803   -0.32453   -0.017205   ??        
 7.6647u   -0.99465   -0.32115   -0.0036919  ??        
 7.7u      -0.99211   -0.31861   -0.0017641  ??        
 7.7353u   -0.98909   -0.31559   -842.92u    ??        
 7.7707u   -0.98557   -0.31207   -402.77u    ??        
 7.8u      -0.98229   -0.30879   -220.08u    ??        
 7.8293u   -0.97867   -0.30517   -120.25u    ??        
 7.8587u   -0.97471   -0.30121   -65.706u    ??        
 7.9u      -0.96858   -0.29508   -27.273u    ??        
 7.9413u   -0.9618    -0.2883    -11.32u     ??        
 7.9827u   -0.95436   -0.28086   -4.6985u    ??        
 8.u       -0.95106   -0.27756   -3.3107u    ??        
 8.025u    -0.94609   -0.22715   -0.045433   ??        
 8.05u     -0.94088   -0.16224   -0.10514    ??        
 8.0625u   -0.93819   -0.1484    -0.11629    ??        
 8.075u    -0.93544   -0.13951   -0.12244    ??        
 8.0875u   -0.93264   -0.13357   -0.12557    ??        
 8.1u      -0.92978   -0.12939   -0.12688    ??        
 8.12u     -0.92508   -0.12465   -0.12693    ??        
 8.14u     -0.92023   -0.12115   -0.12559    ??        
 8.16u     -0.91524   -0.11814   -0.1236     ??        
 8.18u     -0.91011   -0.1153    -0.12131    ??        
 8.2u      -0.90483   -0.11249   -0.11884    ??        
 8.225u    -0.89803   -0.10894   -0.11559    ??        
 8.2625u   -0.88741   -0.10345   -0.11046    ??        
 8.3u      -0.87631   -0.097729  -0.10508    ??        
 8.35u     -0.86074   -0.08973   -0.097513   ??        
 8.4u      -0.84433   -0.081311  -0.089518   ??        
 8.5u      -0.80902   -0.054207  -0.040655   ??        
 8.5053u   -0.80705   -0.052239  -0.036551   ??        
 8.5106u   -0.80507   -0.050262  -0.032861   ??        
 8.5147u   -0.80356   -0.048745  -0.030295   ??        
 8.5188u   -0.80203   -0.047223  -0.027929   ??        
 8.6u      -0.77051   -0.015703  -0.0028906  ??        
 8.65u     -0.75011    0.0046989 -963.54u    ??        
 8.675u    -0.73963    0.015179  -578.12u    ??        
 8.7u      -0.72897    0.025841  -346.87u    ??        
 8.725u    -0.71813    0.036684  -208.12u    ??        
 8.7625u   -0.70153    0.053279  -94.602u    ??        
 8.8u      -0.68455    0.070263  -43.001u    ??        
 8.8375u   -0.66718    0.087627  -19.546u    ??        
 8.875u    -0.64945    0.10536   -8.8845u    ??        
 8.9u      -0.63742    0.11739   -5.3307u    ??        
 8.925u    -0.62524    0.12957   -3.1984u    ??        
 8.9625u   -0.60668    0.14813   -1.4538u    ??        
 9.u       -0.58779    0.13123    0.03579    ??        
 9.0375u   -0.56856    0.10543    0.080814   ??        
 9.0531u   -0.56046    0.10671    0.08764    ??        
 9.0687u   -0.5523     0.10936    0.093152   ??        
 9.0844u   -0.54409    0.11273    0.097988   ??        
 9.1u      -0.53583    0.1165     0.10248    ??        
 9.125u    -0.5225     0.12293    0.10938    ??        
 9.1625u   -0.50227    0.13302    0.11952    ??        
 9.2u      -0.48175    0.14335    0.1297     ??        
 9.25u     -0.45399    0.15735    0.14347    ??        
 9.3u      -0.42578    0.17157    0.15746    ??        
 9.4u      -0.36812    0.2006     0.18608    ??        
 9.5u      -0.30902    0.24519    0.1003     ??        
 9.5059u   -0.30547    0.24874    0.089056   ??        
 9.5119u   -0.30191    0.2523     0.079073   ??        
 9.5159u   -0.29951    0.2547     0.072981   ??        
 9.5199u   -0.29711    0.2571     0.067359   ??        
 9.5599u   -0.27299    0.28122    0.02883    ??        
 9.6u      -0.24869    0.30552    0.012339   ??        
 9.6401u   -0.22424    0.32997    0.0052812  ??        
 9.7u      -0.18738    0.36683    0.0013226  ??        
 9.725u    -0.17193    0.38228    793.56u    ??        
 9.75u     -0.15643    0.39777    476.14u    ??        
 9.775u    -0.1409     0.41331    285.68u    ??        
 9.8u      -0.12533    0.42888    171.41u    ??        
 9.825u    -0.10973    0.44447    102.85u    ??        
 9.8625u   -0.086286   0.46792    46.748u    ??        
 9.9u      -0.062791   0.49142    21.249u    ??        
 9.9375u   -0.03926    0.51495    9.6587u    ??        
 9.975u    -0.015707   0.5385     4.3903u    ??        
 10.u      -1.f        0.55421    2.6342u    ??        
 10.025u    0.015707   0.47493    0.094988   ??        
 10.05u     0.031411   0.36137    0.22425    ??        
 10.063u    0.03926    0.34101    0.25246    ??        
 10.075u    0.047106   0.33036    0.27095    ??        
 10.087u    0.05495    0.32554    0.28362    ??        
 10.1u      0.062791   0.32421    0.29279    ??        
 10.125u    0.078459   0.32679    0.30587    ??        
 10.15u     0.094108   0.33286    0.31546    ??        
 10.175u    0.10973    0.34008    0.32386    ??        
 10.2u      0.12533    0.34767    0.33187    ??        
 10.225u    0.1409     0.35538    0.33973    ??        
 10.263u    0.16419    0.36697    0.35143    ??        
 10.3u      0.18738    0.37853    0.36306    ??        
 10.35u     0.21814    0.39387    0.37849    ??        
 10.4u      0.24869    0.40909    0.39381    ??        
 10.5u      0.30902    0.43912    0.4241     ??        
 10.6u      0.36812    0.48321    0.21956    ??        
 10.606u    0.37159    0.48668    0.19496    ??        
 10.612u    0.37505    0.49013    0.17312    ??        
 10.616u    0.37728    0.49237    0.16034    ??        
 10.62u     0.37951    0.49459    0.14851    ??        
 10.66u     0.40277    0.51786    0.063292   ??        
 10.7u      0.42578    0.54087    0.026974   ??        
 10.74u     0.44851    0.5636     0.011496   ??        
 10.8u      0.48175    0.59684    0.0028951  ??        
 10.825u    0.49546    0.61055    0.001737   ??        
 10.85u     0.50904    0.62413    0.0010422  ??        
 10.875u    0.5225     0.63759    625.34u    ??        
 10.9u      0.53583    0.65091    375.2u     ??        
 10.925u    0.54902    0.66411    225.12u    ??        
 10.963u    0.56856    0.68365    102.33u    ??        
 11.u       0.58779    0.70287    46.513u    ??        
 11.037u    0.60668    0.56711    0.15469    ??        
 11.048u    0.6121     0.49835    0.22887    ??        
 11.059u    0.61749    0.4551     0.27751    ??        
 11.066u    0.62084    0.43702    0.29894    ??        
 11.073u    0.62418    0.42364    0.31565    ??        
 11.1u      0.63742    0.39654    0.356      ??        
 11.127u    0.65048    0.39303    0.37257    ??        
 11.145u    0.65913    0.39506    0.37918    ??        
 11.173u    0.67194    0.4        0.38706    ??        
 11.2u      0.68455    0.40581    0.39386    ??        
 11.227u    0.69696    0.4118     0.40027    ??        
 11.264u    0.71315    0.41973    0.40853    ??        
 11.3u      0.72897    0.42751    0.41658    ??        
 11.35u     0.75011    0.4379     0.42733    ??        
 11.4u      0.77051    0.44792    0.43771    ??        
 11.5u      0.80902    0.47622    0.22396    ??        
 11.505u    0.81093    0.47813    0.20189    ??        
 11.51u     0.81283    0.48003    0.18199    ??        
 11.514u    0.81425    0.48145    0.16833    ??        
 11.518u    0.81567    0.48287    0.1557     ??        
 11.6u      0.84433    0.51153    0.015552   ??        
 11.65u     0.86074    0.52794    0.0051839  ??        
 11.675u    0.86863    0.53583    0.0031103  ??        
 11.7u      0.87631    0.54351    0.0018662  ??        
 11.725u    0.88377    0.55097    0.0011197  ??        
 11.763u    0.89454    0.56175    508.96u    ??        
 11.8u      0.90483    0.57203    231.35u    ??        
 11.837u    0.91461    0.58181    105.16u    ??        
 11.875u    0.92388    0.59108    47.799u    ??        
 11.9u      0.92978    0.59698    28.679u    ??        
 11.925u    0.93544    0.60264    17.208u    ??        
 11.962u    0.94351    0.61071    7.8216u    ??        
 12.u       0.95106    0.48577    0.13249    ??        
 12.017u    0.95428    0.39948    0.222      ??        
 12.034u    0.95739    0.35744    0.26716    ??        
 12.051u    0.9604     0.33729    0.29031    ??        
 12.067u    0.9633     0.32798    0.30253    ??        
 12.084u    0.96609    0.324      0.3093     ??        
 12.1u      0.96858    0.32269    0.3131     ??        
 12.116u    0.97099    0.32251    0.31568    ??        
 12.133u    0.97346    0.32296    0.31771    ??        
 12.149u    0.97584    0.32371    0.31934    ??        
 12.166u    0.9781     0.32458    0.32072    ??        
 12.2u      0.98229    0.32637    0.32312    ??        
 12.234u    0.98604    0.32806    0.32519    ??        
 12.267u    0.98935    0.32954    0.32701    ??        
 12.3u      0.99211    0.33077    0.32855    ??        
 12.35u     0.99556    0.33225    0.33052    ??        
 12.4u      0.99803    0.33323    0.332      ??        
 12.5u      1.         0.33373    0.33348    ??        
 12.6u      0.99803    0.33151    0.16686    ??        
 12.614u    0.99744    0.33092    0.12634    ??        
 12.628u    0.99679    0.33026    0.095661   ??        
 12.641u    0.99605    0.32953    0.072431   ??        
 12.655u    0.99524    0.32872    0.054842   ??        
 12.7u      0.99211    0.32559    0.020948   ??        
 12.745u    0.9882     0.32168    0.0080019  ??        
 12.789u    0.98351    0.31699    0.0030565  ??        
 12.8u      0.98229    0.31577    0.0024727  ??        
 12.825u    0.97922    0.3127     0.0014836  ??        
 12.862u    0.97417    0.30765    674.36u    ??        
 12.9u      0.96858    0.30206    306.53u    ??        
 12.938u    0.96246    0.29593    139.33u    ??        
 12.975u    0.95579    0.28927    63.332u    ??        
 13.u       0.95106    0.28454    37.999u    ??        
 13.025u    0.94609    0.23297    0.046618   ??        
 13.033u    0.94448    0.20627    0.071719   ??        
 13.041u    0.94286    0.18655    0.089811   ??        
 13.046u    0.94172    0.17605    0.099179   ??        
 13.051u    0.94057    0.16747    0.10661    ??        
 13.076u    0.93528    0.14315    0.12564    ??        
 13.1u      0.92978    0.13282    0.13046    ??        
 13.117u    0.92587    0.12881    0.13056    ??        
 13.133u    0.92186    0.12574    0.12963    ??        
 13.15u     0.91775    0.12312    0.12814    ??        
 13.167u    0.91355    0.12069    0.12636    ??        
 13.183u    0.90924    0.11834    0.1244     ??        
 13.2u      0.90483    0.116      0.12234    ??        
 13.225u    0.89803    0.11244    0.11909    ??        
 13.263u    0.88741    0.10695    0.11397    ??        
 13.3u      0.87631    0.10123    0.10858    ??        
 13.35u     0.86074    0.093234   0.10102    ??        
 13.4u      0.84433    0.084814   0.093021   ??        
 13.5u      0.80902    0.066745   0.075779   ??        
 13.6u      0.77051    0.037276   0.033372   ??        
 13.607u    0.76786    0.034619   0.029231   ??        
 13.613u    0.76519    0.03195    0.025603   ??        
 13.618u    0.76343    0.030192   0.023473   ??        
 13.622u    0.76167    0.028428   0.021521   ??        
 13.661u    0.74554    0.012304   0.0094345  ??        
 13.7u      0.72897   -0.0042689  0.0041359  ??        
 13.739u    0.71196   -0.02128    0.0018131  ??        
 13.8u      0.68455   -0.04869    439.83u    ??        
 13.825u    0.67301   -0.060225   263.9u     ??        
 13.85u     0.66131   -0.071926   158.34u    ??        
 13.875u    0.64945   -0.083789   95.004u    ??        
 13.9u      0.63742   -0.095814   57.002u    ??        
 13.925u    0.62524   -0.10799    34.201u    ??        
 13.963u    0.60668   -0.12656    15.546u    ??        
 14.u       0.58779   -0.14545    7.0664u    ??        
 14.037u    0.56856   -0.12939   -0.035284   ??        
 14.055u    0.55952   -0.11294   -0.060772   ??        
 14.072u    0.55041   -0.10739   -0.075431   ??        
 14.09u     0.54124   -0.10712   -0.084875   ??        
 14.1u      0.53583   -0.1083    -0.089111   ??        
 14.125u    0.5225    -0.11301   -0.097727   ??        
 14.15u     0.50904   -0.11913   -0.10506    ??        
 14.175u    0.49546   -0.12576   -0.11202    ??        
 14.2u      0.48175   -0.1326    -0.11888    ??        
 14.225u    0.46793   -0.13955   -0.12576    ??        
 14.263u    0.44698   -0.1501    -0.13616    ??        
 14.3u      0.42578   -0.16078   -0.14667    ??        
 14.4u      0.36812   -0.18981   -0.1753     ??        
 14.5u      0.30902   -0.2344    -0.094906   ??        
 14.506u    0.30552   -0.2379    -0.084407   ??        
 14.512u    0.30201   -0.24141   -0.07507    ??        
 14.516u    0.29961   -0.24381   -0.069276   ??        
 14.52u     0.2972    -0.24622   -0.063929   ??        
 14.56u     0.27303   -0.27039   -0.027313   ??        
 14.6u      0.24869   -0.29473   -0.011669   ??        
 14.64u     0.22419   -0.31923   -0.0049854  ??        
 14.7u      0.18738   -0.35604   -0.0012515  ??        
 14.725u    0.17193   -0.37149   -750.88u    ??        
 14.75u     0.15643   -0.38699   -450.53u    ??        
 14.775u    0.1409    -0.40252   -270.32u    ??        
 14.8u      0.12533   -0.41809   -162.19u    ??        
 14.825u    0.10973   -0.43369   -97.314u    ??        
 14.863u    0.086286  -0.45713   -44.233u    ??        
 14.9u      0.062791  -0.48063   -20.106u    ??        
 14.938u    0.03926   -0.50416   -9.1391u    ??        
 14.975u    0.015707  -0.52771   -4.1542u    ??        
 15.u       72.456p   -0.45285   -0.090573   ??        
 15.025u   -0.015707  -0.34518   -0.21395    ??        
 15.037u   -0.02356   -0.326     -0.24098    ??        
 15.05u    -0.031411  -0.31606   -0.25877    ??        
 15.062u   -0.03926   -0.31167   -0.27101    ??        
 15.081u   -0.051029  -0.31075   -0.28371    ??        
 15.1u     -0.062791  -0.31353   -0.29268    ??        
 15.119u   -0.074544  -0.31799   -0.29997    ??        
 15.146u   -0.091502  -0.32564   -0.30928    ??        
 15.173u   -0.10843   -0.33385   -0.31801    ??        
 15.2u     -0.12533   -0.34221   -0.32654    ??        
 15.25u    -0.15643   -0.3577    -0.34215    ??        
 15.3u     -0.18738   -0.37314   -0.35767    ??        
 15.35u    -0.21814   -0.38847   -0.37309    ??        
 15.4u     -0.24869   -0.40369   -0.38842    ??        
 15.5u     -0.30902   -0.44875   -0.20185    ??        
 15.505u   -0.31208   -0.45181   -0.18213    ??        
 15.509u   -0.31444   -0.45417   -0.16827    ??        
 15.513u   -0.3168    -0.45653   -0.15548    ??        
 15.517u   -0.31915   -0.45888   -0.14365    ??        
 15.558u   -0.34376   -0.48349   -0.059385   ??        
 15.6u     -0.36812   -0.50785   -0.02455    ??        
 15.642u   -0.39224   -0.53197   -0.010149   ??        
 15.7u     -0.42578   -0.56551   -0.0026576  ??        
 15.725u   -0.43994   -0.57967   -0.0015945  ??        
 15.75u    -0.45399   -0.59372   -956.72u    ??        
 15.775u   -0.46793   -0.60766   -574.03u    ??        
 15.8u     -0.48175   -0.62148   -344.42u    ??        
 15.825u   -0.49546   -0.63519   -206.65u    ??        
 15.863u   -0.51579   -0.65552   -93.932u    ??        
 15.9u     -0.53583   -0.67556   -42.697u    ??        
 15.938u   -0.55557   -0.6953    -19.408u    ??        
 15.975u   -0.57501   -0.71473   -8.8216u    ??        
 16.u      -0.58779   -0.60626   -0.12126    ??        
 16.012u   -0.59405   -0.51578   -0.218      ??        
 16.025u   -0.60028   -0.46238   -0.27764    ??        
 16.033u   -0.60447   -0.43979   -0.30442    ??        
 16.041u   -0.60865   -0.42427   -0.32412    ??        
 16.056u   -0.61592   -0.40804   -0.34762    ??        
 16.078u   -0.62673   -0.39876   -0.36771    ??        
 16.1u     -0.63742   -0.39835   -0.37881    ??        
 16.122u   -0.64799   -0.40134   -0.38639    ??        
 16.144u   -0.65844   -0.40563   -0.39254    ??        
 16.166u   -0.66876   -0.41038   -0.39811    ??        
 16.2u     -0.68455   -0.41799   -0.40629    ??        
 16.234u   -0.70002   -0.42558   -0.41418    ??        
 16.256u   -0.70981   -0.43039   -0.41915    ??        
 16.3u     -0.72897   -0.43982   -0.42889    ??        
 16.4u     -0.77051   -0.46023   -0.45002    ??        
 16.5u     -0.80902   -0.48853   -0.23011    ??        
 16.507u   -0.81143   -0.49094   -0.20181    ??        
 16.513u   -0.81383   -0.49334   -0.17698    ??        
 16.517u   -0.81541   -0.49492   -0.16224    ??        
 16.522u   -0.81699   -0.4965    -0.14873    ??        
 16.561u   -0.83091   -0.51042   -0.065114   ??        
 16.6u     -0.84433   -0.52384   -0.028507   ??        
 16.639u   -0.85724   -0.53674   -0.012481   ??        
 16.7u     -0.87631   -0.55582   -0.003033   ??        
 16.725u   -0.88377   -0.56327   -0.0018198  ??        
 16.75u    -0.89101   -0.57052   -0.0010919  ??        
 16.775u   -0.89803   -0.57754   -655.12u    ??        
 16.8u     -0.90483   -0.58434   -393.07u    ??        
 16.825u   -0.9114    -0.59091   -235.84u    ??        
 16.863u   -0.92085   -0.60035   -107.2u     ??        
 16.9u     -0.92978   -0.60929   -48.728u    ??        
 16.937u   -0.93819   -0.6177    -22.149u    ??        
 16.975u   -0.94609   -0.62559   -10.068u    ??        
 17.u      -0.95106   -0.52547   -0.1051     ??        
 17.012u   -0.95335   -0.44642   -0.18645    ??        
 17.024u   -0.95559   -0.39827   -0.23684    ??        
 17.032u   -0.95714   -0.37636   -0.2603     ??        
 17.041u   -0.95867   -0.36099   -0.27719    ??        
 17.061u   -0.96212   -0.34025   -0.30139    ??        
 17.08u    -0.96543   -0.33209   -0.31285    ??        
 17.1u     -0.96858   -0.32936   -0.31874    ??        
 17.12u    -0.97159   -0.32894   -0.32217    ??        
 17.139u   -0.97445   -0.32948   -0.32449    ??        
 17.159u   -0.97716   -0.33039   -0.32628    ??        
 17.179u   -0.97972   -0.33143   -0.32781    ??        
 17.2u     -0.98229   -0.33254   -0.32926    ??        
 17.225u   -0.98511   -0.3338    -0.33083    ??        
 17.263u   -0.98889   -0.33549   -0.33291    ??        
 17.3u     -0.99211   -0.33692   -0.33471    ??        
 17.35u    -0.99556   -0.3384    -0.33668    ??        
 17.4u     -0.99803   -0.33939   -0.33816    ??        
 17.5u     -1.        -0.34013   -0.16969    ??        
 17.51u    -0.99998   -0.34011   -0.13745    ??        
 17.521u   -0.99991   -0.34004   -0.11133    ??        
 17.528u   -0.99984   -0.33997   -0.09641    ??        
 17.535u   -0.99975   -0.33988   -0.083488   ??        
 17.6u     -0.99803   -0.33816   -0.017932   ??        
 17.665u   -0.99465   -0.33478   -0.0038516  ??        
 17.7u     -0.99211   -0.33224   -0.0018392  ??        
 17.735u   -0.98909   -0.32921   -878.26u    ??        
 17.771u   -0.98557   -0.3257    -419.38u    ??        
 17.8u     -0.98229   -0.32242   -229.44u    ??        
 17.829u   -0.97867   -0.3188    -125.52u    ??        
 17.859u   -0.97473   -0.31486   -68.669u    ??        
 17.9u     -0.96858   -0.30871   -28.425u    ??        
 17.941u   -0.96178   -0.30191   -11.767u    ??        
 17.983u   -0.95432   -0.29445   -4.8707u    ??        
 18.u      -0.95106   -0.25408   -0.037113   ??        
 18.012u   -0.94864   -0.20911   -0.079663   ??        
 18.025u   -0.94617   -0.18136   -0.10495    ??        
 18.033u   -0.94446   -0.16879   -0.1158     ??        
 18.041u   -0.94271   -0.15957   -0.12328    ??        
 18.061u   -0.93854   -0.14578   -0.1329     ??        
 18.08u    -0.93423   -0.13845   -0.13591    ??        
 18.09u    -0.93202   -0.13601   -0.13615    ??        
 18.1u     -0.92978   -0.13397   -0.13594    ??        
 18.117u   -0.92587   -0.13104   -0.13496    ??        
 18.133u   -0.92186   -0.12852   -0.13348    ??        
 18.156u   -0.91636   -0.12539   -0.13111    ??        
 18.178u   -0.91068   -0.12234   -0.12847    ??        
 18.2u     -0.90483   -0.11927   -0.12569    ??        
 18.25u    -0.89101   -0.11211   -0.11902    ??        
 18.3u     -0.87631   -0.10454   -0.11189    ??        
 18.35u    -0.86074   -0.096546  -0.10433    ??        
 18.4u     -0.84433   -0.088127  -0.096334   ??        
 18.5u     -0.80902   -0.061023  -0.044063   ??        
 18.505u   -0.80705   -0.059055  -0.039615   ??        
 18.511u   -0.80507   -0.057078  -0.035616   ??        
 18.515u   -0.80356   -0.055561  -0.032835   ??        
 18.519u   -0.80203   -0.054039  -0.030271   ??        
 18.6u     -0.77051   -0.022519  -0.0031329  ??        
 18.65u    -0.75011   -0.0021167 -0.0010443  ??        
 18.675u   -0.73963    0.0083632 -626.58u    ??        
 18.7u     -0.72897    0.019026  -375.95u    ??        
 18.725u   -0.71813    0.029868  -225.57u    ??        
 18.762u   -0.70153    0.046463  -102.53u    ??        
 18.8u     -0.68455    0.063447  -46.605u    ??        
 18.837u   -0.66718    0.080812  -21.184u    ??        
 18.875u   -0.64945    0.098546  -9.6292u    ??        
 18.9u     -0.63742    0.11057   -5.7775u    ??        
 18.925u   -0.62524    0.12275   -3.4665u    ??        
 18.963u   -0.60668    0.14131   -1.5757u    ??        
 19.u      -0.58779    0.12588    0.03433    ??        
 19.038u   -0.56856    0.10175    0.077684   ??        
 19.053u   -0.56046    0.10316    0.084378   ??        
 19.069u   -0.5523     0.10587    0.08982    ??        
 19.084u   -0.54409    0.10928    0.09462    ??        
 19.1u     -0.53583    0.11307    0.099095   ??        
 19.125u   -0.5225     0.11952    0.10598    ??        
 19.162u   -0.50227    0.12961    0.11612    ??        
 19.2u     -0.48175    0.13994    0.1263     ??        
 19.25u    -0.45399    0.15394    0.14006    ??        
 19.3u     -0.42578    0.16816    0.15405    ??        
 19.4u     -0.36812    0.19719    0.18268    ??        
 19.5u     -0.30902    0.24178    0.098596   ??        
 19.506u   -0.30547    0.24533    0.087543   ??        
 19.512u   -0.30191    0.24889    0.077729   ??        
 19.516u   -0.29951    0.25129    0.071742   ??        
 19.52u    -0.29711    0.25369    0.066215   ??        
 19.56u    -0.27299    0.27781    0.02834    ??        
 19.6u     -0.24869    0.30211    0.01213    ??        
 19.64u    -0.22424    0.32656    0.0051914  ??        
 19.7u     -0.18738    0.36342    0.0013001  ??        
 19.725u   -0.17193    0.37887    780.08u    ??        
 19.75u    -0.15643    0.39437    468.05u    ??        
 19.775u   -0.1409     0.4099     280.83u    ??        
 19.8u     -0.12533    0.42547    168.5u     ??        
 19.825u   -0.10973    0.44107    101.1u     ??        
 19.862u   -0.086286   0.46451    45.954u    ??        
 19.9u     -0.062791   0.48801    20.888u    ??        
 19.938u   -0.03926    0.51154    9.4946u    ??        
 19.975u   -0.015707   0.53509    4.3157u    ??        
 20.u      -73.442p    0.459      0.091803   ??        
 20.025u    0.015707   0.34969    0.21682    ??        
 20.038u    0.02356    0.33018    0.24418    ??        
 20.05u     0.031411   0.32005    0.26217    ??        
 20.062u    0.03926    0.31554    0.27453    ??        
 20.081u    0.051029   0.31452    0.28732    ??        
 20.1u      0.062791   0.31726    0.29634    ??        
 20.119u    0.074544   0.3217     0.30365    ??        
 20.146u    0.091502   0.32934    0.31297    ??        
 20.173u    0.10843    0.33754    0.32169    ??        
 20.2u      0.12533    0.34591    0.33023    ??        
 20.25u     0.15643    0.36139    0.34584    ??        
 20.3u      0.18738    0.37683    0.36136    ??        
 20.35u     0.21814    0.39216    0.37678    ??        
 20.4u      0.24869    0.40738    0.39211    ??        
 20.5u      0.30902    0.45244    0.20369    ??        
 20.505u    0.31208    0.4555     0.18379    ??        
 20.509u    0.31444    0.45786    0.16981    ??        
 20.513u    0.3168     0.46022    0.1569     ??        
 20.517u    0.31915    0.46257    0.14497    ??        
 20.558u    0.34376    0.48718    0.059928   ??        
 20.6u      0.36812    0.51154    0.024775   ??        
 20.642u    0.39224    0.53566    0.010242   ??        
 20.7u      0.42578    0.5692     0.0026818  ??        
 20.725u    0.43994    0.58336    0.0016091  ??        
 20.75u     0.45399    0.59741    965.46u    ??        
 20.775u    0.46793    0.61135    579.28u    ??        
 20.8u      0.48175    0.62517    347.57u    ??        
 20.825u    0.49546    0.63888    208.54u    ??        
 20.862u    0.51579    0.65921    94.791u    ??        
 20.9u      0.53583    0.67925    43.087u    ??        
 20.937u    0.55557    0.69899    19.585u    ??        
 20.975u    0.57501    0.71843    8.9022u    ??        
 21.u       0.58779    0.60934    0.12187    ??        
 21.012u    0.59404    0.51853    0.21893    ??        
 21.025u    0.60025    0.46486    0.27881    ??        
 21.033u    0.60445    0.44208    0.3058     ??        
 21.041u    0.60863    0.42642    0.32564    ??        
 21.061u    0.61832    0.40644    0.35531    ??        
 21.08u     0.62792    0.40033    0.37102    ??        
 21.1u      0.63742    0.40026    0.38059    ??        
 21.12u     0.64683    0.40282    0.38744    ??        
 21.139u    0.65614    0.4065     0.39307    ??        
 21.159u    0.66572    0.41081    0.39833    ??        
 21.18u     0.67519    0.41531    0.4033     ??        
 21.2u      0.68455    0.41985    0.40812    ??        
 21.25u     0.70711    0.43091    0.41963    ??        
 21.3u      0.72897    0.44166    0.43073    ??        
 21.35u     0.75011    0.45205    0.44148    ??        
 21.4u      0.77051    0.46207    0.45187    ??        
 21.5u      0.80902    0.49037    0.23104    ??        
 21.506u    0.81113    0.49249    0.20593    ??        
 21.51u     0.81278    0.49414    0.18823    ??        
 21.515u    0.81442    0.49578    0.17206    ??        
 21.519u    0.81605    0.49741    0.15728    ??        
 21.546u    0.82572    0.50707    0.090541   ??        
 21.6u      0.84433    0.52568    0.027153   ??        
 21.654u    0.86197    0.54333    0.0081433  ??        
 21.677u    0.86923    0.55059    0.0050902  ??        
 21.7u      0.87631    0.55766    0.0031818  ??        
 21.725u    0.88377    0.56512    0.0019091  ??        
 21.75u     0.89101    0.57236    0.0011454  ??        
 21.775u    0.89803    0.57938    687.26u    ??        
 21.8u      0.90483    0.58618    412.36u    ??        
 21.825u    0.9114     0.59276    247.41u    ??        
 21.863u    0.92085    0.6022     112.46u    ??        
 21.9u      0.92978    0.61113    51.119u    ??        
 21.937u    0.93819    0.61955    23.236u    ??        
 21.975u    0.94609    0.62744    10.562u    ??        
 22.u       0.95106    0.52701    0.10541    ??        
 22.012u    0.95332    0.44848    0.18621    ??        
 22.024u    0.95554    0.40035    0.23655    ??        
 22.031u    0.95694    0.37996    0.25835    ??        
 22.039u    0.95833    0.36514    0.27455    ??        
 22.054u    0.96102    0.34632    0.29606    ??        
 22.077u    0.9649     0.3338     0.31247    ??        
 22.1u      0.96858    0.3302     0.31975    ??        
 22.123u    0.97206    0.32985    0.32358    ??        
 22.146u    0.97534    0.33064    0.32606    ??        
 22.169u    0.97842    0.3318     0.32799    ??        
 22.192u    0.98129    0.33302    0.32963    ??        
 22.2u      0.98229    0.33346    0.33019    ??        
 22.225u    0.98511    0.33472    0.33175    ??        
 22.263u    0.98889    0.33642    0.33383    ??        
 22.3u      0.99211    0.33785    0.33563    ??        
 22.35u     0.99556    0.33932    0.3376     ??        
 22.4u      0.99803    0.34031    0.33908    ??        
 22.5u      1.         0.34105    0.17016    ??        
 22.51u     0.99998    0.34103    0.13782    ??        
 22.521u    0.99991    0.34096    0.11163    ??        
 22.528u    0.99984    0.3409     0.096671   ??        
 22.535u    0.99975    0.34081    0.083716   ??        
 22.6u      0.99803    0.33908    0.017981   ??        
 22.665u    0.99465    0.33571    0.0038621  ??        
 22.7u      0.99211    0.33317    0.0018442  ??        
 22.735u    0.98909    0.33014    880.65u    ??        
 22.771u    0.98557    0.32662    420.53u    ??        
 22.8u      0.98229    0.32334    230.06u    ??        
 22.829u    0.97867    0.31973    125.86u    ??        
 22.859u    0.97473    0.31578    68.856u    ??        
 22.9u      0.96858    0.30964    28.503u    ??        
 22.941u    0.96178    0.30283    11.799u    ??        
 22.983u    0.95432    0.29537    4.884u     ??        
 23.u       0.95106    0.25488    0.037231   ??        
 23.012u    0.94865    0.20981    0.079892   ??        
 23.025u    0.94618    0.18198    0.10525    ??        
 23.033u    0.94446    0.16937    0.11615    ??        
 23.041u    0.94272    0.16011    0.12367    ??        
 23.056u    0.9396     0.14908    0.13158    ??        
 23.071u    0.9364     0.14227    0.13519    ??        
 23.085u    0.93313    0.13776    0.13642    ??        
 23.1u      0.92978    0.13449    0.13635    ??        
 23.115u    0.92634    0.13186    0.13553    ??        
 23.136u    0.92121    0.1286     0.13367    ??        
 23.157u    0.91591    0.12561    0.13136    ??        
 23.172u    0.91229    0.12366    0.12969    ??        
 23.2u      0.90483    0.11973    0.12615    ??        
 23.25u     0.89101    0.11258    0.11949    ??        
 23.3u      0.87631    0.10501    0.11236    ??        
 23.35u     0.86074    0.097008   0.10479    ??        
 23.4u      0.84433    0.088588   0.096795   ??        
 23.5u      0.80902    0.061484   0.044294   ??        
 23.505u    0.80705    0.059517   0.039823   ??        
 23.511u    0.80507    0.05754    0.035802   ??        
 23.515u    0.80356    0.056023   0.033007   ??        
 23.519u    0.80203    0.054501   0.030429   ??        
 23.6u      0.77051    0.022981   0.0031493  ??        
 23.65u     0.75011    0.0025785  0.0010498  ??        
 23.675u    0.73963   -0.0079014  629.87u    ??        
 23.7u      0.72897   -0.018564   377.92u    ??        
 23.725u    0.71813   -0.029406   226.75u    ??        
 23.763u    0.70153   -0.046001   103.07u    ??        
 23.8u      0.68455   -0.062985   46.85u     ??        
 23.837u    0.66718   -0.08035    21.295u    ??        
 23.875u    0.64945   -0.098084   9.6797u    ??        
 23.9u      0.63742   -0.11011    5.8078u    ??        
 23.925u    0.62524   -0.12229    3.4847u    ??        
 23.963u    0.60668   -0.14085    1.5839u    ??        
 24.u       0.58779   -0.12552   -0.034231   ??        
 24.037u    0.56856   -0.1015    -0.077472   ??        
 24.053u    0.56046   -0.10292   -0.084157   ??        
 24.069u    0.5523    -0.10564   -0.089595   ??        
 24.084u    0.54409   -0.10905   -0.094392   ??        
 24.1u      0.53583   -0.11284   -0.098865   ??        
 24.125u    0.5225    -0.11929   -0.10574    ??        
 24.163u    0.50227   -0.12938   -0.11588    ??        
 24.2u      0.48175   -0.13971   -0.12606    ??        
 24.25u     0.45399   -0.15371   -0.13983    ??        
 24.3u      0.42578   -0.16793   -0.15382    ??        
 24.4u      0.36812   -0.19696   -0.18245    ??        
 24.5u      0.30902   -0.24155   -0.098481   ??        
 24.506u    0.30547   -0.2451    -0.087441   ??        
 24.512u    0.30191   -0.24866   -0.077638   ??        
 24.516u    0.29951   -0.25106   -0.071658   ??        
 24.52u     0.29711   -0.25346   -0.066138   ??        
 24.56u     0.27299   -0.27758   -0.028307   ??        
 24.6u      0.24869   -0.30188   -0.012115   ??        
 24.64u     0.22424   -0.32633   -0.0051854  ??        
 24.7u      0.18738   -0.36319   -0.0012986  ??        
 24.725u    0.17193   -0.37864   -779.17u    ??        
 24.75u     0.15643   -0.39414   -467.5u     ??        
 24.775u    0.1409    -0.40967   -280.5u     ??        
 24.8u      0.12533   -0.42524   -168.3u     ??        
 24.825u    0.10973   -0.44084   -100.98u    ??        
 24.862u    0.086286  -0.46428   -45.9u      ??        
 24.9u      0.062791  -0.48778   -20.864u    ??        
 24.938u    0.03926   -0.51131   -9.4835u    ??        
 24.975u    0.015707  -0.53486   -4.3107u    ??        
 25.u       73.411p   -0.45881   -0.091764   ??        
 25.025u   -0.015707  -0.34955   -0.21673    ??        
 25.038u   -0.02356   -0.33005   -0.24408    ??        
 25.05u    -0.031411  -0.31992   -0.26206    ??        
 25.062u   -0.03926   -0.31542   -0.27442    ??        
 25.081u   -0.051029  -0.3144    -0.2872     ??        
 25.1u     -0.062791  -0.31714   -0.29622    ??        
 25.119u   -0.074544  -0.32159   -0.30353    ??        
 25.146u   -0.091502  -0.32922   -0.31285    ??        
 25.173u   -0.10843   -0.33743   -0.32158    ??        
 25.2u     -0.12533   -0.34579   -0.33012    ??        
 25.25u    -0.15643   -0.36128   -0.34573    ??        
 25.3u     -0.18738   -0.37671   -0.36124    ??        
 25.35u    -0.21814   -0.39205   -0.37667    ??        
 25.4u     -0.24869   -0.40727   -0.39199    ??        
 25.5u     -0.30902   -0.45232   -0.20363    ??        
 25.505u   -0.31208   -0.45539   -0.18374    ??        
 25.509u   -0.31444   -0.45775   -0.16976    ??        
 25.513u   -0.3168    -0.4601    -0.15685    ??        
 25.517u   -0.31915   -0.46246   -0.14492    ??        
 25.558u   -0.34376   -0.48706   -0.059911   ??        
 25.6u     -0.36812   -0.51143   -0.024768   ??        
 25.642u   -0.39224   -0.53555   -0.010239   ??        
 25.7u     -0.42578   -0.56908   -0.0026811  ??        
 25.725u   -0.43994   -0.58324   -0.0016087  ??        
 25.75u    -0.45399   -0.59729   -965.19u    ??        
 25.775u   -0.46793   -0.61123   -579.11u    ??        
 25.8u     -0.48175   -0.62506   -347.47u    ??        
 25.825u   -0.49546   -0.63876   -208.48u    ??        
 25.863u   -0.51579   -0.65909   -94.764u    ??        
 25.9u     -0.53583   -0.67913   -43.075u    ??        
 25.937u   -0.55557   -0.69887   -19.579u    ??        
 25.975u   -0.57501   -0.71831   -8.8997u    ??        
 26.u      -0.58779   -0.60924   -0.12185    ??        
 26.012u   -0.59404   -0.51845   -0.2189     ??        
 26.025u   -0.60025   -0.46478   -0.27878    ??        
 26.033u   -0.60445   -0.44201   -0.30575    ??        
 26.041u   -0.60863   -0.42635   -0.32559    ??        
 26.061u   -0.61832   -0.40638   -0.35526    ??        
 26.08u    -0.62792   -0.40027   -0.37097    ??        
 26.1u     -0.63742   -0.4002    -0.38053    ??        
 26.12u    -0.64683   -0.40276   -0.38738    ??        
 26.139u   -0.65614   -0.40644   -0.39301    ??        
 26.154u   -0.66333   -0.40966   -0.39699    ??        
 26.17u    -0.67047   -0.413     -0.40078    ??        
 26.2u     -0.68455   -0.41979   -0.40807    ??        
 26.225u   -0.69591   -0.42535   -0.41387    ??        
 26.262u   -0.71264   -0.43357   -0.42238    ??        
 26.3u     -0.72897   -0.44161   -0.43067    ??        
 26.35u    -0.75011   -0.452     -0.44143    ??        
 26.4u     -0.77051   -0.46201   -0.45181    ??        
 26.5u     -0.80902   -0.49032   -0.23101    ??        
 26.505u   -0.81093   -0.49222   -0.20824    ??        
 26.51u    -0.81283   -0.49413   -0.18772    ??        
 26.514u   -0.81425   -0.49555   -0.17363    ??        
 26.518u   -0.81567   -0.49697   -0.1606     ??        
 26.559u   -0.83027   -0.51157   -0.067334   ??        
 26.6u     -0.84433   -0.52563   -0.02823    ??        
 26.641u   -0.85782   -0.53912   -0.011836   ??        
 26.7u     -0.87631   -0.5576    -0.0030444  ??        
 26.725u   -0.88377   -0.56506   -0.0018266  ??        
 26.75u    -0.89101   -0.5723    -0.001096   ??        
 26.775u   -0.89803   -0.57933   -657.58u    ??        
 26.8u     -0.90483   -0.58613   -394.55u    ??        
 26.825u   -0.9114    -0.5927    -236.73u    ??        
 26.862u   -0.92085   -0.60214   -107.6u     ??        
 26.9u     -0.92978   -0.61107   -48.911u    ??        
 26.937u   -0.93819   -0.61949   -22.232u    ??        
 26.975u   -0.94609   -0.62738   -10.106u    ??        
 27.u      -0.95106   -0.52696   -0.1054     ??        
 27.012u   -0.95335   -0.44774   -0.18692    ??        
 27.024u   -0.95559   -0.39946   -0.23743    ??        
 27.032u   -0.95714   -0.37746   -0.26098    ??        
 27.041u   -0.95867   -0.36203   -0.27795    ??        
 27.061u   -0.96212   -0.3412    -0.30223    ??        
 27.08u    -0.96543   -0.33301   -0.31372    ??        
 27.1u     -0.96858   -0.33026   -0.31963    ??        
 27.12u    -0.97159   -0.32984   -0.32306    ??        
 27.139u   -0.97445   -0.33037   -0.32538    ??        
 27.159u   -0.97716   -0.33129   -0.32718    ??        
 27.179u   -0.97972   -0.33232   -0.3287     ??        
 27.2u     -0.98229   -0.33344   -0.33016    ??        
 27.225u   -0.98511   -0.33469   -0.33172    ??        
 27.262u   -0.98889   -0.33639   -0.3338     ??        
 27.3u     -0.99211   -0.33782   -0.3356     ??        
 27.35u    -0.99556   -0.3393    -0.33757    ??        
 27.4u     -0.99803   -0.34028   -0.33905    ??        
 27.5u     -1.        -0.34102   -0.17014    ??        
 27.51u    -0.99998   -0.341     -0.13781    ??        
 27.521u   -0.99991   -0.34094   -0.11163    ??        
 27.528u   -0.99984   -0.34087   -0.096665   ??        
 27.535u   -0.99975   -0.34078   -0.083708   ??        
 27.6u     -0.99803   -0.33905   -0.017979   ??        
 27.665u   -0.99465   -0.33568   -0.0038617  ??        
 27.7u     -0.99211   -0.33314   -0.0018441  ??        
 27.735u   -0.98909   -0.33011   -880.57u    ??        
 27.771u   -0.98557   -0.32659   -420.49u    ??        
 27.8u     -0.98229   -0.32331   -230.04u    ??        
 27.829u   -0.97867   -0.3197    -125.85u    ??        
 27.859u   -0.97473   -0.31575   -68.85u     ??        
 27.9u     -0.96858   -0.30961   -28.5u      ??        
 27.941u   -0.96178   -0.3028    -11.798u    ??        
 27.983u   -0.95432   -0.29535   -4.8836u    ??        
 28.u      -0.95106   -0.25486   -0.037227   ??        
 28.012u   -0.94865   -0.20979   -0.079884   ??        
 28.025u   -0.94618   -0.18196   -0.10524    ??        
 28.033u   -0.94446   -0.16935   -0.11614    ??        
 28.041u   -0.94272   -0.16009   -0.12365    ??        
 28.056u   -0.9396    -0.14906   -0.13157    ??        
 28.071u   -0.9364    -0.14226   -0.13517    ??        
 28.085u   -0.93313   -0.13775   -0.13641    ??        
 28.1u     -0.92978   -0.13447   -0.13633    ??        
 28.115u   -0.92634   -0.13185   -0.13552    ??        
 28.136u   -0.92121   -0.12858   -0.13366    ??        
 28.157u   -0.91591   -0.12559   -0.13135    ??        
 28.172u   -0.91229   -0.12365   -0.12967    ??        
 28.2u     -0.90483   -0.11972   -0.12613    ??        
 28.25u    -0.89101   -0.11256   -0.11947    ??        
 28.3u     -0.87631   -0.10499   -0.11234    ??        
 28.35u    -0.86074   -0.096993  -0.10478    ??        
 28.4u     -0.84433   -0.088574  -0.096781   ??        
 28.5u     -0.80902   -0.06147   -0.044287   ??        
 28.505u   -0.80705   -0.059502  -0.039816   ??        
 28.511u   -0.80507   -0.057525  -0.035796   ??        
 28.515u   -0.80356   -0.056008  -0.033001   ??        
 28.519u   -0.80203   -0.054486  -0.030424   ??        
 28.6u     -0.77051   -0.022966  -0.0031488  ??        
 28.65u    -0.75011   -0.002564  -0.0010496  ??        
 28.675u   -0.73963    0.007916  -629.76u    ??        
 28.7u     -0.72897    0.018578  -377.86u    ??        
 28.725u   -0.71813    0.029421  -226.71u    ??        
 28.762u   -0.70153    0.046016  -103.05u    ??        
 28.8u     -0.68455    0.063     -46.842u    ??        
 28.837u   -0.66718    0.080364  -21.292u    ??        
 28.875u   -0.64945    0.098099  -9.6781u    ??        
 28.9u     -0.63742    0.11012   -5.8068u    ??        
 28.925u   -0.62524    0.1223    -3.4841u    ??        
 28.963u   -0.60668    0.14086   -1.5837u    ??        
 29.u      -0.58779    0.12553    0.034234   ??        
 29.038u   -0.56856    0.10151    0.077479   ??        
 29.053u   -0.56046    0.10292    0.084164   ??        
 29.069u   -0.5523     0.10564    0.089602   ??        
 29.084u   -0.54409    0.10906    0.094399   ??        
 29.1u     -0.53583    0.11285    0.098873   ??        
 29.125u   -0.5225     0.1193     0.10575    ??        
 29.163u   -0.50227    0.12939    0.11589    ??        
 29.2u     -0.48175    0.13972    0.12607    ??        
 29.25u    -0.45399    0.15372    0.13984    ??        
 29.3u     -0.42578    0.16794    0.15383    ??        
 29.4u     -0.36812    0.19697    0.18245    ??        
 29.5u     -0.30902    0.24156    0.098484   ??        
 29.506u   -0.30547    0.24511    0.087444   ??        
 29.512u   -0.30191    0.24867    0.077641   ??        
 29.516u   -0.29951    0.25107    0.07166    ??        
 29.52u    -0.29711    0.25347    0.06614    ??        
 29.56u    -0.27299    0.27759    0.028308   ??        
 29.6u     -0.24869    0.30189    0.012116   ??        
 29.64u    -0.22424    0.32634    0.0051856  ??        
 29.7u     -0.18738    0.3632     0.0012987  ??        
 29.725u   -0.17193    0.37865    779.2u     ??        
 29.75u    -0.15643    0.39414    467.52u    ??        
 29.775u   -0.1409     0.40968    280.51u    ??        
 29.8u     -0.12533    0.42524    168.31u    ??        
 29.825u   -0.10973    0.44084    100.98u    ??        
 29.862u   -0.086286   0.46429    45.902u    ??        
 29.9u     -0.062791   0.48779    20.864u    ??        
 29.937u   -0.03926    0.51132    9.4838u    ??        
 29.975u   -0.015707   0.53487    4.3108u    ??        
 30.u      -73.411p    0.45881    0.091765   ??        
 30.025u    0.015707   0.34955    0.21673    ??        
 30.038u    0.02356    0.33006    0.24408    ??        
 30.05u     0.031411   0.31993    0.26206    ??        
 30.062u    0.03926    0.31542    0.27442    ??        
 30.081u    0.051029   0.3144     0.28721    ??        
 30.1u      0.062791   0.31714    0.29623    ??        
 30.119u    0.074544   0.32159    0.30353    ??        
 30.146u    0.091502   0.32922    0.31286    ??        
 30.173u    0.10843    0.33743    0.32158    ??        
 30.2u      0.12533    0.34579    0.33012    ??        
 30.25u     0.15643    0.36128    0.34573    ??        
 30.3u      0.18738    0.37672    0.36124    ??        
 30.35u     0.21814    0.39205    0.37667    ??        
 30.4u      0.24869    0.40727    0.392      ??        
 30.5u      0.30902    0.45233    0.20364    ??        
 30.505u    0.31208    0.45539    0.18374    ??        
 30.509u    0.31444    0.45775    0.16977    ??        
 30.513u    0.3168     0.46011    0.15685    ??        
 30.517u    0.31915    0.46246    0.14493    ??        
 30.558u    0.34376    0.48707    0.059912   ??        
 30.6u      0.36812    0.51143    0.024768   ??        
 30.642u    0.39224    0.53555    0.010239   ??        
 30.7u      0.42578    0.56909    0.0026811  ??        
 30.725u    0.43994    0.58325    0.0016087  ??        
 30.75u     0.45399    0.5973     965.2u     ??        
 30.775u    0.46793    0.61124    579.12u    ??        
 30.8u      0.48175    0.62506    347.47u    ??        
 30.825u    0.49546    0.63877    208.48u    ??        
 30.862u    0.51579    0.65909    94.765u    ??        
 30.9u      0.53583    0.67913    43.075u    ??        
 30.937u    0.55557    0.69888    19.58u     ??        
 30.975u    0.57501    0.71831    8.8998u    ??        
 31.u       0.58779    0.60925    0.12185    ??        
 31.012u    0.59404    0.51845    0.2189     ??        
 31.025u    0.60025    0.46479    0.27878    ??        
 31.033u    0.60445    0.44201    0.30576    ??        
 31.041u    0.60863    0.42635    0.3256     ??        
 31.061u    0.61832    0.40638    0.35526    ??        
 31.08u     0.62792    0.40027    0.37097    ??        
 31.1u      0.63742    0.40021    0.38053    ??        
 31.12u     0.64683    0.40277    0.38738    ??        
 31.139u    0.65614    0.40645    0.39301    ??        
 31.154u    0.66333    0.40966    0.39699    ??        
 31.17u     0.67047    0.413      0.40078    ??        
 31.2u      0.68455    0.41979    0.40807    ??        
 31.225u    0.69591    0.42535    0.41387    ??        
 31.262u    0.71264    0.43358    0.42238    ??        
 31.3u      0.72897    0.44161    0.43068    ??        
 31.35u     0.75011    0.452      0.44143    ??        
 31.4u      0.77051    0.46201    0.45181    ??        
 31.5u      0.80902    0.49032    0.23101    ??        
 31.505u    0.81093    0.49223    0.20824    ??        
 31.51u     0.81283    0.49413    0.18772    ??        
 31.514u    0.81425    0.49555    0.17363    ??        
 31.518u    0.81567    0.49697    0.1606     ??        
 31.559u    0.83027    0.51157    0.067334   ??        
 31.6u      0.84433    0.52563    0.02823    ??        
 31.641u    0.85782    0.53912    0.011836   ??        
 31.7u      0.87631    0.55761    0.0030444  ??        
 31.725u    0.88377    0.56507    0.0018266  ??        
 31.75u     0.89101    0.57231    0.001096   ??        
 31.775u    0.89803    0.57933    657.59u    ??        
 31.8u      0.90483    0.58613    394.55u    ??        
 31.825u    0.9114     0.5927     236.73u    ??        
 31.863u    0.92085    0.60215    107.6u     ??        
 31.9u      0.92978    0.61108    48.911u    ??        
 31.937u    0.93819    0.61949    22.232u    ??        
 31.975u    0.94609    0.62739    10.106u    ??        
 32.u       0.95106    0.52696    0.1054     ??        
 32.012u    0.95335    0.44774    0.18692    ??        
 32.024u    0.95559    0.39946    0.23743    ??        
 32.032u    0.95714    0.37746    0.26098    ??        
 32.041u    0.95867    0.36203    0.27795    ??        
 32.061u    0.96212    0.3412     0.30223    ??        
 32.08u     0.96543    0.33301    0.31372    ??        
 32.1u      0.96858    0.33026    0.31963    ??        
 32.12u     0.97159    0.32984    0.32306    ??        
 32.139u    0.97445    0.33037    0.32538    ??        
 32.159u    0.97716    0.33129    0.32718    ??        
 32.179u    0.97972    0.33232    0.3287     ??        
 32.2u      0.98229    0.33344    0.33016    ??        
 32.225u    0.98511    0.3347     0.33172    ??        
 32.262u    0.98889    0.33639    0.33381    ??        
 32.3u      0.99211    0.33782    0.3356     ??        
 32.35u     0.99556    0.3393     0.33757    ??        
 32.4u      0.99803    0.34028    0.33905    ??        
 32.5u      1.         0.34102    0.17014    ??        
 32.51u     0.99998    0.341      0.13781    ??        
 32.521u    0.99991    0.34094    0.11163    ??        
 32.528u    0.99984    0.34087    0.096665   ??        
 32.535u    0.99975    0.34078    0.083709   ??        
 32.6u      0.99803    0.33905    0.017979   ??        
 32.665u    0.99465    0.33568    0.0038617  ??        
 32.7u      0.99211    0.33314    0.0018441  ??        
 32.735u    0.98909    0.33011    880.57u    ??        
 32.771u    0.98557    0.32659    420.49u    ??        
 32.8u      0.98229    0.32331    230.04u    ??        
 32.829u    0.97867    0.3197     125.85u    ??        
 32.859u    0.97473    0.31575    68.85u     ??        
 32.9u      0.96858    0.30961    28.5u      ??        
 32.941u    0.96178    0.3028     11.798u    ??        
 32.983u    0.95432    0.29535    4.8836u    ??        
 33.u       0.95106    0.25486    0.037227   ??        
 33.012u    0.94865    0.20979    0.079884   ??        
 33.025u    0.94618    0.18196    0.10524    ??        
 33.033u    0.94446    0.16935    0.11614    ??        
 33.041u    0.94272    0.16009    0.12365    ??        
 33.056u    0.9396     0.14906    0.13157    ??        
 33.071u    0.9364     0.14226    0.13517    ??        
 33.085u    0.93313    0.13775    0.13641    ??        
 33.1u      0.92978    0.13447    0.13633    ??        
 33.115u    0.92634    0.13185    0.13552    ??        
 33.136u    0.92121    0.12858    0.13366    ??        
 33.157u    0.91591    0.1256     0.13135    ??        
 33.172u    0.91229    0.12365    0.12967    ??        
 33.2u      0.90483    0.11972    0.12613    ??        
 33.25u     0.89101    0.11256    0.11947    ??        
 33.3u      0.87631    0.10499    0.11234    ??        
 33.35u     0.86074    0.096994   0.10478    ??        
 33.4u      0.84433    0.088574   0.096781   ??        
 33.5u      0.80902    0.06147    0.044287   ??        
 33.505u    0.80705    0.059503   0.039816   ??        
 33.511u    0.80507    0.057526   0.035797   ??        
 33.515u    0.80356    0.056009   0.033001   ??        
 33.519u    0.80203    0.054487   0.030424   ??        
 33.6u      0.77051    0.022967   0.0031488  ??        
 33.65u     0.75011    0.0025645  0.0010496  ??        
 33.675u    0.73963   -0.0079155  629.77u    ??        
 33.7u      0.72897   -0.018578   377.86u    ??        
 33.725u    0.71813   -0.02942    226.72u    ??        
 33.762u    0.70153   -0.046015   103.05u    ??        
 33.8u      0.68455   -0.062999   46.842u    ??        
 33.837u    0.66718   -0.080364   21.292u    ??        
 33.875u    0.64945   -0.098099   9.6781u    ??        
 33.9u      0.63742   -0.11012    5.8069u    ??        
 33.925u    0.62524   -0.1223     3.4841u    ??        
 33.963u    0.60668   -0.14086    1.5837u    ??        
 34.u       0.58779   -0.12553   -0.034234   ??        
 34.038u    0.56856   -0.10151   -0.077479   ??        
 34.053u    0.56046   -0.10292   -0.084164   ??        
 34.069u    0.5523    -0.10564   -0.089602   ??        
 34.084u    0.54409   -0.10906   -0.094398   ??        
 34.1u      0.53583   -0.11285   -0.098872   ??        
 34.125u    0.5225    -0.1193    -0.10575    ??        
 34.162u    0.50227   -0.12939   -0.11589    ??        
 34.2u      0.48175   -0.13972   -0.12607    ??        
 34.25u     0.45399   -0.15372   -0.13984    ??        
 34.3u      0.42578   -0.16794   -0.15383    ??        
 34.4u      0.36812   -0.19697   -0.18245    ??        
 34.5u      0.30902   -0.24156   -0.098484   ??        
 34.506u    0.30547   -0.24511   -0.087444   ??        
 34.512u    0.30191   -0.24867   -0.077641   ??        
 34.516u    0.29951   -0.25107   -0.07166    ??        
 34.52u     0.29711   -0.25347   -0.06614    ??        
 34.56u     0.27299   -0.27759   -0.028308   ??        
 34.6u      0.24869   -0.30189   -0.012116   ??        
 34.64u     0.22424   -0.32634   -0.0051856  ??        
 34.7u      0.18738   -0.3632    -0.0012987  ??        
 34.725u    0.17193   -0.37865   -779.19u    ??        
 34.75u     0.15643   -0.39414   -467.52u    ??        
 34.775u    0.1409    -0.40968   -280.51u    ??        
 34.8u      0.12533   -0.42524   -168.31u    ??        
 34.825u    0.10973   -0.44084   -100.98u    ??        
 34.862u    0.086286  -0.46429   -45.902u    ??        
 34.9u      0.062791  -0.48779   -20.864u    ??        
 34.938u    0.03926   -0.51132   -9.4838u    ??        
 34.975u    0.015707  -0.53487   -4.3108u    ??        
 35.u       4.f       -0.55058   -2.5865u    ??        
 35.025u   -0.015707  -0.4719    -0.094382   ??        
 35.05u    -0.031411  -0.35915   -0.22284    ??        
 35.062u   -0.03926   -0.33895   -0.25089    ??        
 35.075u   -0.047106  -0.3284    -0.26928    ??        
 35.088u   -0.05495   -0.32364   -0.28189    ??        
 35.1u     -0.062791  -0.32234   -0.29102    ??        
 35.125u   -0.078459  -0.32496   -0.30408    ??        
 35.15u    -0.094108  -0.33104   -0.31365    ??        
 35.175u   -0.10973   -0.33826   -0.32205    ??        
 35.2u     -0.12533   -0.34586   -0.33005    ??        
 35.225u   -0.1409    -0.35356   -0.33792    ??        
 35.262u   -0.16419   -0.36515   -0.34961    ??        
 35.3u     -0.18738   -0.37672   -0.36124    ??        
 35.35u    -0.21814   -0.39205   -0.37667    ??        
 35.4u     -0.24869   -0.40727   -0.392      ??        
 35.5u     -0.30902   -0.45232   -0.20364    ??        
 35.505u   -0.31179   -0.4551    -0.18558    ??        
 35.509u   -0.31456   -0.45786   -0.16912    ??        
 35.513u   -0.31664   -0.45994   -0.15772    ??        
 35.516u   -0.31872   -0.46202   -0.14708    ??        
 35.6u     -0.36812   -0.51143   -0.013014   ??        
 35.65u    -0.39715   -0.54046   -0.004338   ??        
 35.675u   -0.41151   -0.55482   -0.0026028  ??        
 35.7u     -0.42578   -0.56909   -0.0015617  ??        
 35.725u   -0.43994   -0.58325   -937.01u    ??        
 35.762u   -0.46097   -0.60428   -425.92u    ??        
 35.8u     -0.48175   -0.62506   -193.6u     ??        
 35.837u   -0.50227   -0.64557   -87.999u    ??        
 35.875u   -0.5225    -0.66581   -40.u       ??        
 35.9u     -0.53583   -0.67913   -24.u       ??        
 35.925u   -0.54902   -0.69233   -14.4u      ??        
 35.963u   -0.56856   -0.71187   -6.5454u    ??        
 36.u      -0.58779   -0.57443   -0.15667    ??        
 36.018u   -0.59671   -0.47328   -0.26675    ??        
 36.035u   -0.60557   -0.42713   -0.32175    ??        
 36.053u   -0.61435   -0.40729   -0.35037    ??        
 36.071u   -0.62305   -0.40002   -0.36634    ??        
 36.088u   -0.63168   -0.39874   -0.37625    ??        
 36.1u     -0.63742   -0.39963   -0.3811     ??        
 36.125u   -0.64945   -0.40348   -0.38928    ??        
 36.15u    -0.66131   -0.40863   -0.39599    ??        
 36.175u   -0.67301   -0.41417   -0.40215    ??        
 36.2u     -0.68455   -0.41978   -0.40808    ??        
 36.225u   -0.69591   -0.42535   -0.41387    ??        
 36.263u   -0.71264   -0.43357   -0.42238    ??        
 36.3u     -0.72897   -0.44161   -0.43067    ??        
 36.4u     -0.77051   -0.46201   -0.45181    ??        
 36.5u     -0.80902   -0.49031   -0.23101    ??        
 36.507u   -0.81141   -0.49271   -0.20278    ??        
 36.513u   -0.8138    -0.49509   -0.178      ??        
 36.517u   -0.81538   -0.49668   -0.16316    ??        
 36.522u   -0.81696   -0.49826   -0.14956    ??        
 36.561u   -0.8309    -0.51219   -0.065413   ??        
 36.6u     -0.84433   -0.52562   -0.02861    ??        
 36.639u   -0.85725   -0.53855   -0.012513   ??        
 36.7u     -0.87631   -0.5576    -0.0030449  ??        
 36.725u   -0.88377   -0.56506   -0.0018269  ??        
 36.75u    -0.89101   -0.5723    -0.0010962  ??        
 36.775u   -0.89803   -0.57932   -657.7u     ??        
 36.8u     -0.90483   -0.58612   -394.62u    ??        
 36.825u   -0.9114    -0.5927    -236.77u    ??        
 36.863u   -0.92085   -0.60214   -107.62u    ??        
 36.9u     -0.92978   -0.61107   -48.92u     ??        
 36.937u   -0.93819   -0.61949   -22.236u    ??        
 36.975u   -0.94609   -0.62738   -10.107u    ??        
 37.u      -0.95106   -0.52696   -0.1054     ??        
 37.012u   -0.95335   -0.44774   -0.18692    ??        
 37.024u   -0.95559   -0.39946   -0.23743    ??        
 37.032u   -0.95714   -0.37746   -0.26098    ??        
 37.041u   -0.95867   -0.36203   -0.27794    ??        
 37.061u   -0.96212   -0.3412    -0.30223    ??        
 37.08u    -0.96543   -0.33301   -0.31372    ??        
 37.1u     -0.96858   -0.33026   -0.31963    ??        
 37.12u    -0.97159   -0.32983   -0.32306    ??        
 37.139u   -0.97445   -0.33037   -0.32538    ??        
 37.159u   -0.97716   -0.33129   -0.32718    ??        
 37.179u   -0.97972   -0.33232   -0.3287     ??        
 37.2u     -0.98229   -0.33343   -0.33016    ??        
 37.225u   -0.98511   -0.33469   -0.33172    ??        
 37.262u   -0.98889   -0.33639   -0.3338     ??        
 37.3u     -0.99211   -0.33782   -0.3356     ??        
 37.35u    -0.99556   -0.33929   -0.33757    ??        
 37.4u     -0.99803   -0.34028   -0.33905    ??        
 37.5u     -1.        -0.34078   -0.34053    ??        
 37.6u     -0.99803   -0.33855   -0.17039    ??        
 37.614u   -0.99744   -0.33797   -0.12901    ??        
 37.628u   -0.99679   -0.33731   -0.097682   ??        
 37.641u   -0.99605   -0.33658   -0.073961   ??        
 37.655u   -0.99524   -0.33577   -0.056      ??        
 37.7u     -0.99211   -0.33264   -0.021391   ??        
 37.745u   -0.9882    -0.32873   -0.0081709  ??        
 37.789u   -0.98351   -0.32404   -0.0031211  ??        
 37.8u     -0.98229   -0.32282   -0.0025249  ??        
 37.825u   -0.97922   -0.31975   -0.0015149  ??        
 37.863u   -0.97417   -0.3147    -688.61u    ??        
 37.9u     -0.96858   -0.30911   -313.u      ??        
 37.938u   -0.96246   -0.30298   -142.27u    ??        
 37.975u   -0.95579   -0.29632   -64.67u     ??        
 38.u      -0.95106   -0.243     -0.048638   ??        
 38.008u   -0.94959   -0.21624   -0.073925   ??        
 38.015u   -0.9481    -0.19626   -0.092414   ??        
 38.02u    -0.94715   -0.18639   -0.10133    ??        
 38.024u   -0.94619   -0.17814   -0.10863    ??        
 38.043u   -0.94229   -0.15571   -0.12715    ??        
 38.062u   -0.93825   -0.1444    -0.13443    ??        
 38.081u   -0.93408   -0.13807   -0.13659    ??        
 38.1u     -0.92978   -0.13395   -0.1364     ??        
 38.119u   -0.92534   -0.1308    -0.13512    ??        
 38.138u   -0.92078   -0.12804   -0.13331    ??        
 38.159u   -0.91562   -0.12518   -0.13101    ??        
 38.179u   -0.9103    -0.12235   -0.12852    ??        
 38.2u     -0.90483   -0.11949   -0.12591    ??        
 38.25u    -0.89101   -0.11234   -0.11925    ??        
 38.3u     -0.87631   -0.10477   -0.11212    ??        
 38.35u    -0.86074   -0.096768  -0.10455    ??        
 38.4u     -0.84433   -0.088349  -0.096556   ??        
 38.5u     -0.80902   -0.061245  -0.044174   ??        
 38.505u   -0.80705   -0.059277  -0.039715   ??        
 38.511u   -0.80507   -0.0573    -0.035705   ??        
 38.515u   -0.80356   -0.055783  -0.032917   ??        
 38.519u   -0.80203   -0.054261  -0.030347   ??        
 38.6u     -0.77051   -0.022741  -0.0031408  ??        
 38.65u    -0.75011   -0.0023389 -0.0010469  ??        
 38.675u   -0.73963    0.0081411 -628.16u    ??        
 38.7u     -0.72897    0.018804  -376.9u     ??        
 38.725u   -0.71813    0.029646  -226.14u    ??        
 38.762u   -0.70153    0.046241  -102.79u    ??        
 38.8u     -0.68455    0.063225  -46.723u    ??        
 38.838u   -0.66718    0.080589  -21.238u    ??        
 38.875u   -0.64945    0.098324  -9.6535u    ??        
 38.9u     -0.63742    0.11035   -5.7921u    ??        
 38.925u   -0.62524    0.12253   -3.4752u    ??        
 38.962u   -0.60668    0.14109   -1.5797u    ??        
 39.u      -0.58779    0.1257     0.034282   ??        
 39.038u   -0.56856    0.10163    0.077582   ??        
 39.053u   -0.56046    0.10304    0.084272   ??        
 39.069u   -0.5523     0.10576    0.089712   ??        
 39.084u   -0.54409    0.10917    0.09451    ??        
 39.1u     -0.53583    0.11296    0.098984   ??        
 39.125u   -0.5225     0.11941    0.10586    ??        
 39.162u   -0.50227    0.1295     0.116      ??        
 39.2u     -0.48175    0.13983    0.12618    ??        
 39.25u    -0.45399    0.15383    0.13995    ??        
 39.3u     -0.42578    0.16805    0.15394    ??        
 39.4u     -0.36812    0.19708    0.18257    ??        
 39.5u     -0.30902    0.24167    0.098541   ??        
 39.506u   -0.30547    0.24522    0.087494   ??        
 39.512u   -0.30191    0.24878    0.077686   ??        
 39.516u   -0.29951    0.25118    0.071701   ??        
 39.52u    -0.29711    0.25358    0.066178   ??        
 39.56u    -0.27299    0.2777     0.028324   ??        
 39.6u     -0.24869    0.302      0.012123   ??        
 39.64u    -0.22424    0.32645    0.0051885  ??        
 39.7u     -0.18738    0.36331    0.0012994  ??        
 39.725u   -0.17193    0.37876    779.64u    ??        
 39.75u    -0.15643    0.39426    467.78u    ??        
 39.775u   -0.1409     0.40979    280.67u    ??        
 39.8u     -0.12533    0.42536    168.4u     ??        
 39.825u   -0.10973    0.44096    101.04u    ??        
 39.863u   -0.086286   0.4644     45.928u    ??        
 39.9u     -0.062791   0.4879     20.876u    ??        
 39.938u   -0.03926    0.51143    9.4892u    ??        
 39.975u   -0.015707   0.53498    4.3133u    ??        
 40.u      -5.f        0.55069    2.588u     ??        
 40.025u    0.015707   0.472      0.094401   ??        
 40.05u     0.031411   0.35922    0.22288    ??        
 40.063u    0.03926    0.33902    0.25094    ??        
 40.075u    0.047106   0.32846    0.26934    ??        
 40.087u    0.05495    0.3237     0.28195    ??        
 40.1u      0.062791   0.3224     0.29108    ??        
 40.125u    0.078459   0.32502    0.30413    ??        
 40.15u     0.094108   0.3311     0.3137     ??        
 40.175u    0.10973    0.33832    0.3221     ??        
 40.2u      0.12533    0.34591    0.33011    ??        
 40.225u    0.1409     0.35362    0.33797    ??        
 40.262u    0.16419    0.36521    0.34967    ??        
 40.3u      0.18738    0.37677    0.3613     ??        
 40.35u     0.21814    0.39211    0.37673    ??        
 40.4u      0.24869    0.40733    0.39205    ??        
 40.5u      0.30902    0.45238    0.20366    ??        
 40.505u    0.31179    0.45515    0.18561    ??        
 40.509u    0.31456    0.45792    0.16915    ??        
 40.513u    0.31664    0.46       0.15774    ??        
 40.516u    0.31872    0.46208    0.1471     ??        
 40.6u      0.36812    0.51149    0.013016   ??        
 40.65u     0.39715    0.54051    0.0043386  ??        
 40.675u    0.41151    0.55488    0.0026032  ??        
 40.7u      0.42578    0.56914    0.0015619  ??        
 40.725u    0.43994    0.5833     937.14u    ??        
 40.762u    0.46097    0.60434    425.97u    ??        
 40.8u      0.48175    0.62512    193.62u    ??        
 40.838u    0.50227    0.64563    88.011u    ??        
 40.875u    0.5225     0.66586    40.005u    ??        
 40.9u      0.53583    0.67919    24.003u    ??        
 40.925u    0.54902    0.69239    14.402u    ??        
 40.963u    0.56856    0.71193    6.5463u    ??        
 41.u       0.58779    0.57447    0.15668    ??        
 41.018u    0.59671    0.47331    0.26677    ??        
 41.035u    0.60557    0.42716    0.32177    ??        
 41.053u    0.61435    0.40732    0.35039    ??        
 41.071u    0.62305    0.40005    0.36637    ??        
 41.088u    0.63168    0.39877    0.37627    ??        
 41.1u      0.63742    0.39966    0.38113    ??        
 41.125u    0.64945    0.4035     0.38931    ??        
 41.15u     0.66131    0.40866    0.39602    ??        
 41.175u    0.67301    0.4142     0.40218    ??        
 41.2u      0.68455    0.4198     0.40811    ??        
 41.225u    0.69591    0.42538    0.4139     ??        
 41.262u    0.71264    0.4336     0.4224     ??        
 41.3u      0.72897    0.44163    0.4307     ??        
 41.4u      0.77051    0.46204    0.45184    ??        
 41.5u      0.80902    0.49034    0.23102    ??        
 41.507u    0.81141    0.49274    0.20279    ??        
 41.513u    0.8138     0.49512    0.17801    ??        
 41.517u    0.81538    0.49671    0.16317    ??        
 41.522u    0.81696    0.49829    0.14957    ??        
 41.561u    0.8309     0.51222    0.065417   ??        
 41.6u      0.84433    0.52565    0.028611   ??        
 41.639u    0.85725    0.53857    0.012514   ??        
 41.7u      0.87631    0.55763    0.0030451  ??        
 41.725u    0.88377    0.56509    0.0018271  ??        
 41.75u     0.89101    0.57233    0.0010962  ??        
 41.775u    0.89803    0.57935    657.74u    ??        
 41.8u      0.90483    0.58615    394.64u    ??        
 41.825u    0.9114     0.59273    236.79u    ??        
 41.863u    0.92085    0.60217    107.63u    ??        
 41.9u      0.92978    0.6111     48.923u    ??        
 41.937u    0.93819    0.61952    22.238u    ??        
 41.975u    0.94609    0.62741    10.108u    ??        
 42.u       0.95106    0.52699    0.1054     ??        
 42.012u    0.95335    0.44776    0.18692    ??        
 42.024u    0.95559    0.39949    0.23743    ??        
 42.032u    0.95699    0.37938    0.25893    ??        
 42.039u    0.95836    0.36476    0.27494    ??        
 42.059u    0.96193    0.34187    0.30139    ??        
 42.08u     0.96533    0.3331     0.31357    ??        
 42.1u      0.96858    0.33024    0.31968    ??        
 42.12u     0.97168    0.32984    0.32317    ??        
 42.141u    0.97461    0.33042    0.32552    ??        
 42.161u    0.97739    0.33138    0.32734    ??        
 42.181u    0.98       0.33245    0.32888    ??        
 42.2u      0.98229    0.33345    0.33017    ??        
 42.225u    0.98511    0.33471    0.33173    ??        
 42.262u    0.98889    0.3364     0.33382    ??        
 42.3u      0.99211    0.33783    0.33562    ??        
 42.35u     0.99556    0.33931    0.33759    ??        
 42.4u      0.99803    0.3403     0.33906    ??        
 42.5u      1.         0.34079    0.34054    ??        
 42.6u      0.99803    0.33857    0.17039    ??        
 42.614u    0.99744    0.33799    0.12902    ??        
 42.628u    0.99679    0.33733    0.097686   ??        
 42.641u    0.99605    0.33659    0.073964   ??        
 42.655u    0.99524    0.33579    0.056003   ??        
 42.7u      0.99211    0.33266    0.021392   ??        
 42.745u    0.9882     0.32874    0.0081712  ??        
 42.789u    0.98351    0.32405    0.0031212  ??        
 42.8u      0.98229    0.32283    0.002525   ??        
 42.825u    0.97922    0.31977    0.001515   ??        
 42.862u    0.97417    0.31472    688.63u    ??        
 42.9u      0.96858    0.30913    313.02u    ??        
 42.938u    0.96246    0.303      142.28u    ??        
 42.975u    0.95579    0.29634    64.673u    ??        
 43.u       0.95106    0.24301    0.04864    ??        
 43.008u    0.94959    0.21625    0.073929   ??        
 43.015u    0.9481     0.19627    0.092419   ??        
 43.02u     0.94715    0.1864     0.10134    ??        
 43.024u    0.94619    0.17815    0.10864    ??        
 43.043u    0.94229    0.15572    0.12716    ??        
 43.062u    0.93825    0.14441    0.13443    ??        
 43.081u    0.93408    0.13807    0.1366     ??        
 43.1u      0.92978    0.13396    0.13641    ??        
 43.119u    0.92534    0.1308     0.13513    ??        
 43.138u    0.92078    0.12805    0.13332    ??        
 43.159u    0.91562    0.12519    0.13102    ??        
 43.179u    0.9103     0.12236    0.12853    ??        
 43.2u      0.90483    0.1195     0.12592    ??        
 43.25u     0.89101    0.11234    0.11925    ??        
 43.3u      0.87631    0.10477    0.11212    ??        
 43.35u     0.86074    0.096775   0.10456    ??        
 43.4u      0.84433    0.088356   0.096563   ??        
 43.5u      0.80902    0.061252   0.044178   ??        
 43.505u    0.80705    0.059284   0.039718   ??        
 43.511u    0.80507    0.057307   0.035708   ??        
 43.515u    0.80356    0.05579    0.03292    ??        
 43.519u    0.80203    0.054268   0.030349   ??        
 43.6u      0.77051    0.022748   0.0031411  ??        
 43.65u     0.75011    0.0023459  0.001047   ??        
 43.675u    0.73963   -0.008134   628.21u    ??        
 43.7u      0.72897   -0.018797   376.93u    ??        
 43.725u    0.71813   -0.029639   226.16u    ??        
 43.763u    0.70153   -0.046234   102.8u     ??        
 43.8u      0.68455   -0.063218   46.727u    ??        
 43.837u    0.66718   -0.080582   21.239u    ??        
 43.875u    0.64945   -0.098317   9.6542u    ??        
 43.9u      0.63742   -0.11034    5.7925u    ??        
 43.925u    0.62524   -0.12252    3.4755u    ??        
 43.963u    0.60668   -0.14108    1.5798u    ??        
 44.u       0.58779   -0.1257    -0.034281   ??        
 44.038u    0.56856   -0.10162   -0.077579   ??        
 44.053u    0.56046   -0.10304   -0.084268   ??        
 44.069u    0.5523    -0.10575   -0.089708   ??        
 44.084u    0.54409   -0.10917   -0.094506   ??        
 44.1u      0.53583   -0.11296   -0.098981   ??        
 44.125u    0.5225    -0.1194    -0.10586    ??        
 44.162u    0.50227   -0.1295    -0.116      ??        
 44.2u      0.48175   -0.13983   -0.12618    ??        
 44.25u     0.45399   -0.15383   -0.13995    ??        
 44.3u      0.42578   -0.16805   -0.15394    ??        
 44.4u      0.36812   -0.19708   -0.18256    ??        
 44.5u      0.30902   -0.24167   -0.098539   ??        
 44.506u    0.30547   -0.24522   -0.087492   ??        
 44.512u    0.30191   -0.24877   -0.077684   ??        
 44.516u    0.29951   -0.25117   -0.0717     ??        
 44.52u     0.29711   -0.25358   -0.066177   ??        
 44.56u     0.27299   -0.2777    -0.028324   ??        
 44.6u      0.24869   -0.302     -0.012122   ??        
 44.64u     0.22424   -0.32645   -0.0051884  ??        
 44.7u      0.18738   -0.3633    -0.0012994  ??        
 44.725u    0.17193   -0.37876   -779.63u    ??        
 44.75u     0.15643   -0.39425   -467.78u    ??        
 44.775u    0.1409    -0.40978   -280.67u    ??        
 44.8u      0.12533   -0.42535   -168.4u     ??        
 44.825u    0.10973   -0.44095   -101.04u    ??        
 44.862u    0.086286  -0.4644    -45.927u    ??        
 44.9u      0.062791  -0.4879    -20.876u    ??        
 44.938u    0.03926   -0.51143   -9.4891u    ??        
 44.975u    0.015707  -0.53498   -4.3132u    ??        
 45.u       5.f       -0.55069   -2.5879u    ??        
 45.025u   -0.015707  -0.47199   -0.0944     ??        
 45.05u    -0.031411  -0.35922   -0.22288    ??        
 45.062u   -0.03926   -0.33901   -0.25093    ??        
 45.075u   -0.047106  -0.32846   -0.26933    ??        
 45.087u   -0.05495   -0.32369   -0.28194    ??        
 45.1u     -0.062791  -0.3224    -0.29108    ??        
 45.125u   -0.078459  -0.32502   -0.30413    ??        
 45.15u    -0.094108  -0.3311    -0.3137     ??        
 45.175u   -0.10973   -0.33832   -0.3221     ??        
 45.2u     -0.12533   -0.34591   -0.33011    ??        
 45.225u   -0.1409    -0.35362   -0.33797    ??        
 45.262u   -0.16419   -0.36521   -0.34967    ??        
 45.3u     -0.18738   -0.37677   -0.3613     ??        
 45.35u    -0.21814   -0.39211   -0.37672    ??        
 45.4u     -0.24869   -0.40733   -0.39205    ??        
 45.5u     -0.30902   -0.45238   -0.20366    ??        
 45.505u   -0.31179   -0.45515   -0.1856     ??        
 45.509u   -0.31456   -0.45792   -0.16915    ??        
 45.513u   -0.31664   -0.46      -0.15774    ??        
 45.516u   -0.31872   -0.46208   -0.1471     ??        
 45.6u     -0.36812   -0.51149   -0.013016   ??        
 45.65u    -0.39715   -0.54051   -0.0043386  ??        
 45.675u   -0.41151   -0.55488   -0.0026032  ??        
 45.7u     -0.42578   -0.56914   -0.0015619  ??        
 45.725u   -0.43994   -0.5833    -937.14u    ??        
 45.762u   -0.46097   -0.60434   -425.97u    ??        
 45.8u     -0.48175   -0.62512   -193.62u    ??        
 45.837u   -0.50227   -0.64563   -88.011u    ??        
 45.875u   -0.5225    -0.66586   -40.005u    ??        
 45.9u     -0.53583   -0.67919   -24.003u    ??        
 45.925u   -0.54902   -0.69238   -14.402u    ??        
 45.962u   -0.56856   -0.71192   -6.5463u    ??        
 46.u      -0.58779   -0.57447   -0.15668    ??        
 46.018u   -0.59671   -0.47331   -0.26677    ??        
 46.035u   -0.60557   -0.42716   -0.32177    ??        
 46.053u   -0.61435   -0.40732   -0.35039    ??        
 46.071u   -0.62305   -0.40005   -0.36637    ??        
 46.088u   -0.63168   -0.39877   -0.37627    ??        
 46.1u     -0.63742   -0.39966   -0.38113    ??        
 46.125u   -0.64945   -0.4035    -0.38931    ??        
 46.15u    -0.66131   -0.40866   -0.39602    ??        
 46.175u   -0.67301   -0.4142    -0.40218    ??        
 46.2u     -0.68455   -0.4198    -0.40811    ??        
 46.225u   -0.69591   -0.42538   -0.4139     ??        
 46.262u   -0.71264   -0.4336    -0.4224     ??        
 46.3u     -0.72897   -0.44163   -0.4307     ??        
 46.4u     -0.77051   -0.46204   -0.45184    ??        
 46.5u     -0.80902   -0.49034   -0.23102    ??        
 46.507u   -0.81141   -0.49274   -0.20279    ??        
 46.513u   -0.8138    -0.49512   -0.17801    ??        
 46.517u   -0.81538   -0.49671   -0.16317    ??        
 46.522u   -0.81696   -0.49828   -0.14957    ??        
 46.561u   -0.8309    -0.51222   -0.065416   ??        
 46.6u     -0.84433   -0.52565   -0.028611   ??        
 46.639u   -0.85725   -0.53857   -0.012514   ??        
 46.7u     -0.87631   -0.55763   -0.0030451  ??        
 46.725u   -0.88377   -0.56509   -0.0018271  ??        
 46.75u    -0.89101   -0.57233   -0.0010962  ??        
 46.775u   -0.89803   -0.57935   -657.74u    ??        
 46.8u     -0.90483   -0.58615   -394.64u    ??        
 46.825u   -0.9114    -0.59273   -236.79u    ??        
 46.863u   -0.92085   -0.60217   -107.63u    ??        
 46.9u     -0.92978   -0.6111    -48.923u    ??        
 46.937u   -0.93819   -0.61951   -22.238u    ??        
 46.975u   -0.94609   -0.62741   -10.108u    ??        
 47.u      -0.95106   -0.52698   -0.1054     ??        
 47.012u   -0.95335   -0.44776   -0.18692    ??        
 47.024u   -0.95559   -0.39949   -0.23743    ??        
 47.032u   -0.95699   -0.37938   -0.25893    ??        
 47.039u   -0.95836   -0.36476   -0.27494    ??        
 47.059u   -0.96193   -0.34187   -0.30138    ??        
 47.08u    -0.96533   -0.3331    -0.31357    ??        
 47.1u     -0.96858   -0.33024   -0.31967    ??        
 47.12u    -0.97168   -0.32984   -0.32317    ??        
 47.141u   -0.97461   -0.33042   -0.32552    ??        
 47.161u   -0.97739   -0.33138   -0.32734    ??        
 47.181u   -0.98      -0.33245   -0.32888    ??        
 47.2u     -0.98229   -0.33345   -0.33017    ??        
 47.225u   -0.98511   -0.33471   -0.33173    ??        
 47.263u   -0.98889   -0.3364    -0.33382    ??        
 47.3u     -0.99211   -0.33783   -0.33562    ??        
 47.35u    -0.99556   -0.33931   -0.33758    ??        
 47.4u     -0.99803   -0.3403    -0.33906    ??        
 47.5u     -1.        -0.34079   -0.34054    ??        
 47.6u     -0.99803   -0.33857   -0.17039    ??        
 47.614u   -0.99744   -0.33799   -0.12902    ??        
 47.628u   -0.99679   -0.33733   -0.097686   ??        
 47.641u   -0.99605   -0.33659   -0.073964   ??        
 47.655u   -0.99524   -0.33579   -0.056002   ??        
 47.7u     -0.99211   -0.33266   -0.021392   ??        
 47.745u   -0.9882    -0.32874   -0.0081712  ??        
 47.789u   -0.98351   -0.32405   -0.0031212  ??        
 47.8u     -0.98229   -0.32283   -0.002525   ??        
 47.825u   -0.97922   -0.31976   -0.001515   ??        
 47.862u   -0.97417   -0.31472   -688.63u    ??        
 47.9u     -0.96858   -0.30912   -313.01u    ??        
 47.938u   -0.96246   -0.303     -142.28u    ??        
 47.975u   -0.95579   -0.29633   -64.672u    ??        
 48.u      -0.95106   -0.24301   -0.04864    ??        
 48.008u   -0.94959   -0.21625   -0.073929   ??        
 48.015u   -0.9481    -0.19627   -0.092419   ??        
 48.02u    -0.94715   -0.1864    -0.10134    ??        
 48.024u   -0.94619   -0.17815   -0.10864    ??        
 48.043u   -0.94229   -0.15572   -0.12716    ??        
 48.062u   -0.93825   -0.14441   -0.13443    ??        
 48.081u   -0.93408   -0.13807   -0.1366     ??        
 48.1u     -0.92978   -0.13396   -0.13641    ??        
 48.119u   -0.92534   -0.1308    -0.13513    ??        
 48.138u   -0.92078   -0.12805   -0.13332    ??        
 48.159u   -0.91562   -0.12519   -0.13102    ??        
 48.179u   -0.9103    -0.12236   -0.12853    ??        
 48.2u     -0.90483   -0.1195    -0.12592    ??        
 48.25u    -0.89101   -0.11234   -0.11925    ??        
 48.3u     -0.87631   -0.10477   -0.11212    ??        
 48.35u    -0.86074   -0.096775  -0.10456    ??        
 48.4u     -0.84433   -0.088356  -0.096563   ??        
 48.5u     -0.80902   -0.061252  -0.044178   ??        
 48.505u   -0.80705   -0.059284  -0.039718   ??        
 48.511u   -0.80507   -0.057307  -0.035708   ??        
 48.515u   -0.80356   -0.05579   -0.03292    ??        
 48.519u   -0.80203   -0.054268  -0.030349   ??        
 48.6u     -0.77051   -0.022748  -0.0031411  ??        
 48.65u    -0.75011   -0.0023457 -0.001047   ??        
 48.675u   -0.73963    0.0081343 -628.21u    ??        
 48.7u     -0.72897    0.018797  -376.93u    ??        
 48.725u   -0.71813    0.029639  -226.16u    ??        
 48.763u   -0.70153    0.046234  -102.8u     ??        
 48.8u     -0.68455    0.063218  -46.726u    ??        
 48.837u   -0.66718    0.080583  -21.239u    ??        
 48.875u   -0.64945    0.098317  -9.6542u    ??        
 48.9u     -0.63742    0.11034   -5.7925u    ??        
 48.925u   -0.62524    0.12252   -3.4755u    ??        
 48.963u   -0.60668    0.14108   -1.5798u    ??        
 49.u      -0.58779    0.1257     0.034281   ??        
 49.037u   -0.56856    0.10162    0.077579   ??        
 49.053u   -0.56046    0.10304    0.084269   ??        
 49.069u   -0.5523     0.10576    0.089708   ??        
 49.084u   -0.54409    0.10917    0.094507   ??        
 49.1u     -0.53583    0.11296    0.098981   ??        
 49.125u   -0.5225     0.1194     0.10586    ??        
 49.163u   -0.50227    0.1295     0.116      ??        
 49.2u     -0.48175    0.13983    0.12618    ??        
 49.25u    -0.45399    0.15383    0.13995    ??        
 49.3u     -0.42578    0.16805    0.15394    ??        
 49.4u     -0.36812    0.19708    0.18256    ??        
 49.5u     -0.30902    0.24167    0.098539   ??        
 49.506u   -0.30547    0.24522    0.087492   ??        
 49.512u   -0.30191    0.24877    0.077684   ??        
 49.516u   -0.29951    0.25117    0.0717     ??        
 49.52u    -0.29711    0.25358    0.066177   ??        
 49.56u    -0.27299    0.2777     0.028324   ??        
 49.6u     -0.24869    0.302      0.012123   ??        
 49.64u    -0.22424    0.32645    0.0051884  ??        
 49.7u     -0.18738    0.3633     0.0012994  ??        
 49.725u   -0.17193    0.37876    779.63u    ??        
 49.75u    -0.15643    0.39425    467.78u    ??        
 49.775u   -0.1409     0.40978    280.67u    ??        
 49.8u     -0.12533    0.42535    168.4u     ??        
 49.825u   -0.10973    0.44095    101.04u    ??        
 49.862u   -0.086286   0.4644     45.927u    ??        
 49.9u     -0.062791   0.4879     20.876u    ??        
 49.938u   -0.03926    0.51143    9.4891u    ??        
 49.975u   -0.015707   0.53498    4.3132u    ??        
 50.u      -5.f        0.55069    2.5879u    ??        
Gnucap   System status
iterations: op=0, dc=0, tran=6895, fourier=0, total=8626
transient timesteps: accepted=1652, rejected=79, total=1731
nodes: user=3, subckt=0, model=0, total=3
dctran density=77.8%, ac density=77.8%
