' a test of the delete command 
>>>>>.print op v(nodes) 
>>>>>.list 
Y1 ( 1 0 )  0.
Y2 ( 2 0 )  0.
Y3 ( 3 0 )  0.
Y4 ( 4 0 )  0.
Y5 ( 5 0 )  0.
V1 ( 1 0 )  DC  1.
R1 ( 1 2 )  1.
R2 ( 2 0 )  1.
R31 ( 2 3 )  1.
R32 ( 3 0 )  2.
L ( 3 4 )  5.
C1 ( 4 0 )  5.
C2 ( 4 5 )  5.
C3 ( 5 0 )  2.
>>>>>.op 
#           v(1)       v(2)       v(3)       v(4)       v(5)      
 27.        0.99999    0.42857    0.28571    0.28571    0.        
>>>>>.delete Q3 M* L R3* L* c* c2 r2 r* 
.delete Q3 M* L R3* L* c* c2 r2 r* 
        ^ ? no match
.delete Q3 M* L R3* L* c* c2 r2 r* 
           ^ ? no match
.delete Q3 M* L R3* L* c* c2 r2 r* 
                    ^ ? no match
.delete Q3 M* L R3* L* c* c2 r2 r* 
                          ^ ? no match
>>>>>.list 
Y1 ( 1 0 )  0.
Y2 ( 2 0 )  0.
Y3 ( 3 0 )  0.
Y4 ( 4 0 )  0.
Y5 ( 5 0 )  0.
V1 ( 1 0 )  DC  1.
>>>>>.op 
#           v(1)       v(2)       v(3)       v(4)       v(5)      
 27.        1.         0.         0.         0.         0.        
>>>>>.print op v(nodes) 
>>>>>.op 
#           v(1)       v(2)       v(3)       v(4)       v(5)      
 27.        1.         0.         0.         0.         0.        
