schmitt ckt - ecl compatible schmitt trigger 
#          
 27.       
#Time       v(1)       v(3)       v(5)       v(6)      
 0.        -1.6       -0.2597    -1.2206    -1.1106    
 20.n      -1.59      -0.25966   -1.2206    -1.1105    
 40.n      -1.57      -0.2597    -1.2206    -1.1106    
 60.n      -1.55      -0.25967   -1.2206    -1.1105    
 80.n      -1.53      -0.2597    -1.2206    -1.1106    
 100.n     -1.51      -0.25968   -1.2206    -1.1105    
 120.n     -1.49      -0.25972   -1.2206    -1.1105    
 140.n     -1.47      -0.25972   -1.2206    -1.1104    
 160.n     -1.45      -0.25981   -1.2207    -1.1103    
 180.n     -1.43      -0.25991   -1.2207    -1.11      
 200.n     -1.41      -0.26023   -1.221     -1.1093    
 220.n     -1.39      -0.26083   -1.2214    -1.1079    
 240.n     -1.37      -0.26231   -1.2224    -1.1046    
 260.n     -1.35      -0.26573   -1.2248    -1.0967    
 280.n     -1.33      -0.27605   -1.232     -1.0734    
 300.n     -1.31      -0.73191   -1.5144    -0.13179   
 320.n     -1.29      -0.76796   -1.6004    -0.041992  
 340.n     -1.27      -0.76623   -1.5944    -0.044699  
 360.n     -1.25      -0.76926   -1.5967    -0.044618  
 380.n     -1.23      -0.77279   -1.6009    -0.043308  
 400.n     -1.21      -0.77608   -1.6022    -0.044567  
 420.n     -1.2       -0.77763   -1.6037    -0.044458  
 440.n     -1.2       -0.77859   -1.6056    -0.043455  
 460.n     -1.2       -0.77748   -1.6036    -0.044409  
 480.n     -1.2       -0.77873   -1.6056    -0.043504  
 500.n     -1.2       -0.77735   -1.6035    -0.04436   
 520.n     -1.21      -0.77551   -1.6023    -0.044261  
 540.n     -1.23      -0.77379   -1.6016    -0.043639  
 560.n     -1.25      -0.76839   -1.5966    -0.044223  
 580.n     -1.27      -0.76684   -1.5959    -0.043686  
 600.n     -1.29      -0.76127   -1.591     -0.044202  
 620.n     -1.31      -0.75986   -1.5903    -0.043762  
 640.n     -1.33      -0.75412   -1.5853    -0.044262  
 660.n     -1.35      -0.75279   -1.5845    -0.044014  
 680.n     -1.37      -0.74677   -1.5794    -0.044784  
 700.n     -1.39      -0.74521   -1.5784    -0.045294  
 720.n     -1.41      -0.73811   -1.5727    -0.048049  
 740.n     -1.43      -0.73448   -1.5701    -0.053118  
 760.n     -1.45      -0.71887   -1.5585    -0.073255  
 780.n     -1.47      -0.61894   -1.4977    -0.27297   
 800.n     -1.49      -0.2577    -1.2186    -1.1086    
 820.n     -1.51      -0.25809   -1.2196    -1.1086    
 840.n     -1.53      -0.2584    -1.2204    -1.1088    
 860.n     -1.55      -0.261     -1.2207    -1.1125    
 880.n     -1.57      -0.25849   -1.2206    -1.1089    
 900.n     -1.59      -0.2609    -1.2205    -1.1124    
 920.n     -1.6       -0.26071   -1.2201    -1.1121    
 940.n     -1.6       -0.25873   -1.2212    -1.1091    
 960.n     -1.6       -0.26064   -1.2199    -1.112     
 980.n     -1.6       -0.2588    -1.2213    -1.1092    
 1.u       -1.6       -0.26057   -1.2198    -1.112     
v(3)  -2.               -1.5             -1.               -0.5              0.
v(5)  -2.               -1.5             -1.               -0.5              0.
        +-----------------+----------------+-----------------+----------------+
 0.     |                 .        +       .                 .       *        |
 20.n   |                 .        +       .                 .       *        |
 40.n   |                 .        +       .                 .       *        |
 60.n   |                 .        +       .                 .       *        |
 80.n   |                 .        +       .                 .       *        |
 100.n  |                 .        +       .                 .       *        |
 120.n  |                 .        +       .                 .       *        |
 140.n  |                 .        +       .                 .       *        |
 160.n  |                 .        +       .                 .       *        |
 180.n  |                 .        +       .                 .       *        |
 200.n  |                 .        +       .                 .       *        |
 220.n  |                 .        +       .                 .       *        |
 240.n  |                 .        +       .                 .       *        |
 260.n  |                 .        +       .                 .       *        |
 280.n  |                 .        +       .                 .      *         |
 300.n  |                +.                .        *        .                |
 320.n  |             +   .                .       *         .                |
 340.n  |             +   .                .       *         .                |
 360.n  |             +   .                .       *         .                |
 380.n  |             +   .                .       *         .                |
 400.n  |             +   .                .       *         .                |
 420.n  |             +   .                .       *         .                |
 440.n  |             +   .                .       *         .                |
 460.n  |             +   .                .       *         .                |
 480.n  |             +   .                .       *         .                |
 500.n  |             +   .                .       *         .                |
 520.n  |             +   .                .       *         .                |
 540.n  |             +   .                .       *         .                |
 560.n  |             +   .                .       *         .                |
 580.n  |             +   .                .       *         .                |
 600.n  |             +   .                .       *         .                |
 620.n  |             +   .                .       *         .                |
 640.n  |              +  .                .        *        .                |
 660.n  |              +  .                .        *        .                |
 680.n  |              +  .                .        *        .                |
 700.n  |              +  .                .        *        .                |
 720.n  |              +  .                .        *        .                |
 740.n  |              +  .                .        *        .                |
 760.n  |              +  .                .         *       .                |
 780.n  |                 +                .            *    .                |
 800.n  |                 .        +       .                 .       *        |
 820.n  |                 .        +       .                 .       *        |
 840.n  |                 .        +       .                 .       *        |
 860.n  |                 .        +       .                 .       *        |
 880.n  |                 .        +       .                 .       *        |
 900.n  |                 .        +       .                 .       *        |
 920.n  |                 .        +       .                 .       *        |
 940.n  |                 .        +       .                 .       *        |
 960.n  |                 .        +       .                 .       *        |
 980.n  |                 .        +       .                 .       *        |
 1.u    |                 .        +       .                 .       *        |
        +-----------------+----------------+-----------------+----------------+
v(6)  -2.               -1.5             -1.               -0.5              0.
v(1)  -2.               -1.5             -1.               -0.5              0.
        +-----------------+----------------+-----------------+----------------+
 0.     |             +   .            *   .                 .                |
 20.n   |             +   .            *   .                 .                |
 40.n   |              +  .            *   .                 .                |
 60.n   |               + .            *   .                 .                |
 80.n   |               + .            *   .                 .                |
 100.n  |                +.            *   .                 .                |
 120.n  |                 +            *   .                 .                |
 140.n  |                 .+           *   .                 .                |
 160.n  |                 .+           *   .                 .                |
 180.n  |                 . +          *   .                 .                |
 200.n  |                 .  +         *   .                 .                |
 220.n  |                 .  +         *   .                 .                |
 240.n  |                 .   +        *   .                 .                |
 260.n  |                 .    +        *  .                 .                |
 280.n  |                 .    +        *  .                 .                |
 300.n  |                 .     +          .                 .           *    |
 320.n  |                 .      +         .                 .               *|
 340.n  |                 .       +        .                 .              * |
 360.n  |                 .       +        .                 .              * |
 380.n  |                 .        +       .                 .              * |
 400.n  |                 .         +      .                 .              * |
 420.n  |                 .         +      .                 .              * |
 440.n  |                 .         +      .                 .              * |
 460.n  |                 .         +      .                 .              * |
 480.n  |                 .         +      .                 .              * |
 500.n  |                 .         +      .                 .              * |
 520.n  |                 .         +      .                 .              * |
 540.n  |                 .        +       .                 .              * |
 560.n  |                 .       +        .                 .              * |
 580.n  |                 .       +        .                 .              * |
 600.n  |                 .      +         .                 .              * |
 620.n  |                 .     +          .                 .              * |
 640.n  |                 .    +           .                 .              * |
 660.n  |                 .    +           .                 .              * |
 680.n  |                 .   +            .                 .              * |
 700.n  |                 .  +             .                 .              * |
 720.n  |                 .  +             .                 .              * |
 740.n  |                 . +              .                 .              * |
 760.n  |                 .+               .                 .             *  |
 780.n  |                 .+               .                 .      *         |
 800.n  |                 +            *   .                 .                |
 820.n  |                +.            *   .                 .                |
 840.n  |               + .            *   .                 .                |
 860.n  |               + .            *   .                 .                |
 880.n  |              +  .            *   .                 .                |
 900.n  |             +   .            *   .                 .                |
 920.n  |             +   .            *   .                 .                |
 940.n  |             +   .            *   .                 .                |
 960.n  |             +   .            *   .                 .                |
 980.n  |             +   .            *   .                 .                |
 1.u    |             +   .            *   .                 .                |
        +-----------------+----------------+-----------------+----------------+
Gnucap   System status
iterations: op=8, dc=0, tran=456, fourier=0, total=1604
transient timesteps: accepted=228, rejected=12, total=240
nodes: user=8, subckt=0, model=8, total=16
dctran density=48.4%, ac density=48.4%
