simple diode test 
V1 ( 1 0 ) sin offset=NA( 0.) amplitude= 10. frequency= 10.Meg delay=NA( 0.) damping=NA( 0.)  DC -10.  AC  1.
R1 ( 1 2 )  100.K
D1 ( 2 0 )  ddd  area=1.
.model ddd d ( tnom=NA( 27.) is=10.f rs=0. n=1. tt=0. cjo=1.p pb=1. mj=0.5 egap=1.11 xti=3. kf=0. af=1. fc=0.5 bv=50 ibv=0.001)
#           v(1)       v(2)       i(V1)      i(R1)      id(D1)     vd(D1)     req(D1)    cd(D1)     z(D1)      zraw(D1)   gd(D1)     z(2)      
 0.         0.         0.         0.         0.         0.         0.         Inf        0.         NaN        NaN        0.         NaN       
-1.        -10.       -10.        0.        -13.866p   -3.8663p   -10.        2.586E+12  1.p        100.K      100.K      386.64f    100.K     
-2.        -10.       -10.        0.        -10.01p    -10.f      -10.        Inf        301.51f    100.K      100.K      0.         100.K     
-3.        -10.       -10.        0.        -10.01p    -10.f      -10.        2.119E180  301.51f    100.K      100.K      0.         100.K     
-4.        -10.       -10.        0.        -10.01p    -10.f      -10.        2.119E180  301.51f    100.K      100.K      0.         100.K     
 27.       -10.       -10.        0.        -10.01p    -10.f      -10.        2.119E180  301.51f    100.K      100.K      0.         100.K     
#Freq       vr(2)      vi(2)     
 10.        1.        -1.8945u   
 100.       1.        -18.945u   
 1.K        1.        -189.45u   
 10.K       1.        -0.0018944 
 100.K      0.99964   -0.018938  
 1.Meg      0.96535   -0.18288   
 10.Meg     0.21791   -0.41283   
 100.Meg    0.0027786 -0.052639  
 1.G        27.863u   -0.0052784 
#           v(1)       v(2)       i(V1)      i(R1)      id(D1)     vd(D1)     req(D1)    cd(D1)     z(D1)      zraw(D1)   gd(D1)     z(2)       iter(0)   
-10.       -10.       -10.        0.        -10.01p    -10.f      -10.        2.119E180  301.51f    100.K      100.K      0.         100.K      5.        
-8.        -8.        -8.         0.        -8.01p     -10.f      -8.         553.9E144  333.33f    100.K      100.K      0.         100.K      4.        
-6.        -6.        -6.         0.        -6.01p     -10.f      -6.         144.8E111  377.96f    100.K      100.K      0.         100.K      4.        
-4.        -4.        -4.         0.        -4.01p     -10.f      -4.         37.85E+78  447.21f    100.K      100.K      0.         100.K      4.        
-2.        -2.        -2.         0.        -2.01p     -10.f      -2.         9.894E+45  577.35f    100.K      100.K      0.         100.K      4.        
 0.         0.         0.         0.         0.         0.         0.         2.586E+12  1.p        100.K      100.K      386.64f    100.K      5.        
#Freq       vr(2)      vi(2)     
 10.        1.        -6.2832u   
 100.       1.        -62.832u   
 1.K        1.        -628.32u   
 10.K       0.99996   -0.0062829 
 100.K      0.99607   -0.062585  
 1.Meg      0.71696   -0.45048   
 10.Meg     0.024705  -0.15522   
 100.Meg    253.24u   -0.015911  
 1.G        2.533u    -0.0015915 
v(1)  -10.                   -5.                    0.                     5.                   10.
v(2)  -10.                   -5.                    0.                     5.                   10.
        +----------------------+---------------------+----------------------+---------------------+
 0.     |                      .                     *                      .                     |
 5.n    |                      .                     +             *        .                     |
 10.n   |                      .                     .+                     .  *                  |
 15.n   |                      .                     . +                    .            *        |
 20.n   |                      .                     .  +                   .                   * |
 25.n   |                      .                     .  +                   .                     *
 30.n   |                      .                     .  +                   .                   * |
 35.n   |                      .                     .  +                   .            *        |
 40.n   |                      .                     .  +                   .  *                  |
 45.n   |                      .                     .  +          *        .                     |
 50.n   |                      .                     * +                    .                     |
 55.n   |                      .       *             . +                    .                     |
 60.n   |                  *   .                     .+                     .                     |
 65.n   |        *             .                     +                      .                     |
 70.n   | *                    .                  +  .                      .                     |
 75.n   *                      .                +    .                      .                     |
 80.n   | *                    .             +       .                      .                     |
 85.n   |        *             .          +          .                      .                     |
 90.n   |                  *   .        +            .                      .                     |
 95.n   |                      .       *+            .                      .                     |
 100.n  |                      .        +            *                      .                     |
 105.n  |                      .          +          .             *        .                     |
 110.n  |                      .             +       .                      .  *                  |
 115.n  |                      .                +    .                      .            *        |
 120.n  |                      .                   + .                      .                   * |
 125.n  |                      .                     +                      .                     *
 130.n  |                      .                     . +                    .                   * |
 135.n  |                      .                     .  +                   .            *        |
 140.n  |                      .                     .  +                   .  *                  |
 145.n  |                      .                     .  +          *        .                     |
 150.n  |                      .                     * +                    .                     |
 155.n  |                      .       *             . +                    .                     |
 160.n  |                  *   .                     .+                     .                     |
 165.n  |        *             .                     +                      .                     |
 170.n  | *                    .                  +  .                      .                     |
 175.n  *                      .                +    .                      .                     |
 180.n  | *                    .             +       .                      .                     |
 185.n  |        *             .          +          .                      .                     |
 190.n  |                  *   .        +            .                      .                     |
 195.n  |                      .       *+            .                      .                     |
        +----------------------+---------------------+----------------------+---------------------+
#Freq       vr(2)      vi(2)     
 10.        1.        -3.1457u   
 100.       1.        -31.457u   
 1.K        1.        -314.57u   
 10.K       0.99999   -0.0031457 
 100.K      0.99901   -0.031426  
 1.Meg      0.90996   -0.28625   
 10.Meg     0.091781  -0.28872   
 100.Meg    0.0010095 -0.031757  
 1.G        10.106u   -0.0031789 
v(1)  -10.                   -5.                    0.                     5.                   10.
v(2)  -10.                   -5.                    0.                     5.                   10.
        +----------------------+---------------------+----------------------+---------------------+
 0.     |                      .                     *                      .                     |
 5.n    |                      .                     +             *        .                     |
 10.n   |                      .                     .+                     .  *                  |
 15.n   |                      .                     . +                    .            *        |
 20.n   |                      .                     .  +                   .                   * |
 25.n   |                      .                     .  +                   .                     *
 30.n   |                      .                     .  +                   .                   * |
 35.n   |                      .                     .  +                   .            *        |
 40.n   |                      .                     .  +                   .  *                  |
 45.n   |                      .                     .  +          *        .                     |
 50.n   |                      .                     * +                    .                     |
 55.n   |                      .       *             . +                    .                     |
 60.n   |                  *   .                     .+                     .                     |
 65.n   |        *             .                     +                      .                     |
 70.n   | *                    .                  +  .                      .                     |
 75.n   *                      .                +    .                      .                     |
 80.n   | *                    .             +       .                      .                     |
 85.n   |        *             .          +          .                      .                     |
 90.n   |                  *   .        +            .                      .                     |
 95.n   |                      .       *+            .                      .                     |
 100.n  |                      .        +            *                      .                     |
 105.n  |                      .          +          .             *        .                     |
 110.n  |                      .             +       .                      .  *                  |
 115.n  |                      .                +    .                      .            *        |
 120.n  |                      .                   + .                      .                   * |
 125.n  |                      .                     +                      .                     *
 130.n  |                      .                     . +                    .                   * |
 135.n  |                      .                     .  +                   .            *        |
 140.n  |                      .                     .  +                   .  *                  |
 145.n  |                      .                     .  +          *        .                     |
 150.n  |                      .                     * +                    .                     |
 155.n  |                      .       *             . +                    .                     |
 160.n  |                  *   .                     .+                     .                     |
 165.n  |        *             .                     +                      .                     |
        +----------------------+---------------------+----------------------+---------------------+
#Freq       vr(2)      vi(2)     
 10.        1.        -6.02u     
 100.       1.        -60.2u     
 1.K        1.        -602.u     
 10.K       0.99996   -0.0060197 
 100.K      0.99639   -0.059982  
 1.Meg      0.734     -0.44186   
 10.Meg     0.026853  -0.16165   
 100.Meg    275.86u   -0.016607  
 1.G        2.7594u   -0.0016611 
v(1)  -10.                   -5.                    0.                     5.                   10.
v(2)  -10.                   -5.                    0.                     5.                   10.
        +----------------------+---------------------+----------------------+---------------------+
 0.     |                      .                     *                      .                     |
 5.n    |                      .                     +             *        .                     |
 10.n   |                      .                     .+                     .  *                  |
 15.n   |                      .                     . +                    .            *        |
 20.n   |                      .                     .  +                   .                   * |
 25.n   |                      .                     .  +                   .                     *
 30.n   |                      .                     .  +                   .                   * |
 35.n   |                      .                     .  +                   .            *        |
 40.n   |                      .                     .  +                   .  *                  |
 45.n   |                      .                     .  +          *        .                     |
 50.n   |                      .                     * +                    .                     |
 55.n   |                      .       *             . +                    .                     |
 60.n   |                  *   .                     .+                     .                     |
 65.n   |        *             .                     +                      .                     |
 70.n   | *                    .                  +  .                      .                     |
 75.n   *                      .                +    .                      .                     |
 80.n   | *                    .             +       .                      .                     |
 85.n   |        *             .          +          .                      .                     |
 90.n   |                  *   .        +            .                      .                     |
 95.n   |                      .       *+            .                      .                     |
 100.n  |                      .        +            *                      .                     |
 105.n  |                      .          +          .             *        .                     |
 110.n  |                      .             +       .                      .  *                  |
 115.n  |                      .                +    .                      .            *        |
 120.n  |                      .                   + .                      .                   * |
 125.n  |                      .                     +                      .                     *
 130.n  |                      .                     . +                    .                   * |
 135.n  |                      .                     .  +                   .            *        |
        +----------------------+---------------------+----------------------+---------------------+
#Freq       vr(2)      vi(2)     
 10.        0.003583  -124.p     
 100.       0.003583  -1.24n     
 1.K        0.003583  -12.4n     
 10.K       0.003583  -124.n     
 100.K      0.003583  -1.24u     
 1.Meg      0.003583  -12.4u     
 10.Meg     0.0035788 -123.86u   
 100.Meg    0.0031998 -0.0011074 
 1.G        276.09u   -955.53u   
v(1)  -10.                   -5.                    0.                     5.                   10.
v(2)  -10.                   -5.                    0.                     5.                   10.
        +----------------------+---------------------+----------------------+---------------------+
 0.     |                      .                     *                      .                     |
 5.n    |                      .                     +             *        .                     |
 10.n   |                      .                     .+                     .  *                  |
 15.n   |                      .                     . +                    .            *        |
 20.n   |                      .                     .  +                   .                   * |
 25.n   |                      .                     .  +                   .                     *
 30.n   |                      .                     .  +                   .                   * |
 35.n   |                      .                     .  +                   .            *        |
 40.n   |                      .                     .  +                   .  *                  |
 45.n   |                      .                     .  +          *        .                     |
 50.n   |                      .                     * +                    .                     |
 55.n   |                      .       *             . +                    .                     |
 60.n   |                  *   .                     .+                     .                     |
 65.n   |        *             .                     +                      .                     |
 70.n   | *                    .                  +  .                      .                     |
 75.n   *                      .                +    .                      .                     |
 80.n   | *                    .             +       .                      .                     |
 85.n   |        *             .          +          .                      .                     |
 90.n   |                  *   .        +            .                      .                     |
 95.n   |                      .       *+            .                      .                     |
 100.n  |                      .        +            *                      .                     |
 105.n  |                      .          +          .             *        .                     |
 110.n  |                      .             +       .                      .  *                  |
 115.n  |                      .                +    .                      .            *        |
 120.n  |                      .                   + .                      .                   * |
 125.n  |                      .                     +                      .                     *
        +----------------------+---------------------+----------------------+---------------------+
#Freq       vr(2)      vi(2)     
 10.        1.        -6.3194u   
 100.       1.        -63.194u   
 1.K        1.        -631.94u   
 10.K       0.99996   -0.0063192 
 100.K      0.99602   -0.062943  
 1.Meg      0.71462   -0.4516    
 10.Meg     0.024429  -0.15438   
 100.Meg    250.34u   -0.01582   
 1.G        2.504u    -0.0015824 
Gnucap   System status
iterations: op=5, dc=26, tran=294, fourier=0, total=1933
transient timesteps: accepted=268, rejected=6, total=274
nodes: user=2, subckt=0, model=0, total=2
dctran density=100.0%, ac density=100.0%
