' 
#Time       v(1)       v(2)       v(3)       q(C1)      q(C2)      dq(C1)     dq(C2)     dqdt(C1)   dqdt(C2)   i(C1)      i(C2)      timef(C1)  timef(C2) 
 0.         0.         0.         0.         0.         0.         0.         0.         0.         0.         0.         0.         Inf        Inf       
 400.p      101.f     -251.32u   -251.32u    100.53f    100.53f    100.53f    100.53f    251.32u    251.32u    251.32u    251.32u    3.7424n    3.7424n   
 1.6n       854.f     -0.0010052 -0.0010052  854.45f    854.45f    753.92f    753.92f    628.27u    628.27u    0.0010052  0.0010052  2.9352n    2.9352n   
 2.8n       2.513p    -0.001759  -0.001759   2.513p     2.513p     1.6586p    1.6586p    0.0013821  0.0013821  0.001759   0.001759   4.5092n    4.5092n   
 4.n        5.076p    -0.0025128 -0.0025128  5.0761p    5.0761p    2.5631p    2.5631p    0.0021359  0.0021359  0.0025128  0.0025128  27.735n    27.735n   
 27.7n      240.81p   -0.01738   -0.01738    240.81p    240.81p    235.73p    235.73p    0.0099466  0.0099466  0.01738    0.01738    88.549n    88.549n   
 88.5n      2.4521n   -0.055361  -0.055361   2.4521n    2.4521n    2.2113n    2.2113n    0.036371   0.036371   0.055361   0.055361   233.28n    233.28n   
 233.3n     16.95n    -0.14489   -0.14489    16.95n     16.95n     14.498n    14.498n    0.10013    0.10013    0.14489    0.14489    508.33n    508.33n   
 508.3n     79.691n   -0.31141   -0.31141    79.691n    79.691n    62.741n    62.741n    0.22815    0.22815    0.31141    0.31141    979.17n    979.17n   
 979.2n     291.02n   -0.58615   -0.58615    291.02n    291.02n    211.33n    211.33n    0.44878    0.44878    0.58615    0.58615    1.7133u    1.7133u   
 1.7133u    869.38n   -0.98956   -0.98956    869.38n    869.38n    578.36n    578.36n    0.78785    0.78785    0.98956    0.98956    2.7909u    2.7909u   
 2.4474u    1.7334u   -1.3644    -1.3644     1.7334u    1.7334u    864.02n    864.02n    1.177      1.177      1.3644     1.3644     3.8697u    3.8697u   
 3.8697u    4.1385u   -2.0176    -2.0176     4.1385u    4.1385u    2.4051u    2.4051u    1.691      1.691      2.0176     2.0176     5.7144u    5.7144u   
 5.292u     7.4109u   -2.584     -2.584      7.4109u    7.4109u    3.2724u    3.2724u    2.3008     2.3008     2.584      2.584      7.784u     7.784u    
 7.784u     14.871u   -3.4037    -3.4037     14.871u    14.871u    7.4606u    7.4606u    2.9938     2.9938     3.4037     3.4037     10.884u    10.884u   
 10.276u    24.148u   -4.0418    -4.0418     24.148u    24.148u    9.277u     9.277u     3.7227     3.7227     4.0418     4.0418     14.403u    14.403u   
 14.403u    42.411u   -4.8085    -4.8085     42.411u    42.411u    18.262u    18.262u    4.4251     4.4251     4.8085     4.8085     19.531u    19.531u   
 18.53u     63.296u   -5.313     -5.313      63.296u    63.296u    20.885u    20.885u    5.0608     5.0608     5.313      5.313      25.42u     25.42u    
 25.419u    101.61u   -5.8102    -5.8102     101.61u    101.61u    38.317u    38.317u    5.5616     5.5616     5.8102     5.8102     34.225u    34.225u   
 32.309u    142.48u   -6.0526    -6.0526     142.48u    142.48u    40.865u    40.865u    5.9314     5.9314     6.0526     6.0526     44.733u    44.733u   
 44.732u    218.77u   -6.2293    -6.2293     218.77u    218.77u    76.289u    76.289u    6.1409     6.1409     6.2293     6.2293     61.855u    61.855u   
 57.155u    296.41u   -6.2706    -6.2706     296.41u    296.41u    77.643u    77.643u    6.2499     6.2499     6.2706     6.2706     84.468u    84.468u   
 84.462u    467.84u   -6.2851    -6.2851     467.84u    467.84u    171.43u    171.43u    6.2779     6.2779     6.2851     6.2851     129.72u    129.72u   
 129.71u    752.19u   -6.2824    -6.2824     752.19u    752.19u    284.35u    284.35u    6.2838     6.2838     6.2824     6.2824     242.66u    242.66u   
 242.56u    0.0014612 -6.2837    -6.2837     0.0014612  0.0014612  709.03u    709.03u    6.2831     6.2831     6.2837     6.2837     595.73u    595.73u   
 595.06u    0.003676  -6.2827    -6.2827     0.003676   0.003676   0.0022148  0.0022148  6.2832     6.2832     6.2827     6.2827     0.002361   0.002361  
 0.002339   0.014633  -6.2831    -6.2831     0.014633   0.014633   0.010957   0.010957   6.2829     6.2829     6.2831     6.2831     0.01266    0.01266   
 0.012105   0.075923  -6.2684    -6.2684     0.075923   0.075923   0.06129    0.06129    6.2757     6.2757     6.2684     6.2684     0.041963   0.041963  
 0.041403   0.25716   -6.1035    -6.1035     0.25716    0.25716    0.18124    0.18124    6.1859     6.1859     6.1035     6.1035     0.085798   0.085798  
 0.060936   0.37353   -5.8118    -5.8118     0.37353    0.37353    0.11637    0.11637    5.9576     5.9576     5.8118     5.8118     0.11146    0.11146   
 0.1        0.58773   -5.1551    -5.1551     0.58773    0.58773    0.21421    0.21421    5.4835     5.4835     5.1551     5.1551     0.15959    0.15959   
 0.15       0.80898   -3.6948    -3.6948     0.80898    0.80898    0.22125    0.22125    4.4249     4.4249     3.6948     3.6948     0.2187     0.2187    
 0.2        0.95104   -1.9875    -1.9875     0.95104    0.95104    0.14206    0.14206    2.8411     2.8411     1.9875     1.9875     0.27766    0.27766   
 0.25       1.         0.028945   0.028945   1.         1.         0.048964   0.048964   0.97927    0.97927   -0.028945  -0.028945   0.34107    0.34107   
 0.3        0.95108    1.928      1.928      0.95108    0.95108   -0.048924  -0.048924  -0.97849   -0.97849   -1.928     -1.928      0.42986    0.42986   
 0.4        0.58784    5.3367     5.3367     0.58784    0.58784   -0.36324   -0.36324   -3.6324    -3.6324    -5.3367    -5.3367     0.51221    0.51221   
 0.5        64.188u    6.4188     6.4188     64.188u    64.188u   -0.58777   -0.58777   -5.8777    -5.8777    -6.4188    -6.4188     0.56827    0.56827   
 0.55      -0.30896    5.9421     5.9421    -0.30896   -0.30896   -0.30902   -0.30902   -6.1804    -6.1804    -5.9421    -5.9421     0.59897    0.59897   
 0.6       -0.58773    5.2089     5.2089    -0.58773   -0.58773   -0.27878   -0.27878   -5.5755    -5.5755    -5.2089    -5.2089     0.65887    0.65887   
 0.65      -0.80898    3.641      3.641     -0.80898   -0.80898   -0.22125   -0.22125   -4.4249    -4.4249    -3.641     -3.641      0.71778    0.71778   
 0.7       -0.95104    2.0413     2.0413    -0.95104   -0.95104   -0.14206   -0.14206   -2.8411    -2.8411    -2.0413    -2.0413     0.77725    0.77725   
 0.75      -1.        -0.082668  -0.082668  -1.        -1.        -0.048965  -0.048965  -0.97929   -0.97929    0.082668   0.082668   0.84108    0.84108   
 0.8       -0.95108   -1.8744    -1.8744    -0.95108   -0.95108    0.048926   0.048926   0.97851    0.97851    1.8744     1.8744     0.92982    0.92982   
 0.9       -0.58784   -5.3904    -5.3904    -0.58784   -0.58784    0.36324    0.36324    3.6324     3.6324     5.3904     5.3904     1.0122     1.0122    
 1.        -63.651u   -6.3651    -6.3651    -63.651u   -63.651u    0.58778    0.58778    5.8778     5.8778     6.3651     6.3651     1.0683     1.0683    
#Time       v(1)       v(2)       v(3)       q(C1)      q(C2)      dq(C1)     dq(C2)     dqdt(C1)   dqdt(C2)   i(C1)      i(C2)      timef(C1)  timef(C2) 
 0.         0.         0.         0.         0.         0.         0.         0.         0.         0.         0.         0.         Inf        Inf       
 0.001      0.0062209 -6.2209    -6.2209     0.0062209  0.0062209  0.0062209  0.0062209  6.2209     6.2209     6.2209     6.2209     120.n      120.n     
 120.n      8.9405n   -0.074504  -0.074504   8.9405n    8.9405n    8.9405n    8.9405n    0.074504   0.074504   0.074504   0.074504   100.p      100.p     
 200.p      25.f      -125.66u   -125.66u    25.132f    25.132f    25.132f    25.132f    125.66u    125.66u    125.66u    125.66u    1.1549n    1.1549n   
 1.2n       465.f     -753.94u   -753.94u    464.93f    464.93f    439.8f     439.8f     439.8u     439.8u     753.94u    753.94u    678.75p    678.75p   
 700.p      166.f     -439.81u   -439.81u    166.5f     166.5f     141.37f    141.37f    282.73u    282.73u    439.81u    439.81u    1.2171n    1.2171n   
 1.2n       465.f     -753.94u   -753.94u    464.93f    464.93f    298.44f    298.44f    596.87u    596.87u    753.94u    753.94u    1.8443n    1.8443n   
 1.7n       920.f     -0.001068  -0.001068   920.43f    920.43f    455.5f     455.5f     910.99u    910.99u    0.001068   0.001068   14.107n    14.107n   
 14.1n      62.431p   -0.008853  -0.008853   62.431p    62.431p    61.511p    61.511p    0.0049605  0.0049605  0.008853   0.008853   25.079n    25.079n   
 26.5n      220.42p   -0.016628  -0.016628   220.42p    220.42p    157.98p    157.98p    0.012741   0.012741   0.016628   0.016628   40.073n    40.073n   
 38.9n      474.76p   -0.024394  -0.024394   474.76p    474.76p    254.34p    254.34p    0.020511   0.020511   0.024394   0.024394   51.315n    51.315n   
 51.3n      825.33p   -0.03215   -0.03215    825.33p    825.33p    350.57p    350.57p    0.028272   0.028272   0.03215    0.03215    63.721n    63.721n   
 63.7n      1.272n    -0.039897  -0.039897   1.272n     1.272n     446.69p    446.69p    0.036023   0.036023   0.039897   0.039897   77.163n    77.163n   
 76.1n      1.8147n   -0.047634  -0.047634   1.8147n    1.8147n    542.69p    542.69p    0.043765   0.043765   0.047634   0.047634   91.262n    91.262n   
 88.5n      2.4533n   -0.055361  -0.055361   2.4533n    2.4533n    638.57p    638.57p    0.051497   0.051497   0.055361   0.055361   105.27n    105.27n   
 100.9n     3.1876n   -0.063079  -0.063079   3.1876n    3.1876n    734.32p    734.32p    0.05922    0.05922    0.063079   0.063079   119.21n    119.21n   
 113.3n     4.0176n   -0.070787  -0.070787   4.0176n    4.0176n    829.96p    829.96p    0.066933   0.066933   0.070787   0.070787   133.09n    133.09n   
 133.1n     5.5408n   -0.083075  -0.083075   5.5408n    5.5408n    1.5232n    1.5232n    0.076931   0.076931   0.083075   0.083075   154.56n    154.56n   
 152.9n     7.3071n   -0.095339  -0.095339   7.3071n    7.3071n    1.7663n    1.7663n    0.089207   0.089207   0.095339   0.095339   177.68n    177.68n   
 172.7n     9.316n    -0.10758   -0.10758    9.316n     9.316n     2.0089n    2.0089n    0.10146    0.10146    0.10758    0.10758    198.93n    198.93n   
 192.5n     11.567n   -0.11979   -0.11979    11.567n    11.567n    2.251n     2.251n     0.11369    0.11369    0.11979    0.11979    220.71n    220.71n   
 212.3n     14.06n    -0.13199   -0.13199    14.06n     14.06n     2.4926n    2.4926n    0.12589    0.12589    0.13199    0.13199    242.43n    242.43n   
 242.4n     18.311n   -0.15047   -0.15047    18.311n    18.311n    4.251n     4.251n     0.14123    0.14123    0.15047    0.15047    274.56n    274.56n   
 272.5n     23.117n   -0.16891   -0.16891    23.117n    23.117n    4.8066n    4.8066n    0.15969    0.15969    0.16891    0.16891    308.92n    308.92n   
 302.6n     28.478n   -0.18728   -0.18728    28.478n    28.478n    5.3606n    5.3606n    0.17809    0.17809    0.18728    0.18728    340.81n    340.81n   
 332.7n     34.391n   -0.2056    -0.2056     34.391n    34.391n    5.9129n    5.9129n    0.19644    0.19644    0.2056     0.2056     373.44n    373.44n   
 362.8n     40.854n   -0.22387   -0.22387    40.854n    40.854n    6.4635n    6.4635n    0.21474    0.21474    0.22387    0.22387    405.99n    405.99n   
 392.9n     47.867n   -0.24208   -0.24208    47.867n    47.867n    7.0125n    7.0125n    0.23297    0.23297    0.24208    0.24208    438.47n    438.47n   
 438.5n     59.532n   -0.26956   -0.26956    59.532n    59.532n    11.665n    11.665n    0.25582    0.25582    0.26956    0.26956    486.43n    486.43n   
 484.1n     72.448n   -0.29692   -0.29692    72.448n    72.448n    12.916n    12.916n    0.28324    0.28324    0.29692    0.29692    537.72n    537.72n   
 529.7n     86.609n   -0.32416   -0.32416    86.609n    86.609n    14.161n    14.161n    0.31054    0.31054    0.32416    0.32416    585.44n    585.44n   
 575.3n     102.01n   -0.35127   -0.35127    102.01n    102.01n    15.4n      15.4n      0.33772    0.33772    0.35127    0.35127    634.26n    634.26n   
 620.9n     118.64n   -0.37826   -0.37826    118.64n    118.64n    16.633n    16.633n    0.36476    0.36476    0.37826    0.37826    683.n      683.n     
 666.5n     136.5n    -0.40512   -0.40512    136.5n     136.5n     17.861n    17.861n    0.39169    0.39169    0.40512    0.40512    731.67n    731.67n   
 712.1n     155.59n   -0.43187   -0.43187    155.59n    155.59n    19.083n    19.083n    0.4185     0.4185     0.43187    0.43187    780.28n    780.28n   
 757.7n     175.89n   -0.45849   -0.45849    175.89n    175.89n    20.3n      20.3n      0.44518    0.44518    0.45849    0.45849    828.83n    828.83n   
 828.8n     209.95n   -0.49976   -0.49976    209.95n    209.95n    34.066n    34.066n    0.47912    0.47912    0.49976    0.49976    902.52n    902.52n   
 899.9n     246.94n   -0.54073   -0.54073    246.94n    246.94n    36.989n    36.989n    0.52024    0.52024    0.54073    0.54073    981.75n    981.75n   
 971.n      286.83n   -0.58141   -0.58141    286.83n    286.83n    39.892n    39.892n    0.56107    0.56107    0.58141    0.58141    1.0552u    1.0552u   
 1.0421u    329.61n   -0.62181   -0.62181    329.61n    329.61n    42.775n    42.775n    0.60161    0.60161    0.62181    0.62181    1.1305u    1.1305u   
 1.1132u    375.24n   -0.66192   -0.66192    375.24n    375.24n    45.637n    45.637n    0.64186    0.64186    0.66192    0.66192    1.2057u    1.2057u   
 1.1843u    423.72n   -0.70175   -0.70175    423.72n    423.72n    48.478n    48.478n    0.68183    0.68183    0.70175    0.70175    1.2809u    1.2809u   
 1.2554u    475.02n   -0.74129   -0.74129    475.02n    475.02n    51.3n      51.3n      0.72152    0.72152    0.74129    0.74129    1.356u     1.356u    
 1.3265u    529.12n   -0.78055   -0.78055    529.12n    529.12n    54.101n    54.101n    0.76092    0.76092    0.78055    0.78055    1.431u     1.431u    
 1.3976u    586.01n   -0.81954   -0.81954    586.01n    586.01n    56.883n    56.883n    0.80004    0.80004    0.81954    0.81954    1.506u     1.506u    
 1.506u     678.04n   -0.87844   -0.87844    678.04n    678.04n    92.031n    92.031n    0.84899    0.84899    0.87844    0.87844    1.6174u    1.6174u   
 1.6144u    776.42n   -0.93672   -0.93672    776.42n    776.42n    98.382n    98.382n    0.90758    0.90758    0.93672    0.93672    1.7369u    1.7369u   
 1.7228u    881.08n   -0.99436   -0.99436    881.08n    881.08n    104.66n    104.66n    0.96554    0.96554    0.99436    0.99436    1.8481u    1.8481u   
 1.8312u    991.96n   -1.0514    -1.0514     991.96n    991.96n    110.88n    110.88n    1.0229     1.0229     1.0514     1.0514     1.962u     1.962u    
 1.9396u    1.109u    -1.1078    -1.1078     1.109u     1.109u     117.03n    117.03n    1.0796     1.0796     1.1078     1.1078     2.0759u    2.0759u   
 2.048u     1.2321u   -1.1636    -1.1636     1.2321u    1.2321u    123.11n    123.11n    1.1357     1.1357     1.1636     1.1636     2.1896u    2.1896u   
 2.1564u    1.3612u   -1.2188    -1.2188     1.3612u    1.3612u    129.12n    129.12n    1.1912     1.1912     1.2188     1.2188     2.3033u    2.3033u   
 2.2648u    1.4963u   -1.2734    -1.2734     1.4963u    1.4963u    135.08n    135.08n    1.2461     1.2461     1.2734     1.2734     2.417u     2.417u    
 2.3732u    1.6373u   -1.3274    -1.3274     1.6373u    1.6373u    140.96n    140.96n    1.3004     1.3004     1.3274     1.3274     2.5306u    2.5306u   
 2.4816u    1.784u    -1.3808    -1.3808     1.784u     1.784u     146.79n    146.79n    1.3541     1.3541     1.3808     1.3808     2.6442u    2.6442u   
 2.59u      1.9366u   -1.4337    -1.4337     1.9366u    1.9366u    152.55n    152.55n    1.4073     1.4073     1.4337     1.4337     2.7577u    2.7577u   
 2.7577u    2.1838u   -1.5143    -1.5143     2.1838u    2.1838u    247.19n    247.19n    1.474      1.474      1.5143     1.5143     2.9287u    2.9287u   
 2.9254u    2.4444u   -1.5936    -1.5936     2.4444u    2.4444u    260.6n     260.6n     1.554      1.554      1.5936     1.5936     3.1126u    3.1126u   
 3.0931u    2.7182u   -1.6716    -1.6716     2.7182u    2.7182u    273.79n    273.79n    1.6326     1.6326     1.6716     1.6716     3.2834u    3.2834u   
 3.2608u    3.0049u   -1.7483    -1.7483     3.0049u    3.0049u    286.76n    286.76n    1.71       1.71       1.7483     1.7483     3.4587u    3.4587u   
 3.4285u    3.3045u   -1.8237    -1.8237     3.3045u    3.3045u    299.52n    299.52n    1.786      1.786      1.8237     1.8237     3.6339u    3.6339u   
 3.5962u    3.6165u   -1.8979    -1.8979     3.6165u    3.6165u    312.06n    312.06n    1.8608     1.8608     1.8979     1.8979     3.8091u    3.8091u   
 3.7639u    3.9409u   -1.9708    -1.9708     3.9409u    3.9409u    324.39n    324.39n    1.9344     1.9344     1.9708     1.9708     3.9842u    3.9842u   
 3.9316u    4.2774u   -2.0426    -2.0426     4.2774u    4.2774u    336.52n    336.52n    2.0067     2.0067     2.0426     2.0426     4.1593u    4.1593u   
 4.0993u    4.6259u   -2.1131    -2.1131     4.6259u    4.6259u    348.45n    348.45n    2.0778     2.0778     2.1131     2.1131     4.3343u    4.3343u   
 4.267u     4.9861u   -2.1824    -2.1824     4.9861u    4.9861u    360.18n    360.18n    2.1478     2.1478     2.1824     2.1824     4.5093u    4.5093u   
 4.4347u    5.3578u   -2.2506    -2.2506     5.3578u    5.3578u    371.71n    371.71n    2.2165     2.2165     2.2506     2.2506     4.6843u    4.6843u   
 4.6024u    5.7408u   -2.3177    -2.3177     5.7408u    5.7408u    383.05n    383.05n    2.2842     2.2842     2.3177     2.3177     4.8592u    4.8592u   
 4.8592u    6.3489u   -2.4182    -2.4182     6.3489u    6.3489u    608.09n    608.09n    2.368      2.368      2.4182     2.4182     5.1203u    5.1203u   
 5.116u     6.9825u   -2.5162    -2.5162     6.9825u    6.9825u    633.58n    633.58n    2.4672     2.4672     2.5162     2.5162     5.4004u    5.4004u   
 5.3728u    7.6409u   -2.6117    -2.6117     7.6409u    7.6409u    658.43n    658.43n    2.564      2.564      2.6117     2.6117     5.6613u    5.6613u   
 5.6296u    8.3236u   -2.7048    -2.7048     8.3236u    8.3236u    682.65n    682.65n    2.6583     2.6583     2.7048     2.7048     5.929u     5.929u    
 5.8864u    9.0298u   -2.7956    -2.7956     9.0298u    9.0298u    706.25n    706.25n    2.7502     2.7502     2.7956     2.7956     6.1967u    6.1967u   
 6.1432u    9.7591u   -2.884     -2.884      9.7591u    9.7591u    729.25n    729.25n    2.8398     2.8398     2.884      2.884      6.4644u    6.4644u   
 6.4u       10.511u   -2.9702    -2.9702     10.511u    10.511u    751.67n    751.67n    2.9271     2.9271     2.9702     2.9702     6.7321u    6.7321u   
 6.6568u    11.284u   -3.0542    -3.0542     11.284u    11.284u    773.52n    773.52n    3.0122     3.0122     3.0542     3.0542     6.9998u    6.9998u   
 6.9136u    12.079u   -3.136     -3.136      12.079u    12.079u    794.82n    794.82n    3.0951     3.0951     3.136      3.136      7.2675u    7.2675u   
 7.1704u    12.895u   -3.2158    -3.2158     12.895u    12.895u    815.58n    815.58n    3.1759     3.1759     3.2158     3.2158     7.5352u    7.5352u   
 7.4272u    13.73u    -3.2936    -3.2936     13.73u     13.73u     835.81n    835.81n    3.2547     3.2547     3.2936     3.2936     7.8029u    7.8029u   
 7.684u     14.586u   -3.3694    -3.3694     14.586u    14.586u    855.53n    855.53n    3.3315     3.3315     3.3694     3.3694     8.0706u    8.0706u   
 8.0706u    15.91u    -3.4799    -3.4799     15.91u     15.91u     1.324u     1.324u     3.4247     3.4247     3.4799     3.4799     8.4636u    8.4636u   
 8.4572u    17.276u   -3.5862    -3.5862     17.276u    17.276u    1.3659u    1.3659u    3.5331     3.5331     3.5862     3.5862     8.8843u    8.8843u   
 8.8438u    18.682u   -3.6885    -3.6885     18.682u    18.682u    1.4062u    1.4062u    3.6374     3.6374     3.6885     3.6885     9.2773u    9.2773u   
 9.2304u    20.127u   -3.7869    -3.7869     20.127u    20.127u    1.445u     1.445u     3.7377     3.7377     3.7869     3.7869     9.6806u    9.6806u   
 9.617u     21.609u   -3.8816    -3.8816     21.609u    21.609u    1.4823u    1.4823u    3.8343     3.8343     3.8816     3.8816     10.084u    10.084u   
 10.004u    23.128u   -3.9727    -3.9727     23.128u    23.128u    1.5182u    1.5182u    3.9271     3.9271     3.9727     3.9727     10.487u    10.487u   
 10.39u     24.68u    -4.0603    -4.0603     24.68u     24.68u     1.5528u    1.5528u    4.0165     4.0165     4.0603     4.0603     10.891u    10.891u   
 10.777u    26.266u   -4.1446    -4.1446     26.266u    26.266u    1.586u     1.586u     4.1025     4.1025     4.1446     4.1446     11.295u    11.295u   
 11.163u    27.884u   -4.2257    -4.2257     27.884u    27.884u    1.618u     1.618u     4.1852     4.1852     4.2257     4.2257     11.699u    11.699u   
 11.55u     29.533u   -4.3038    -4.3038     29.533u    29.533u    1.6488u    1.6488u    4.2647     4.2647     4.3038     4.3038     12.103u    12.103u   
 11.937u    31.212u   -4.3788    -4.3788     31.212u    31.212u    1.6783u    1.6783u    4.3413     4.3413     4.3788     4.3788     12.507u    12.507u   
 12.323u    32.918u   -4.4511    -4.4511     32.918u    32.918u    1.7068u    1.7068u    4.4149     4.4149     4.4511     4.4511     12.911u    12.911u   
 12.911u    35.566u   -4.5557    -4.5557     35.566u    35.566u    2.648u     2.648u     4.5034     4.5034     4.5557     4.5557     13.51u     13.51u    
 13.499u    38.274u   -4.6544    -4.6544     38.274u    38.274u    2.7078u    2.7078u    4.6051     4.6051     4.6544     4.6544     14.152u    14.152u   
 14.087u    41.038u   -4.7474    -4.7474     41.038u    41.038u    2.7641u    2.7641u    4.7009     4.7009     4.7474     4.7474     14.752u    14.752u   
 14.675u    43.856u   -4.8351    -4.8351     43.856u    43.856u    2.8173u    2.8173u    4.7913     4.7913     4.8351     4.8351     15.368u    15.368u   
 15.263u    46.723u   -4.9179    -4.9179     46.723u    46.723u    2.8674u    2.8674u    4.8765     4.8765     4.9179     4.9179     15.985u    15.985u   
 15.851u    49.638u   -4.9959    -4.9959     49.638u    49.638u    2.9146u    2.9146u    4.9569     4.9569     4.9959     4.9959     16.602u    16.602u   
 16.439u    52.597u   -5.0694    -5.0694     52.597u    52.597u    2.9592u    2.9592u    5.0326     5.0326     5.0694     5.0694     17.22u     17.22u    
 17.027u    55.598u   -5.1387    -5.1387     55.598u    55.598u    3.0012u    3.0012u    5.1041     5.1041     5.1387     5.1387     17.838u    17.838u   
 17.615u    58.639u   -5.2041    -5.2041     58.639u    58.639u    3.0408u    3.0408u    5.1714     5.1714     5.2041     5.2041     18.457u    18.457u   
 18.203u    61.717u   -5.2657    -5.2657     61.717u    61.717u    3.0781u    3.0781u    5.2349     5.2349     5.2657     5.2657     19.076u    19.076u   
 18.791u    64.83u    -5.3238    -5.3238     64.83u     64.83u     3.1133u    3.1133u    5.2948     5.2948     5.3238     5.3238     19.696u    19.696u   
 19.696u    69.686u   -5.4069    -5.4069     69.686u    69.686u    4.8562u    4.8562u    5.3654     5.3654     5.4069     5.4069     20.624u    20.624u   
 20.601u    74.614u   -5.4828    -5.4828     74.614u    74.614u    4.9281u    4.9281u    5.4449     5.4449     5.4828     5.4828     21.621u    21.621u   
 21.507u    79.608u   -5.5521    -5.5521     79.608u    79.608u    4.9938u    4.9938u    5.5174     5.5174     5.5521     5.5521     22.55u     22.55u    
 22.412u    84.662u   -5.6154    -5.6154     84.662u    84.662u    5.0539u    5.0539u    5.5838     5.5838     5.6154     5.6154     23.51u     23.51u    
 23.317u    89.771u   -5.6732    -5.6732     89.771u    89.771u    5.1087u    5.1087u    5.6443     5.6443     5.6732     5.6732     24.471u    24.471u   
 24.222u    94.93u    -5.726     -5.726      94.93u     94.93u     5.1587u    5.1587u    5.6996     5.6996     5.726      5.726      25.434u    25.434u   
 25.127u    100.13u   -5.7743    -5.7743     100.13u    100.13u    5.2045u    5.2045u    5.7502     5.7502     5.7743     5.7743     26.398u    26.398u   
 26.032u    105.38u   -5.8184    -5.8184     105.38u    105.38u    5.2463u    5.2463u    5.7963     5.7963     5.8184     5.8184     27.365u    27.365u   
 26.937u    110.66u   -5.8586    -5.8586     110.66u    110.66u    5.2844u    5.2844u    5.8385     5.8385     5.8586     5.8586     28.333u    28.333u   
 28.333u    118.88u   -5.914     -5.914      118.88u    118.88u    8.2191u    8.2191u    5.8863     5.8863     5.914      5.914      29.783u    29.783u   
 29.73u     127.18u   -5.9622    -5.9622     127.18u    127.18u    8.2914u    8.2914u    5.9381     5.9381     5.9622     5.9622     31.344u    31.344u   
 31.126u    135.53u   -6.0041    -6.0041     135.53u    135.53u    8.3543u    8.3543u    5.9832     5.9832     6.0041     6.0041     32.8u      32.8u     
 32.522u    143.94u   -6.0405    -6.0405     143.94u    143.94u    8.409u     8.409u     6.0223     6.0223     6.0405     6.0405     34.312u    34.312u   
 33.919u    152.39u   -6.0722    -6.0722     152.39u    152.39u    8.4565u    8.4565u    6.0564     6.0564     6.0722     6.0722     35.829u    35.829u   
 35.315u    160.89u   -6.0997    -6.0997     160.89u    160.89u    8.4978u    8.4978u    6.086      6.086      6.0997     6.0997     37.353u    37.353u   
 36.711u    169.43u   -6.1237    -6.1237     169.43u    169.43u    8.5338u    8.5338u    6.1117     6.1117     6.1237     6.1237     38.884u    38.884u   
 38.884u    182.77u   -6.1549    -6.1549     182.77u    182.77u    13.339u    13.339u    6.1393     6.1393     6.1549     6.1549     41.188u    41.188u   
 41.057u    196.17u   -6.1801    -6.1801     196.17u    196.17u    13.401u    13.401u    6.1675     6.1675     6.1801     6.1801     43.682u    43.682u   
 43.23u     209.62u   -6.2003    -6.2003     209.62u    209.62u    13.45u     13.45u     6.1902     6.1902     6.2003     6.2003     46.01u     46.01u    
 45.402u    223.11u   -6.2165    -6.2165     223.11u    223.11u    13.49u     13.49u     6.2084     6.2084     6.2165     6.2165     48.455u    48.455u   
 47.575u    236.63u   -6.2296    -6.2296     236.63u    236.63u    13.521u    13.521u    6.2231     6.2231     6.2296     6.2296     50.923u    50.923u   
 50.923u    257.51u   -6.245     -6.245      257.51u    257.51u    20.882u    20.882u    6.2373     6.2373     6.245      6.245      54.599u    54.599u   
 54.271u    278.44u   -6.2559    -6.2559     278.44u    278.44u    20.926u    20.926u    6.2504     6.2504     6.2559     6.2559     58.6u      58.6u     
 57.619u    299.39u   -6.2637    -6.2637     299.39u    299.39u    20.957u    20.957u    6.2598     6.2598     6.2637     6.2637     62.361u    62.361u   
 60.967u    320.37u   -6.2693    -6.2693     320.37u    320.37u    20.98u     20.98u     6.2665     6.2665     6.2693     6.2693     66.396u    66.396u   
 66.396u    354.42u   -6.2752    -6.2752     354.42u    354.42u    34.052u    34.052u    6.2723     6.2723     6.2752     6.2752     72.687u    72.687u   
 71.825u    388.5u    -6.2786    -6.2786     388.5u     388.5u     34.077u    34.077u    6.2769     6.2769     6.2786     6.2786     79.699u    79.699u   
 77.254u    422.59u   -6.2806    -6.2806     422.59u    422.59u    34.091u    34.091u    6.2796     6.2796     6.2806     6.2806     86.346u    86.346u   
 86.346u    479.7u    -6.2822    -6.2822     479.7u     479.7u     57.112u    57.112u    6.2814     6.2814     6.2822     6.2822     97.944u    97.944u   
 95.438u    536.83u   -6.2828    -6.2828     536.83u    536.83u    57.122u    57.122u    6.2825     6.2825     6.2828     6.2828     111.48u    111.48u   
 111.48u    637.6u    -6.2831    -6.2831     637.6u     637.6u     100.77u    100.77u    6.283      6.283      6.2831     6.2831     133.13u    133.13u   
 127.52u    738.37u   -6.2832    -6.2832     738.37u    738.37u    100.77u    100.77u    6.2832     6.2832     6.2832     6.2832     163.53u    163.53u   
 163.52u    964.58u   -6.2832    -6.2832     964.58u    964.58u    226.21u    226.21u    6.2832     6.2832     6.2832     6.2832     226.52u    226.52u   
 226.51u    0.0013604 -6.2832    -6.2832     0.0013604  0.0013604  395.77u    395.77u    6.2832     6.2832     6.2832     6.2832     427.56u    427.56u   
 427.26u    0.0026217 -6.2832    -6.2832     0.0026217  0.0026217  0.0012614  0.0012614  6.2832     6.2832     6.2832     6.2832     0.0012081  0.0012081 
 0.0012052  0.0075094 -6.283     -6.283      0.0075094  0.0075094  0.0048877  0.0048877  6.2831     6.2831     6.283      6.283      0.00276    0.00276   
 0.0027488  0.017208  -6.2823    -6.2823     0.017208   0.017208   0.0096984  0.0096984  6.2827     6.2827     6.2823     6.2823     0.0047763  0.0047763 
 0.0042925  0.026905  -6.2809    -6.2809     0.026905   0.026905   0.0096968  0.0096968  6.2816     6.2816     6.2809     6.2809     0.0066461  0.0066461 
 0.0066268  0.041563  -6.278     -6.278      0.041563   0.041563   0.014658   0.014658   6.2794     6.2794     6.278      6.278      0.0093443  0.0093443 
 0.0089612  0.056212  -6.2733    -6.2733     0.056212   0.056212   0.014649   0.014649   6.2756     6.2756     6.2733     6.2733     0.011971   0.011971  
 0.011295   0.070849  -6.2676    -6.2676     0.070849   0.070849   0.014637   0.014637   6.2704     6.2704     6.2676     6.2676     0.014543   0.014543  
 0.01363    0.085471  -6.2602    -6.2602     0.085471   0.085471   0.014622   0.014622   6.2639     6.2639     6.2602     6.2602     0.017093   0.017093  
 0.015964   0.10008   -6.2518    -6.2518     0.10008    0.10008    0.014604   0.014604   6.256      6.256      6.2518     6.2518     0.01961    0.01961   
 0.019466   0.12194   -6.2366    -6.2366     0.12194    0.12194    0.021864   0.021864   6.2442     6.2442     6.2366     6.2366     0.023366   0.023366  
 0.022967   0.14374   -6.2181    -6.2181     0.14374    0.14374    0.021805   0.021805   6.2274     6.2274     6.2181     6.2181     0.027088   0.027088  
 0.026469   0.16548   -6.1969    -6.1969     0.16548    0.16548    0.021736   0.021736   6.2075     6.2075     6.1969     6.1969     0.030791   0.030791  
 0.02997    0.18714   -6.1724    -6.1724     0.18714    0.18714    0.021655   0.021655   6.1846     6.1846     6.1724     6.1724     0.034479   0.034479  
 0.033472   0.2087    -6.1451    -6.1451     0.2087     0.2087     0.021565   0.021565   6.1588     6.1588     6.1451     6.1451     0.038152   0.038152  
 0.036973   0.23016   -6.1147    -6.1147     0.23016    0.23016    0.021464   0.021464   6.1299     6.1299     6.1147     6.1147     0.041817   0.041817  
 0.040475   0.25152   -6.0815    -6.0815     0.25152    0.25152    0.021352   0.021352   6.0981     6.0981     6.0815     6.0815     0.04547    0.04547   
 0.043976   0.27275   -6.0452    -6.0452     0.27275    0.27275    0.021231   0.021231   6.0633     6.0633     6.0452     6.0452     0.049119   0.049119  
 0.047478   0.29385   -6.0061    -6.0061     0.29385    0.29385    0.021099   0.021099   6.0256     6.0256     6.0061     6.0061     0.052758   0.052758  
 0.05273    0.32522   -5.9424    -5.9424     0.32522    0.32522    0.031378   0.031378   5.9742     5.9742     5.9424     5.9424     0.058206   0.058206  
 0.057982   0.35625   -5.8712    -5.8712     0.35625    0.35625    0.031024   0.031024   5.9068     5.9068     5.8712     5.8712     0.063644   0.063644  
 0.063234   0.38688   -5.7947    -5.7947     0.38688    0.38688    0.030636   0.030636   5.833      5.833      5.7947     5.7947     0.069073   0.069073  
 0.068487   0.4171    -5.7108    -5.7108     0.4171     0.4171     0.030215   0.030215   5.7527     5.7527     5.7108     5.7108     0.0745     0.0745    
 0.073739   0.44686   -5.6217    -5.6217     0.44686    0.44686    0.029761   0.029761   5.6663     5.6663     5.6217     5.6217     0.079918   0.079918  
 0.078991   0.47613   -5.5255    -5.5255     0.47613    0.47613    0.029274   0.029274   5.5736     5.5736     5.5255     5.5255     0.085337   0.085337  
 0.084243   0.50489   -5.4243    -5.4243     0.50489    0.50489    0.028755   0.028755   5.4749     5.4749     5.4243     5.4243     0.090748   0.090748  
 0.089496   0.53309   -5.3162    -5.3162     0.53309    0.53309    0.028206   0.028206   5.3702     5.3702     5.3162     5.3162     0.096161   0.096161  
 0.094748   0.56072   -5.2032    -5.2032     0.56072    0.56072    0.027625   0.027625   5.2597     5.2597     5.2032     5.2032     0.10157    0.10157   
 0.1        0.58773   -5.0837    -5.0837     0.58773    0.58773    0.027015   0.027015   5.1434     5.1434     5.0837     5.0837     0.10698    0.10698   
 0.10525    0.61411   -4.9595    -4.9595     0.61411    0.61411    0.026375   0.026375   5.0216     5.0216     4.9595     4.9595     0.11238    0.11238   
 0.1105     0.63981   -4.829     -4.829      0.63981    0.63981    0.025706   0.025706   4.8943     4.8943     4.829      4.829      0.1178     0.1178    
 0.11576    0.66482   -4.6942    -4.6942     0.66482    0.66482    0.025009   0.025009   4.7616     4.7616     4.6942     4.6942     0.1232     0.1232    
 0.12101    0.68911   -4.5533    -4.5533     0.68911    0.68911    0.024285   0.024285   4.6238     4.6238     4.5533     4.5533     0.12862    0.12862   
 0.12626    0.71264   -4.4084    -4.4084     0.71264    0.71264    0.023535   0.023535   4.4809     4.4809     4.4084     4.4084     0.13403    0.13403   
 0.13151    0.7354    -4.2578    -4.2578     0.7354     0.7354     0.022759   0.022759   4.3331     4.3331     4.2578     4.2578     0.13945    0.13945   
 0.13836    0.76387   -4.0561    -4.0561     0.76387    0.76387    0.02847    0.02847    4.157      4.157      4.0561     4.0561     0.14649    0.14649   
 0.14521    0.79093   -3.8449    -3.8449     0.79093    0.79093    0.027055   0.027055   3.9505     3.9505     3.8449     3.8449     0.15355    0.15355   
 0.15206    0.81652   -3.6284    -3.6284     0.81652    0.81652    0.025591   0.025591   3.7366     3.7366     3.6284     3.6284     0.16062    0.16062   
 0.15891    0.8406    -3.4034    -3.4034     0.8406     0.8406     0.024079   0.024079   3.5159     3.5159     3.4034     3.4034     0.16772    0.16772   
 0.16576    0.86312   -3.174     -3.174      0.86312    0.86312    0.022523   0.022523   3.2887     3.2887     3.174      3.174      0.17482    0.17482   
 0.17261    0.88405   -2.9367    -2.9367     0.88405    0.88405    0.020925   0.020925   3.0553     3.0553     2.9367     2.9367     0.18196    0.18196   
 0.17945    0.90333   -2.696     -2.696      0.90333    0.90333    0.019288   0.019288   2.8164     2.8164     2.696      2.696      0.1891     0.1891    
 0.1863     0.92095   -2.4483    -2.4483     0.92095    0.92095    0.017616   0.017616   2.5722     2.5722     2.4483     2.4483     0.19629    0.19629   
 0.19315    0.93686   -2.1981    -2.1981     0.93686    0.93686    0.015911   0.015911   2.3232     2.3232     2.1981     2.1981     0.20349    0.20349   
 0.2        0.95104   -1.9418    -1.9418     0.95104    0.95104    0.014176   0.014176   2.0699     2.0699     1.9418     1.9418     0.21076    0.21076   
 0.21       0.96857   -1.5643    -1.5643     0.96857    0.96857    0.01753    0.01753    1.753      1.753      1.5643     1.5643     0.2213     0.2213    
 0.22       0.98228   -1.1773    -1.1773     0.98228    0.98228    0.013708   0.013708   1.3708     1.3708     1.1773     1.1773     0.23202    0.23202   
 0.23       0.99211   -0.78894   -0.78894    0.99211    0.99211    0.0098313  0.0098313  0.98313    0.98313    0.78894    0.78894    0.243      0.243     
 0.24       0.99802   -0.39426   -0.39426    0.99802    0.99802    0.005916   0.005916   0.5916     0.5916     0.39426    0.39426    0.25457    0.25457   
 0.25       1.        -0.0011831 -0.0011831  1.         1.         0.0019772  0.0019772  0.19772    0.19772    0.0011827  0.0011827  0.26724    0.26724   
 0.2625     0.99692    0.49362    0.49362    0.99692    0.99692   -0.0030777 -0.0030777 -0.24622   -0.24622   -0.49362   -0.49362    0.28857    0.28857   
 0.28125    0.9808     1.2264     1.2264     0.9808     0.9808    -0.016125  -0.016125  -0.85999   -0.85999   -1.2264    -1.2264     0.30216    0.30216   
 0.3        0.95108    1.9439     1.9439     0.95108    0.95108   -0.029722  -0.029722  -1.5852    -1.5852    -1.9439    -1.9439     0.3148     0.3148    
 0.3125     0.9239     2.4036     2.4036     0.9239     0.9239    -0.027172  -0.027172  -2.1738    -2.1738    -2.4036    -2.4036     0.32488    0.32488   
 0.325      0.89104    2.8553     2.8553     0.89104    0.89104   -0.032868  -0.032868  -2.6295    -2.6295    -2.8553    -2.8553     0.33599    0.33599   
 0.3375     0.85267    3.2826     3.2826     0.85267    0.85267   -0.038362  -0.038362  -3.069     -3.069     -3.2826    -3.2826     0.3476     0.3476    
 0.35       0.80905    3.6964     3.6964     0.80905    0.80905   -0.043619  -0.043619  -3.4895    -3.4895    -3.6964    -3.6964     0.35945    0.35945   
 0.35833    0.77719    3.952      3.952      0.77719    0.77719   -0.031868  -0.031868  -3.8242    -3.8242    -3.952     -3.952      0.36727    0.36727   
 0.36667    0.74319    4.2077     4.2077     0.74319    0.74319   -0.033999  -0.033999  -4.0798    -4.0798    -4.2077    -4.2077     0.3752     0.3752    
 0.375      0.70715    4.4409     4.4409     0.70715    0.70715   -0.036036  -0.036036  -4.3243    -4.3243    -4.4409    -4.4409     0.38322    0.38322   
 0.38333    0.66918    4.6728     4.6728     0.66918    0.66918   -0.037974  -0.037974  -4.5569    -4.5569    -4.6728    -4.6728     0.39125    0.39125   
 0.39167    0.62937    4.8811     4.8811     0.62937    0.62937   -0.039808  -0.039808  -4.777     -4.777     -4.8811    -4.8811     0.39931    0.39931   
 0.39583    0.60881    4.9867     4.9867     0.60881    0.60881   -0.020558  -0.020558  -4.9339    -4.9339    -4.9867    -4.9867     0.40321    0.40321   
 0.4        0.58784    5.0814     5.0814     0.58784    0.58784   -0.020975  -0.020975  -5.0341    -5.0341    -5.0814    -5.0814     0.40724    0.40724   
 0.40714    0.55095    5.2468     5.2468     0.55095    0.55095   -0.036887  -0.036887  -5.1641    -5.1641    -5.2468    -5.2468     0.4142     0.4142    
 0.41429    0.51295    5.3921     5.3921     0.51295    0.51295   -0.037996  -0.037996  -5.3195    -5.3195    -5.3921    -5.3921     0.42116    0.42116   
 0.42143    0.47392    5.536      5.536      0.47392    0.47392   -0.039029  -0.039029  -5.4641    -5.4641    -5.536     -5.536      0.42807    0.42807   
 0.42857    0.43394    5.6594     5.6594     0.43394    0.43394   -0.039984  -0.039984  -5.5977    -5.5977    -5.6594    -5.6594     0.43499    0.43499   
 0.43571    0.39308    5.7807     5.7807     0.39308    0.39308   -0.040857  -0.040857  -5.72      -5.72      -5.7807    -5.7807     0.44189    0.44189   
 0.44286    0.35143    5.8811     5.8811     0.35143    0.35143   -0.041649  -0.041649  -5.8309    -5.8309    -5.8811    -5.8811     0.4488     0.4488    
 0.45       0.30908    5.9788     5.9788     0.30908    0.30908   -0.042357  -0.042357  -5.93      -5.93      -5.9788    -5.9788     0.45568    0.45568   
 0.45556    0.2757     6.0376     6.0376     0.2757     0.2757    -0.033379  -0.033379  -6.0082    -6.0082    -6.0376    -6.0376     0.46097    0.46097   
 0.46111    0.24198    6.0997     6.0997     0.24198    0.24198   -0.033715  -0.033715  -6.0687    -6.0687    -6.0997    -6.0997     0.46629    0.46629   
 0.46667    0.20797    6.1438     6.1438     0.20797    0.20797   -0.03401   -0.03401   -6.1218    -6.1218    -6.1438    -6.1438     0.47162    0.47162   
 0.47222    0.17371    6.1909     6.1909     0.17371    0.17371   -0.034263  -0.034263  -6.1673    -6.1673    -6.1909    -6.1909     0.47691    0.47691   
 0.47778    0.13924    6.22       6.22       0.13924    0.13924   -0.034475  -0.034475  -6.2055    -6.2055    -6.22      -6.22       0.48219    0.48219   
 0.48148    0.11616    6.2431     6.2431     0.11616    0.11616   -0.02308   -0.02308   -6.2316    -6.2316    -6.2431    -6.2431     0.48556    0.48556   
 0.48519    0.093012   6.254      6.254      0.093012   0.093012  -0.023143  -0.023143  -6.2486    -6.2486    -6.254     -6.254      0.48904    0.48904   
 0.48889    0.069819   6.2703     6.2703     0.069819   0.069819  -0.023193  -0.023193  -6.2622    -6.2622    -6.2703    -6.2703     0.49244    0.49244   
 0.49259    0.046588   6.2745     6.2745     0.046588   0.046588  -0.023231  -0.023231  -6.2724    -6.2724    -6.2745    -6.2745     0.49584    0.49584   
 0.4963     0.023332   6.2839     6.2839     0.023332   0.023332  -0.023256  -0.023256  -6.2792    -6.2792    -6.2839    -6.2839     0.49911    0.49911   
 0.49815    0.011698   6.2805     6.2805     0.011698   0.011698  -0.011634  -0.011634  -6.2822    -6.2822    -6.2805    -6.2805     0.50041    0.50041   
 0.5        62.855u    6.2855     6.2855     62.855u    62.855u   -0.011635  -0.011635  -6.283     -6.283     -6.2855    -6.2855     0.50175    0.50175   
 0.50185   -0.011572   6.2807     6.2807    -0.011572  -0.011572  -0.011635  -0.011635  -6.2831    -6.2831    -6.2807    -6.2807     0.5037     0.5037    
 0.5037    -0.023206   6.2837     6.2837    -0.023206  -0.023206  -0.011634  -0.011634  -6.2822    -6.2822    -6.2837    -6.2837     0.50586    0.50586   
 0.50556   -0.034837   6.2774     6.2774    -0.034837  -0.034837  -0.011631  -0.011631  -6.2805    -6.2805    -6.2774    -6.2774     0.50822    0.50822   
 0.50741   -0.046463   6.2785     6.2785    -0.046463  -0.046463  -0.011626  -0.011626  -6.2779    -6.2779    -6.2785    -6.2785     0.51014    0.51014   
 0.50926   -0.058082   6.2706     6.2706    -0.058082  -0.058082  -0.01162   -0.01162   -6.2746    -6.2746    -6.2706    -6.2706     0.51242    0.51242   
 0.51239   -0.077696   6.2665     6.2665    -0.077696  -0.077696  -0.019614  -0.019614  -6.2686    -6.2686    -6.2665    -6.2665     0.51567    0.51567   
 0.51552   -0.097281   6.2515     6.2515    -0.097281  -0.097281  -0.019584  -0.019584  -6.259     -6.259     -6.2515    -6.2515     0.51917    0.51917   
 0.51865   -0.11683    6.2424     6.2424    -0.11683   -0.11683   -0.019547  -0.019547  -6.247     -6.247     -6.2424    -6.2424     0.52246    0.52246   
 0.52178   -0.13633    6.2227     6.2227    -0.13633   -0.13633   -0.019502  -0.019502  -6.2326    -6.2326    -6.2227    -6.2227     0.52585    0.52585   
 0.5249    -0.15578    6.2087     6.2087    -0.15578   -0.15578   -0.019449  -0.019449  -6.2157    -6.2157    -6.2087    -6.2087     0.52911    0.52911   
 0.52803   -0.17517    6.1843     6.1843    -0.17517   -0.17517   -0.019389  -0.019389  -6.1965    -6.1965    -6.1843    -6.1843     0.53247    0.53247   
 0.53116   -0.19449    6.1654     6.1654    -0.19449   -0.19449   -0.019321  -0.019321  -6.1748    -6.1748    -6.1654    -6.1654     0.5357     0.5357    
 0.53429   -0.21373    6.1363     6.1363    -0.21373   -0.21373   -0.019246  -0.019246  -6.1508    -6.1508    -6.1363    -6.1363     0.53905    0.53905   
 0.53898   -0.24244    6.0983     6.0983    -0.24244   -0.24244   -0.028711  -0.028711  -6.1173    -6.1173    -6.0983    -6.0983     0.54389    0.54389   
 0.54368   -0.27095    6.0465     6.0465    -0.27095   -0.27095   -0.028501  -0.028501  -6.0724    -6.0724    -6.0465    -6.0465     0.54882    0.54882   
 0.54837   -0.29921    5.9979     5.9979    -0.29921   -0.29921   -0.028265  -0.028265  -6.0222    -6.0222    -5.9979    -5.9979     0.55367    0.55367   
 0.55307   -0.32722    5.9356     5.9356    -0.32722   -0.32722   -0.028005  -0.028005  -5.9668    -5.9668    -5.9356    -5.9356     0.55856    0.55856   
 0.55776   -0.35494    5.8766     5.8766    -0.35494   -0.35494   -0.02772   -0.02772   -5.9061    -5.9061    -5.8766    -5.8766     0.5634     0.5634    
 0.56245   -0.38235    5.8041     5.8041    -0.38235   -0.38235   -0.027412  -0.027412  -5.8404    -5.8404    -5.8041    -5.8041     0.56828    0.56828   
 0.56715   -0.40943    5.7349     5.7349    -0.40943   -0.40943   -0.027079  -0.027079  -5.7695    -5.7695    -5.7349    -5.7349     0.5731     0.5731    
 0.57184   -0.43615    5.6525     5.6525    -0.43615   -0.43615   -0.026723  -0.026723  -5.6937    -5.6937    -5.6525    -5.6525     0.57798    0.57798   
 0.57653   -0.46249    5.5732     5.5732    -0.46249   -0.46249   -0.026344  -0.026344  -5.6128    -5.6128    -5.5732    -5.5732     0.58279    0.58279   
 0.58123   -0.48844    5.4811     5.4811    -0.48844   -0.48844   -0.025942  -0.025942  -5.5272    -5.5272    -5.4811    -5.4811     0.58766    0.58766   
 0.58592   -0.51395    5.3922     5.3922    -0.51395   -0.51395   -0.025517  -0.025517  -5.4367    -5.4367    -5.3922    -5.3922     0.59247    0.59247   
 0.59061   -0.53902    5.2907     5.2907    -0.53902   -0.53902   -0.02507   -0.02507   -5.3415    -5.3415    -5.2907    -5.2907     0.59733    0.59733   
 0.59531   -0.56362    5.1924     5.1924    -0.56362   -0.56362   -0.024601  -0.024601  -5.2416    -5.2416    -5.1924    -5.1924     0.60214    0.60214   
 0.6       -0.58773    5.0819     5.0819    -0.58773   -0.58773   -0.024111  -0.024111  -5.1372    -5.1372    -5.0819    -5.0819     0.607      0.607     
 0.60469   -0.61133    4.9746     4.9746    -0.61133   -0.61133   -0.0236    -0.0236    -5.0282    -5.0282    -4.9746    -4.9746     0.6118     0.6118    
 0.6115    -0.64461    4.8028     4.8028    -0.64461   -0.64461   -0.03328   -0.03328   -4.8887    -4.8887    -4.8028    -4.8028     0.61882    0.61882   
 0.61831   -0.67672    4.6282     4.6282    -0.67672   -0.67672   -0.032101  -0.032101  -4.7155    -4.7155    -4.6282    -4.6282     0.6258     0.6258    
 0.62512   -0.70758    4.4391     4.4391    -0.70758   -0.70758   -0.030863  -0.030863  -4.5336    -4.5336    -4.4391    -4.4391     0.63282    0.63282   
 0.63192   -0.73715    4.2479     4.2479    -0.73715   -0.73715   -0.029569  -0.029569  -4.3435    -4.3435    -4.2479    -4.2479     0.63983    0.63983   
 0.63873   -0.76537    4.043      4.043     -0.76537   -0.76537   -0.02822   -0.02822   -4.1454    -4.1454    -4.043     -4.043      0.64686    0.64686   
 0.64554   -0.79219    3.8365     3.8365    -0.79219   -0.79219   -0.02682   -0.02682   -3.9397    -3.9397    -3.8365    -3.8365     0.65388    0.65388   
 0.65235   -0.81756    3.6172     3.6172    -0.81756   -0.81756   -0.025371  -0.025371  -3.7269    -3.7269    -3.6172    -3.6172     0.66093    0.66093   
 0.65915   -0.84144    3.3971     3.3971    -0.84144   -0.84144   -0.023876  -0.023876  -3.5072    -3.5072    -3.3971    -3.3971     0.66797    0.66797   
 0.66596   -0.86377    3.165      3.165     -0.86377   -0.86377   -0.022336  -0.022336  -3.2811    -3.2811    -3.165     -3.165      0.67505    0.67505   
 0.67277   -0.88453    2.9329     2.9329    -0.88453   -0.88453   -0.020756  -0.020756  -3.049     -3.049     -2.9329    -2.9329     0.68212    0.68212   
 0.67958   -0.90367    2.6897     2.6897    -0.90367   -0.90367   -0.019138  -0.019138  -2.8113    -2.8113    -2.6897    -2.6897     0.68925    0.68925   
 0.68638   -0.92115    2.4472     2.4472    -0.92115   -0.92115   -0.017485  -0.017485  -2.5685    -2.5685    -2.4472    -2.4472     0.69636    0.69636   
 0.69319   -0.93695    2.1947     2.1947    -0.93695   -0.93695   -0.0158    -0.0158    -2.3209    -2.3209    -2.1947    -2.1947     0.70356    0.70356   
 0.7       -0.95104    1.9437     1.9437    -0.95104   -0.95104   -0.014086  -0.014086  -2.0692    -2.0692    -1.9437    -1.9437     0.71075    0.71075   
 0.71      -0.96857    1.5624     1.5624    -0.96857   -0.96857   -0.01753   -0.01753   -1.753     -1.753     -1.5624    -1.5624     0.72131    0.72131   
 0.72      -0.98228    1.1792     1.1792    -0.98228   -0.98228   -0.013708  -0.013708  -1.3708    -1.3708    -1.1792    -1.1792     0.73201    0.73201   
 0.73      -0.99211    0.7871     0.7871    -0.99211   -0.99211   -0.0098314 -0.0098314 -0.98314   -0.98314   -0.7871    -0.7871     0.74301    0.74301   
 0.74      -0.99802    0.39608    0.39608   -0.99802   -0.99802   -0.0059159 -0.0059159 -0.59159   -0.59159   -0.39608   -0.39608    0.75455    0.75455   
 0.75      -1.        -635.87u   -635.87u   -1.        -1.        -0.0019772 -0.0019772 -0.19772   -0.19772    636.31u    636.31u    0.76728    0.76728   
 0.7625    -0.99692   -0.4918    -0.4918    -0.99692   -0.99692    0.0030778  0.0030778  0.24622    0.24622    0.4918     0.4918     0.78841    0.78841   
 0.78125   -0.9808    -1.2282    -1.2282    -0.9808    -0.9808     0.016125   0.016125   0.85998    0.85998    1.2282     1.2282     0.80212    0.80212   
 0.8       -0.95108   -1.9421    -1.9421    -0.95108   -0.95108    0.029722   0.029722   1.5852     1.5852     1.9421     1.9421     0.8148     0.8148    
 0.8125    -0.9239    -2.4054    -2.4054    -0.9239    -0.9239     0.027172   0.027172   2.1738     2.1738     2.4054     2.4054     0.82488    0.82488   
 0.825     -0.89104   -2.8535    -2.8535    -0.89104   -0.89104    0.032869   0.032869   2.6295     2.6295     2.8535     2.8535     0.83599    0.83599   
 0.8375    -0.85267   -3.2844    -3.2844    -0.85267   -0.85267    0.038362   0.038362   3.069      3.069      3.2844     3.2844     0.8476     0.8476    
 0.85      -0.80905   -3.6947    -3.6947    -0.80905   -0.80905    0.043619   0.043619   3.4895     3.4895     3.6947     3.6947     0.85945    0.85945   
 0.85833   -0.77719   -3.9538    -3.9538    -0.77719   -0.77719    0.031868   0.031868   3.8242     3.8242     3.9538     3.9538     0.86726    0.86726   
 0.86667   -0.74319   -4.2059    -4.2059    -0.74319   -0.74319    0.033999   0.033999   4.0798     4.0798     4.2059     4.2059     0.87521    0.87521   
 0.875     -0.70715   -4.4427    -4.4427    -0.70715   -0.70715    0.036036   0.036036   4.3243     4.3243     4.4427     4.4427     0.88321    0.88321   
 0.88333   -0.66918   -4.6711    -4.6711    -0.66918   -0.66918    0.037974   0.037974   4.5569     4.5569     4.6711     4.6711     0.89125    0.89125   
 0.89167   -0.62937   -4.8829    -4.8829    -0.62937   -0.62937    0.039808   0.039808   4.777      4.777      4.8829     4.8829     0.89931    0.89931   
 0.89583   -0.60881   -4.9849    -4.9849    -0.60881   -0.60881    0.020558   0.020558   4.9339     4.9339     4.9849     4.9849     0.90322    0.90322   
 0.9       -0.58784   -5.0832    -5.0832    -0.58784   -0.58784    0.020975   0.020975   5.034      5.034      5.0832     5.0832     0.90723    0.90723   
 0.90714   -0.55095   -5.2451    -5.2451    -0.55095   -0.55095    0.036887   0.036887   5.1641     5.1641     5.2451     5.2451     0.91421    0.91421   
 0.91429   -0.51295   -5.3938    -5.3938    -0.51295   -0.51295    0.037996   0.037996   5.3195     5.3195     5.3938     5.3938     0.92115    0.92115   
 0.92143   -0.47392   -5.5343    -5.5343    -0.47392   -0.47392    0.039029   0.039029   5.4641     5.4641     5.5343     5.5343     0.92807    0.92807   
 0.92857   -0.43394   -5.6611    -5.6611    -0.43394   -0.43394    0.039984   0.039984   5.5977     5.5977     5.6611     5.6611     0.93499    0.93499   
 0.93571   -0.39308   -5.779     -5.779     -0.39308   -0.39308    0.040858   0.040858   5.7201     5.7201     5.779      5.779      0.94189    0.94189   
 0.94286   -0.35143   -5.8827    -5.8827    -0.35143   -0.35143    0.041649   0.041649   5.8309     5.8309     5.8827     5.8827     0.94879    0.94879   
 0.95      -0.30908   -5.9772    -5.9772    -0.30908   -0.30908    0.042357   0.042357   5.93       5.93       5.9772     5.9772     0.95568    0.95568   
 0.95556   -0.2757    -6.0393    -6.0393    -0.2757    -0.2757     0.033379   0.033379   6.0082     6.0082     6.0393     6.0393     0.96097    0.96097   
 0.96111   -0.24198   -6.0981    -6.0981    -0.24198   -0.24198    0.033715   0.033715   6.0687     6.0687     6.0981     6.0981     0.9663     0.9663    
 0.96667   -0.20797   -6.1454    -6.1454    -0.20797   -0.20797    0.03401    0.03401    6.1218     6.1218     6.1454     6.1454     0.97162    0.97162   
 0.97222   -0.17371   -6.1893    -6.1893    -0.17371   -0.17371    0.034263   0.034263   6.1674     6.1674     6.1893     6.1893     0.97691    0.97691   
 0.97778   -0.13924   -6.2216    -6.2216    -0.13924   -0.13924    0.034475   0.034475   6.2055     6.2055     6.2216     6.2216     0.98219    0.98219   
 0.98148   -0.11616   -6.2416    -6.2416    -0.11616   -0.11616    0.02308    0.02308    6.2316     6.2316     6.2416     6.2416     0.98556    0.98556   
 0.98519   -0.093012  -6.2556    -6.2556    -0.093012  -0.093012   0.023143   0.023143   6.2486     6.2486     6.2556     6.2556     0.98903    0.98903   
 0.98889   -0.069819  -6.2688    -6.2688    -0.069819  -0.069819   0.023193   0.023193   6.2622     6.2622     6.2688     6.2688     0.99245    0.99245   
 0.99259   -0.046588  -6.276     -6.276     -0.046588  -0.046588   0.023231   0.023231   6.2724     6.2724     6.276      6.276      0.99583    0.99583   
 0.9963    -0.023332  -6.2824    -6.2824    -0.023332  -0.023332   0.023256   0.023256   6.2792     6.2792     6.2824     6.2824     0.99912    0.99912   
 0.99815   -0.011698  -6.282     -6.282     -0.011698  -0.011698   0.011634   0.011634   6.2822     6.2822     6.282      6.282      1.0004     1.0004    
 1.        -62.841u   -6.2841    -6.2841    -62.841u   -62.841u    0.011635   0.011635   6.283      6.283      6.2841     6.2841     1.0018     1.0018    
Gnucap   System status
iterations: op=0, dc=0, tran=1184, fourier=0, total=1734
transient timesteps: accepted=341, rejected=10, total=351
nodes: user=3, subckt=0, model=0, total=3
dctran density=77.8%, ac density=77.8%
