paramset zz npn;
 .level=1; .kf=NA( 0.); .af=NA( 1.); .bf=150; .br=NA( 1.); .is=NA( 100.E-18); .nf=NA( 1.); .nr=NA( 1.); .c4=NA( 0.); .nc=NA( 2.); .c2=NA( 0.); .ne=NA( 1.5); .rb=NA( 0.); .re=NA( 0.); .rc=NA( 0.); .cjc=NA( 0.); .cje=NA( 0.); .cjs=NA( 0.); .mjc=NA( 0.33); .mje=NA( 0.33); .mjs=NA( 0.); .vjc=NA( 0.75); .vje=NA( 0.75); .vjs=NA( 0.75); .xcjc=NA( 1.); .itf=NA( 0.); .ptf=NA( 0.); .tf=NA( 0.); .tr=NA( 0.); .xtf=NA( 0.); .xtb=NA( 0.); .xti=NA( 3.); .eg=NA( 1.11);
endparamset

module dumb_resistor (.a(a),.b(b));
resistor #(.r(r)) R1 (.p(a),.n(b));
endmodule // dumb_resistor

module foo (.vcc(vcc),.in(in),.out(out));
resistor #(.r(z)) Rc (.p(c),.n(vcc));
zz #(.area(NA( 1.))) q1 (.c(c),.b(b),.e(e));
dumb_resistor #(.r(abs(-z)/10)) Re (.a(e),.b(\0 ));
resistor #(.r(100k)) Rb1 (.p(b),.n(vcc));
dumb_resistor #(.r(r)) Rb2 (.a(b),.b(\0 ));
capacitor #(.c(1u)) Cin (.p(b),.n(in));
capacitor #(.c(1u)) Cout (.p(c),.n(out));
resistor #(.r(100k)) Rin (.p(in),.n(\0 ));
resistor #(.r(100k)) Rout (.p(out),.n(\0 ));
endmodule // foo

foo #(.r(10k)) X1 (.vcc(V_cc),.in(amp_in),.out(out));
resistor #(.r(10*(1-gain))) Rin1 (.p(in),.n(amp_in));
resistor #(.r(10*gain)) Rin2 (.p(amp_in),.n(\0 ));
vsource #( DC  20.) Vcc (.p(V_cc),.n(\0 ));
vsource #( AC  0.2) Vin (.p(in),.n(\0 ));
#           v(V_cc)    v(in)      v(out)     iter(0)    vc(X1.q1)  vce(X1.q1)
 27.        20.        0.         0.         16.        10.213     9.2279    
#Freq       v(V_cc)    v(in)      v(amp_in)  v(out)    
 1.K        869.54p    0.2        0.099968   0.87954   
#           v(V_cc)    v(in)      v(out)     iter(0)    vc(X1.q1)  vce(X1.q1)
 27.        20.        0.         0.         16.        10.213     9.2279    
#Freq       v(V_cc)    v(in)      v(amp_in)  v(out)    
 1.K        796.25p    0.2        0.099968   0.80624   
