2 stage op-amp open loop  02/16/88 
#           iter(0)    v(1)       v(2)       v(3)       v(4)       v(5)      
+ v(6)       v(7)       v(8)       v(9)      
 27.        13.        0.         0.         1.5708     1.5709    -1.1669    
+ 0.079194  -1.6303    -2.5        2.5       
vdb(6) 0.                20.              40.               60.             80.
vp(6)-180.              -90.              0.                90.            180.
        +-----------------+----------------+-----------------+----------------+
 1.     |                 .                +                 *                |
 1.5849 |                 .               +.                 *                |
 2.5119 |                 .               +.                 *                |
 3.9811 |                 .              + .                 *                |
 6.3096 |                 .             +  .                 *                |
 10.    |                 .            +   .                *.                |
 15.849 |                 .          +     .                *.                |
 25.119 |                 .       +        .              *  .                |
 39.811 |                 .     +          .            *    .                |
 63.096 |                 .   +            .         *       .                |
 100.   |                 . +              .      *          .                |
 158.49 |                 .+               .   *             .                |
 251.19 |                 .+               *                 .                |
 398.11 |                 +             *  .                 .                |
 630.96 |                 +         *      .                 .                |
 1.K    |                +.      *         .                 .                |
 1.5849K|                +.  *             .                 .                |
 2.5119K|                +*                .                 .                |
 3.9811K|             * + .                .                 .                |
 6.3096K|          *   +  .                .                 .                |
 10.K   |      *      +   .                .                 .                |
 15.849K|  *        +     .                .                 .                |
 25.119K*        +        .                .                 .                |
 39.811K*     +           .                .                 .                |
 63.096K* +               .                .                 .                |
 100.K  *                 .                .                 .             +  |
 158.49K*                 .                .                 .         +      |
 251.19K*                 .                .                 .      +         |
 398.11K*                 .                .                 .   +            |
 630.96K*                 .                .                 . +              |
 1.Meg  *                 .                .                 .+               |
 1.5849M*                 .                .                 +                |
 2.5119M*                 .                .                +.                |
 3.9811M*                 .                .               + .                |
 6.3096M*                 .                .              +  .                |
 10.Meg *                 .                .            +    .                |
        +-----------------+----------------+-----------------+----------------+
v(6)  -4.               -2.               0.                2.               4.
        +-----------------+----------------+-----------------+----------------+
-500.u  |                 .     *          .                 .                |
-480.u  |                 .     *          .                 .                |
-460.u  |                 .     *          .                 .                |
-440.u  |                 .      *         .                 .                |
-420.u  |                 .      *         .                 .                |
-400.u  |                 .       *        .                 .                |
-380.u  |                 .       *        .                 .                |
-360.u  |                 .        *       .                 .                |
-340.u  |                 .        *       .                 .                |
-320.u  |                 .        *       .                 .                |
-300.u  |                 .         *      .                 .                |
-280.u  |                 .         *      .                 .                |
-260.u  |                 .          *     .                 .                |
-240.u  |                 .           *    .                 .                |
-220.u  |                 .           *    .                 .                |
-200.u  |                 .           *    .                 .                |
-180.u  |                 .            *   .                 .                |
-160.u  |                 .            *   .                 .                |
-140.u  |                 .             *  .                 .                |
-120.u  |                 .              * .                 .                |
-100.u  |                 .              * .                 .                |
-80.u   |                 .              * .                 .                |
-60.u   |                 .               *.                 .                |
-40.u   |                 .                *                 .                |
-20.u   |                 .                *                 .                |
 0.     |                 .                .*                .                |
 20.u   |                 .                .*                .                |
 40.u   |                 .                . *               .                |
 60.u   |                 .                . *               .                |
 80.u   |                 .                .  *              .                |
 100.u  |                 .                .  *              .                |
 120.u  |                 .                .   *             .                |
 140.u  |                 .                .   *             .                |
 160.u  |                 .                .    *            .                |
 180.u  |                 .                .     *           .                |
 200.u  |                 .                .     *           .                |
 220.u  |                 .                .      *          .                |
 240.u  |                 .                .      *          .                |
 260.u  |                 .                .       *         .                |
 280.u  |                 .                .       *         .                |
 300.u  |                 .                .        *        .                |
 320.u  |                 .                .        *        .                |
 340.u  |                 .                .         *       .                |
 360.u  |                 .                .          *      .                |
 380.u  |                 .                .          *      .                |
 400.u  |                 .                .           *     .                |
 420.u  |                 .                .           *     .                |
 440.u  |                 .                .            *    .                |
 460.u  |                 .                .            *    .                |
 480.u  |                 .                .             *   .                |
 500.u  |                 .                .              *  .                |
        +-----------------+----------------+-----------------+----------------+
#Time       v(vin)     v(6)      
 0.         0.         0.079194  
 31.25u     0.097545   0.45588   
 62.5u      0.19134    1.686     
 93.75u     0.27779    2.4902    
 125.u      0.35355    2.4857    
 156.25u    0.41573    2.495     
 187.5u     0.46194    2.4893    
 218.75u    0.49039    2.4897    
 250.u      0.5        2.4939    
 281.25u    0.49039    2.4899    
 312.5u     0.46194    2.4938    
 343.75u    0.41573    2.4899    
 375.u      0.35355    2.4936    
 406.25u    0.27779    2.4899    
 437.5u     0.19134    2.4934    
 468.75u    0.097545   2.4897    
 500.u      7.0114f    2.4933    
 531.25u   -0.097545   2.4899    
 562.5u    -0.19134    2.4857    
 593.75u   -0.27779    2.0951    
 625.u     -0.35355    1.3943    
 656.25u   -0.41573    0.77692   
 687.5u    -0.46194    0.23656   
 718.75u   -0.49039   -0.23595   
 750.u     -0.5       -0.64716   
 781.25u   -0.49039   -1.0052    
 812.5u    -0.46194   -1.3181    
 843.75u   -0.41573   -1.5894    
 875.u     -0.35355   -1.8258    
 906.25u   -0.27779   -2.0305    
 937.5u    -0.19134   -2.2091    
 968.75u   -0.097545  -2.3644    
 0.001     -6.9132f   -2.4398    
#Time       v(vin)     v(6)      
 0.001     -6.9132f   -2.4398    
 0.0010312  0.097545  -2.4674    
 0.0010625  0.19134   -1.5353    
 0.0010937  0.27779    0.22763   
 0.001125   0.35355    2.2306    
 0.0011562  0.41573    2.4898    
 0.0011875  0.46194    2.4886    
 0.0012187  0.49039    2.4941    
 0.00125    0.5        2.4938    
 0.0012812  0.49039    2.4936    
 0.0013125  0.46194    2.4901    
 0.0013437  0.41573    2.4935    
 0.001375   0.35355    2.4901    
 0.0014062  0.27779    2.4933    
 0.0014375  0.19134    2.49      
 0.0014688  0.097545   2.4931    
 0.0015     10.788f    2.4899    
 0.0015312 -0.097545   2.494     
 0.0015625 -0.19134    2.4742    
 0.0015937 -0.27779    2.2231    
 0.001625  -0.35355    1.5062    
 0.0016562 -0.41573    0.87349   
 0.0016875 -0.46194    0.32234   
 0.0017187 -0.49039   -0.16068   
 0.00175   -0.5       -0.58162   
 0.0017812 -0.49039   -0.94829   
 0.0018125 -0.46194   -1.2685    
 0.0018437 -0.41573   -1.5464    
 0.001875  -0.35355   -1.7884    
 0.0019062 -0.27779   -1.9982    
 0.0019375 -0.19134   -2.1811    
 0.0019687 -0.097545  -2.3412    
 0.002     -10.586f   -2.4332    
# v(vin)    --------- actual ---------  -------- relative --------
#freq       value        dB      phase  value        dB      phase
 0.         2.1575f   -293.32  -90.000  4.3149f   -287.30  -90.000
 1.K        0.5         -6.02   -0.000  1.           0.00   -0.000
 2.K        3.0739f   -290.25  130.558  6.1478f   -284.23  130.558
 3.K        3.1387f   -290.06  -70.902  6.2774f   -284.04  -70.902
 4.K        2.0665f   -293.70  -58.389  4.1331f   -287.67  -58.389
 5.K        3.1459f   -290.05  178.443  6.2918f   -284.02  178.443
 6.K        1.3857f   -297.17  155.864  2.7714f   -291.15  155.864
 7.K        354.E-18  -309.02 -178.383  708.E-18  -303.00 -178.383
 8.K        1.7662f   -295.06 -113.685  3.5324f   -289.04 -113.685
 9.K        3.0097f   -290.43  135.667  6.0194f   -284.41  135.667
 10.K       3.0805f   -290.23  134.249  6.1611f   -284.21  134.249
# v(6)      --------- actual ---------  -------- relative --------
#freq       value        dB      phase  value        dB      phase
 0.         0.71858     -2.87   90.000  0.28256    -10.98  143.181
 1.K        2.5431       8.11  -53.181  1.           0.00   -0.000
 2.K        0.73835     -2.63  -41.139  0.29034    -10.74   12.042
 3.K        0.54904     -5.21 -108.465  0.21589    -13.32  -55.283
 4.K        0.31978     -9.90 -112.171  0.12575    -18.01  -58.990
 5.K        0.24834    -12.10 -168.782  0.097653   -20.21 -115.600
 6.K        0.15793    -16.03 -178.902  0.062101   -24.14 -125.720
 7.K        0.12438    -18.11  124.702  0.048908   -26.21  177.883
 8.K        0.075513   -22.44  111.997  0.029693   -30.55  165.179
 9.K        0.060944   -24.30   49.049  0.023964   -32.41  102.230
 10.K       0.030165   -30.41   32.928  0.011862   -38.52   86.109
Gnucap   System status
iterations: op=13, dc=291, tran=303, fourier=299, total=1048
transient timesteps: accepted=105, rejected=1, total=106
nodes: user=9, subckt=0, model=16, total=25
dctran density=47.5%, ac density=47.5%
